[start]
20160101	0	20300101	0	50700	999999	0	0	1	1	0	150	0	0	0	0	7500	0	2000	0	500	0	0	0	Some Cats only appear here! All Cats here are Rare or above.
20180109	1100	20300101	1100	50700	999999	0	0	0	1	0	0	0	0	10000	0	0	0	0	0	0	0	0	0	
20170101	0	20300101	0	50700	999999	0	0	2	2	0	30	0	0	0	0	7500	0	2000	0	500	0	0	0		0	30	0	0	0	0	7500	0	2000	0	500	0	0	0	
20170101	0	20300101	0	50700	999999	0	0	3	2	0	75	0	0	0	0	7500	0	2000	0	500	0	0	0		0	75	0	0	0	0	7500	0	2000	0	500	0	0	0	
20181013	1100	20300101	1100	70400	999999	0	0	1	4	-1	150	0	0	0	0	7500	0	2000	0	500	0	0	0		-1	150	0	0	0	0	7500	0	2000	0	500	0	0	0		-1	150	0	0	0	0	7500	0	2000	0	500	0	0	0		320	0	0	0	0	0	0	0	0	0	10000	0	0	0	Get an Uber Rare Cat!! 100% Uber drop Rate in the PLATINUM CAPSULES!
20190516	1100	20190602	0	80400	999999	0	0	0	3	-1	150	0	0	0	0	7500	0	2000	0	500	0	0	0		-1	150	0	0	0	0	7500	0	2000	0	500	0	0	0		24	0	300	0	0	0	5100	0	3500	0	1400	0	0	0	【Limited Event】 Special chance for XP and Catamins! ★ On thru 6/1!
20190520	1100	20190604	0	80500	999999	0	0	0	2	-1	150	0	0	0	0	7500	0	2000	0	500	0	0	0		25	0	0	0	0	0	7400	0	2100	0	500	0	0	0	【Limited】 Collect Li'l Cats only during this event!★ Thru June 3rd!
20190527	1100	20190610	1100	80501	999999	0	0	1	1	318	150	0	3608	0	0	7000	0	2500	0	500	0	0	0	Magoka Magica The Movie -Rebellion- Collab Capsules! ★ Tap for info!
20190529	1100	20190601	1100	80500	999999	0	0	1	2	-1	150	0	0	0	0	7500	0	2000	0	500	0	0	0		372	150	0	3608	0	0	6970	0	2500	0	500	0	30	0	Eldritch Cats(?) from beyond, with a mystery Legend! ★ Tap banner for info!
20190601	1100	20190604	1100	80500	999999	0	0	1	2	-1	150	0	0	0	0	7500	0	2000	0	500	0	0	0		360	150	0	3608	0	0	6500	0	2600	0	900	0	0	0	Uberfest is here! ★ Extra-high Uber drop rate for every draw!
20190603	1100	20190610	1100	80501	999999	0	0	1	1	318	150	0	0	0	0	7000	0	2500	0	500	0	0	0	Magoka Magica The Movie -Rebellion- Collab Capsules! ★ Tap for info!
20190603	1100	20190604	1100	80500	999999	0	0	1	2	-1	150	0	0	0	0	7500	0	2000	0	500	0	0	0		360	150	0	0	0	0	6500	0	2600	0	900	0	0	0	Uberfest is here! ★ Extra-high Uber drop rate for every draw!
20190604	1100	20190606	1100	80501	999999	0	0	1	2	-1	150	0	0	0	0	7500	0	2000	0	500	0	0	0		342	150	0	0	0	0	7000	0	2500	0	500	0	0	0	★ Dark Heroes ★ Defend justice with superpowered Uber Cats!
20190606	1100	20190610	1100	80501	999999	0	0	1	1	318	150	0	0	0	0	7000	0	2500	0	500	1	0	0	Magoka Magica The Movie -Rebellion- Capsules w/ 11-Draw Guarantee!
20190606	1100	20190608	1100	80501	999999	0	0	1	2	-1	150	0	0	0	0	7500	0	2000	0	500	0	0	0		362	150	0	0	0	0	6970	0	2500	0	500	1	30	0	★ Ultra Souls★ Guaranteed 11-Draw for legendary Uber Rare Cats!
20190608	1100	20190610	1100	80501	999999	0	0	1	2	-1	150	0	0	0	0	7500	0	2000	0	500	0	0	0		369	150	0	0	0	0	6970	0	2500	0	500	1	30	0	The Dynamites★ 11-Draw Guarantee, with a new mystery member?!
20190610	1100	20190625	0	80501	999999	0	0	0	2	-1	150	0	0	0	0	7500	0	2000	0	500	0	0	0		26	0	0	0	0	0	7400	0	2100	0	500	0	0	0	【Limited】 Collect Li'l Cats only during this event!★ Thru June 24th!
20190610	1100	20190612	1100	80501	999999	0	0	1	1	345	150	0	3624	0	0	7000	0	2500	0	500	0	0	0	★ The Almighties! ★ All-powerful Uber Cats, ready to be recruited!
20190612	1100	20190614	1100	80501	999999	0	0	1	1	330	150	0	3624	0	0	6970	0	2500	0	500	0	30	0	★ Vajiras Wargods ★ Tactical Master Uber Cats, with a new mystery general?!
20190614	1100	20190617	1100	80501	999999	0	0	1	1	361	150	0	3624	0	0	6500	0	2600	0	900	0	0	0	D'arktanyan is here! ★ Plus higher drop rate for Uber Rares!
20190616	1100	20190702	0	80501	999999	0	0	0	3	-1	150	0	0	0	0	7500	0	2000	0	500	0	0	0		-1	150	0	0	0	0	7500	0	2000	0	500	0	0	0		27	0	300	0	0	0	5100	0	3500	0	1400	0	0	0	【Limited Event】 Special chance for XP and Catamins! ★ On thru 7/1!
20190617	1100	20190619	1100	80501	999999	0	0	1	1	372	150	0	3624	0	0	6970	0	2500	0	500	0	30	0	Eldritch Cats(?) from beyond, with a mystery Legend! ★ Tap banner for info!
[end]
