[start]
20160101	0	20300101	0	50700	999999	0	0	1	1	0	150	0	0	0	0	7500	0	2000	0	500	0	0	0	Some Cats only appear here! All Cats here are Rare or above.
20180109	1100	20300101	1100	50700	999999	0	0	0	1	0	0	0	0	10000	0	0	0	0	0	0	0	0	0	
20170101	0	20300101	0	80200	999999	0	0	2	3	0	30	0	0	0	0	7500	0	2000	0	500	0	0	0		0	30	0	0	0	0	7500	0	2000	0	500	0	0	0		0	30	0	0	0	0	7500	0	2000	0	500	0	0	0	
20170101	0	20300101	0	80200	999999	0	0	3	3	0	75	0	0	0	0	7500	0	2000	0	500	0	0	0		0	75	0	0	0	0	7500	0	2000	0	500	0	0	0		0	75	0	0	0	0	7500	0	2000	0	500	0	0	0	
20200424	1100	20300101	1100	90400	999999	0	0	1	4	-1	0	0	0	0	0	0	0	0	0	0	0	0	0		-1	0	0	0	0	0	0	0	0	0	0	0	0	0		-1	0	0	0	0	0	0	0	0	0	0	0	0	0		504	0	0	0	0	0	0	0	0	0	10000	0	0	0	Get an Uber Rare Cat!! 100% Uber drop Rate in the PLATINUM CAPSULES!
20200716	1100	20200802	000	90600	999999	0	0	0	4	-1	0	0	0	0	0	0	0	0	0	0	0	0	0		-1	0	0	0	0	0	0	0	0	0	0	0	0	0		-1	0	0	0	0	0	0	0	0	0	0	0	0	0		46	0	300	0	0	0	5100	0	3500	0	1400	0	0	0	【Limited Event】 Special chance for XP and Catamins! ★ On thru 8/1!
20200720	1100	20200722	1100	90700	999999	0	0	1	1	424	150	0	0	0	0	6970	0	2500	0	500	0	30	0	A wacky variety set of mighty Uber Cats! ★ Tap banner for info!
20200722	1100	20200724	1100	90700	999999	0	0	1	1	433	150	0	0	0	0	6970	0	2500	0	500	0	30	0	Ancient dragons of unmatched might! ★ Tap banner for info!
20200724	1100	20200727	1100	90700	999999	0	0	1	1	509	150	0	0	0	0	6500	0	2600	0	900	0	0	0	Kasli the Bane, only in this set! ★ Plus higher Uber drop rates!
20200724	1100	20300101	1100	90700	999999	0	0	1	4	-1	0	0	0	0	0	0	0	0	0	0	0	0	0		-1	0	0	0	0	0	0	0	0	0	0	0	0	0		-1	0	0	0	0	0	0	0	0	0	0	0	0	0		510	0	0	0	0	0	0	0	0	0	10000	0	0	0	Get an Uber Rare Cat!! 100% Uber drop Rate in the PLATINUM CAPSULES!
20200727	1100	20200729	1100	90700	999999	0	0	1	1	497	150	0	0	0	0	6970	0	2500	0	500	0	30	0	Hades of the Underworld lends his strength! ★ Tap banner for info!
20200729	1100	20200731	1100	90700	999999	0	0	1	1	475	150	0	0	0	0	6970	0	2500	0	500	0	30	0	Heroes of Japanese fantasy with 2 battle modes! ★ Tap banner for info!
20200731	1100	20200803	1100	90700	999999	0	0	1	1	500	150	0	0	0	0	6500	0	2600	0	900	0	0	0	Embrace darkness with Kasli the Scourge! Plus higher Uber drop rates!
[end]
