[start]
20160101	0	20300101	0	50700	999999	0	0	1	1	0	150	0	0	0	0	7500	0	2000	0	500	0	0	0	Some Cats only appear here! All Cats here are Rare or above.
20180109	1100	20300101	1100	50700	999999	0	0	0	1	0	0	0	0	10000	0	0	0	0	0	0	0	0	0	
20170101	0	20300101	0	80200	999999	0	0	2	3	0	30	0	0	0	0	7500	0	2000	0	500	0	0	0		0	30	0	0	0	0	7500	0	2000	0	500	0	0	0		0	30	0	0	0	0	7500	0	2000	0	500	0	0	0	
20170101	0	20300101	0	80200	999999	0	0	3	3	0	75	0	0	0	0	7500	0	2000	0	500	0	0	0		0	75	0	0	0	0	7500	0	2000	0	500	0	0	0		0	75	0	0	0	0	7500	0	2000	0	500	0	0	0	
20200424	1100	20300101	1100	90400	999999	0	0	1	4	-1	0	0	0	0	0	0	0	0	0	0	0	0	0		-1	0	0	0	0	0	0	0	0	0	0	0	0	0		-1	0	0	0	0	0	0	0	0	0	0	0	0	0		504	0	0	0	0	0	0	0	0	0	10000	0	0	0	Get an Uber Rare Cat!! 100% Uber drop Rate in the PLATINUM CAPSULES!
20200724	1100	20300101	1100	90700	999999	0	0	1	4	-1	0	0	0	0	0	0	0	0	0	0	0	0	0		-1	0	0	0	0	0	0	0	0	0	0	0	0	0		-1	0	0	0	0	0	0	0	0	0	0	0	0	0		510	0	0	0	0	0	0	0	0	0	10000	0	0	0	Get an Uber Rare Cat!! 100% Uber drop Rate in the PLATINUM CAPSULES!
20200803	1100	20200810	1100	90700	999999	0	0	0	3	-1	0	0	0	0	0	0	0	0	0	0	0	0	0		-1	0	0	0	0	0	0	0	0	0	0	0	0	0		3	0	300	0	400	0	2000	0	7000	0	600	0	0	0	Limited Capsules ★ Collect Catfruit by drawing from this set!
20200803	1100	20200805	1100	90700	999999	0	0	1	1	448	150	0	0	0	0	6970	0	2500	0	500	0	30	0	★ Elemental Pixies ★ Cosmic powers brought to life, with a mystery elemental!
20200805	1100	20200807	1100	90700	999999	0	0	1	1	427	150	0	0	0	0	6970	0	2500	0	500	0	30	0	Slay your foes with the mighty Vajiras! ★ Tap banner for info!
20200807	1100	20200810	1100	90700	999999	0	0	1	1	517	150	0	0	0	0	6970	0	2500	0	500	1	30	0	Papaluga joins the Nekoluga clan, plus 11-draw Uber guarantee!
20200807	1100	20300101	1100	90700	999999	0	0	1	4	-1	0	0	0	0	0	0	0	0	0	0	0	0	0		-1	0	0	0	0	0	0	0	0	0	0	0	0	0		-1	0	0	0	0	0	0	0	0	0	0	0	0	0		522	0	0	0	0	0	0	0	0	0	10000	0	0	0	Get an Uber Rare Cat!! 100% Uber drop Rate in the PLATINUM CAPSULES!
20200810	1100	20200817	1100	90700	999999	0	0	0	3	-1	0	0	0	0	0	0	0	0	0	0	0	0	0		-1	0	0	0	0	0	0	0	0	0	0	0	0	0		5	0	0	2	500	0	7000	0	2000	0	500	0	0	0	★ Limited Capsules ★ Pick up extra Catseyes in this special Capsule set!
20200810	1100	20200817	1100	90700	999999	0	0	1	1	515	150	0	0	0	0	7000	0	2500	0	500	0	0	0	Rare Capsules with Limited Edition Evangelion Units! ★ Tap the banner for info!
20200810	1100	20200812	1100	90700	999999	0	0	1	2	-1	0	0	0	0	0	0	0	0	0	0	0	0	0		506	150	0	0	0	0	6970	0	2500	0	500	0	30	0	A Legend now fights alongside the spooky cuties! ★ Tap banner for info!
20200812	1100	20200814	1100	90700	999999	0	0	1	2	-1	0	0	0	0	0	0	0	0	0	0	0	0	0		445	150	0	0	0	0	6970	0	2500	0	500	0	30	0	Ultimate Cat artillery, with a top-secret Legend?! ★ Tap banner for info!
20200814	1100	20200817	1100	90700	999999	0	0	1	1	515	150	0	0	0	0	7000	0	2500	0	500	1	0	0	Rare Capsules with Limited Edition Evangelion Units! ★ Tap the banner for info!
20200814	1100	20200817	1100	90700	999999	0	0	1	2	-1	0	0	0	0	0	0	0	0	0	0	0	0	0		430	150	0	0	0	0	6970	0	2500	0	500	1	30	0	Galaxy Gals, here from the future to win the day! ★ Tap banner for info!
20200816	1100	20200902	000	90700	999999	0	0	0	4	-1	0	0	0	0	0	0	0	0	0	0	0	0	0		-1	0	0	0	0	0	0	0	0	0	0	0	0	0		-1	0	0	0	0	0	0	0	0	0	0	0	0	0		48	0	300	0	0	0	5100	0	3500	0	1400	0	0	0	【Limited Event】 Special chance for XP and Catamins! ★ On thru 9/1!
20200817	1100	20200819	1100	90700	999999	0	0	1	1	433	150	0	0	0	0	6970	0	2500	0	500	0	30	0	Ancient dragons of unmatched might! ★ Tap banner for info!
20200819	1100	20200821	1100	90700	999999	0	0	1	1	451	150	0	4	0	0	7000	0	2500	0	500	0	0	0	Leave those Red nasties to the RED BUSTERS! Tap banner for info!
20200819	1100	20200821	1100	90700	999999	0	0	1	2	-1	0	0	0	0	0	0	0	0	0	0	0	0	0		452	150	0	4	0	0	7000	0	2500	0	500	0	0	0	Floating has no hope against the AIR BUSTERS! Tap banner for info!
20200819	1100	20200821	1100	90700	999999	0	0	1	3	-1	0	0	0	0	0	0	0	0	0	0	0	0	0		-1	0	0	0	0	0	0	0	0	0	0	0	0	0		453	150	0	4	0	0	7000	0	2500	0	500	0	0	0	Metal baddies? No sweat for the METAL BUSTERS! Tap banner for info!
20200821	1100	20200824	1100	90700	999999	0	0	1	1	521	150	0	0	0	0	6500	0	2600	0	900	0	0	0	Kasli the Bane, only in this set! ★ Plus higher Uber drop rates!
[end]
