[start]
20160101	0	20300101	0	50700	999999	0	0	1	1	0	150	0	0	0	0	7500	0	2000	0	500	0	0	0	Some Cats only appear here! All Cats here are Rare or above.
20180109	1100	20300101	1100	50700	999999	0	0	0	1	0	0	0	0	10000	0	0	0	0	0	0	0	0	0	
20170101	0	20300101	0	80200	999999	0	0	2	3	0	30	0	0	0	0	7500	0	2000	0	500	0	0	0		0	30	0	0	0	0	7500	0	2000	0	500	0	0	0		0	30	0	0	0	0	7500	0	2000	0	500	0	0	0	
20170101	0	20300101	0	80200	999999	0	0	3	3	0	75	0	0	0	0	7500	0	2000	0	500	0	0	0		0	75	0	0	0	0	7500	0	2000	0	500	0	0	0		0	75	0	0	0	0	7500	0	2000	0	500	0	0	0	
20200424	1100	20300101	1100	90400	999999	0	0	1	4	-1	0	0	0	0	0	0	0	0	0	0	0	0	0		-1	0	0	0	0	0	0	0	0	0	0	0	0	0		-1	0	0	0	0	0	0	0	0	0	0	0	0	0		504	0	0	0	0	0	0	0	0	0	10000	0	0	0	Get an Uber Rare Cat!! 100% Uber drop Rate in the PLATINUM CAPSULES!
20200616	1100	20200702	0	90500	999999	0	0	0	4	-1	0	0	0	0	0	0	0	0	0	0	0	0	0		-1	0	0	0	0	0	0	0	0	0	0	0	0	0		-1	0	0	0	0	0	0	0	0	0	0	0	0	0		44	0	300	0	0	0	5100	0	3500	0	1400	0	0	0	【Limited Event】 Special chance for XP and Catamins! ★ On thru 7/1!
20200629	1100	20200714	000	90600	999999	0	0	0	3	-1	0	0	0	0	0	0	0	0	0	0	0	0	0		-1	0	0	0	0	0	0	0	0	0	0	0	0	0		47	0	0	0	0	0	7400	0	2100	0	500	0	0	0	【Limited】 Collect Li'l Cats only during this event!★ Thru July 13th!
20200629	1100	20200701	1100	90600	999999	0	0	1	1	475	150	0	3960	0	0	6970	0	2500	0	500	0	30	0	Heroes of Japanese fantasy with 2 battle modes! ★ Tap banner for info!
20200701	1100	20200703	1100	90600	999999	0	0	1	1	448	150	0	3960	0	0	6970	0	2500	0	500	0	30	0	★ Elemental Pixies ★ Cosmic powers brought to life, with a mystery elemental!
20200703	1100	20200706	1100	90600	999999	0	0	1	1	500	150	0	3960	0	0	6500	0	2600	0	900	0	0	0	Embrace darkness with Kasli the Scourge! Plus higher Uber drop rates!
20200706	1100	20200708	1100	90600	999999	0	0	1	1	421	150	0	0	0	0	6970	0	2500	0	500	0	30	0	Eldritch Cats(?) from beyond, with a mystery Legend! ★ Tap banner for info!
20200708	1100	20200710	1100	90600	999999	0	0	1	1	427	150	0	0	0	0	6970	0	2500	0	500	0	30	0	Slay your foes with the mighty Vajiras! ★ Tap banner for info!
20200710	1100	20200713	1100	90600	999999	0	0	1	1	506	150	0	0	0	0	6970	0	2500	0	500	1	30	0	A Legend now fights alongside the spooky cuties! ★ Tap banner for info!
20200713	1100	20200715	1100	90600	999999	0	0	1	1	445	150	0	0	0	0	6970	0	2500	0	500	0	30	0	Ultimate Cat artillery, with a top-secret Legend?! ★ Tap banner for info!
20200715	1100	20200717	1100	90600	999999	0	0	1	1	430	150	0	0	0	0	6970	0	2500	0	500	0	30	0	Galaxy Gals, here from the future to win the day! ★ Tap banner for info!
20200716	1100	20200802	000	90600	999999	0	0	0	4	-1	0	0	0	0	0	0	0	0	0	0	0	0	0		-1	0	0	0	0	0	0	0	0	0	0	0	0	0		-1	0	0	0	0	0	0	0	0	0	0	0	0	0		46	0	300	0	0	0	5100	0	3500	0	1400	0	0	0	【Limited Event】 Special chance for XP and Catamins! ★ On thru 8/1!
[end]
