[start]
20160101	0	20200925	1100	80200	999999	0	0	1	1	0	150	0	0	0	0	7500	0	2000	0	500	0	0	0	Some Cats only appear here! All Cats here are Rare or above.
20180109	1100	20300101	1100	50700	999999	0	0	0	1	0	0	0	0	10000	0	0	0	0	0	0	0	0	0	
20170101	0	20300101	0	80200	999999	0	0	2	3	0	30	0	0	0	0	7500	0	2000	0	500	0	0	0		0	30	0	0	0	0	7500	0	2000	0	500	0	0	0		0	30	0	0	0	0	7500	0	2000	0	500	0	0	0	
20170101	0	20300101	0	80200	999999	0	0	3	3	0	75	0	0	0	0	7500	0	2000	0	500	0	0	0		0	75	0	0	0	0	7500	0	2000	0	500	0	0	0		0	75	0	0	0	0	7500	0	2000	0	500	0	0	0	
20200807	1100	20300101	1100	90700	999999	0	0	1	4	-1	0	0	0	0	0	0	0	0	0	0	0	0	0		-1	0	0	0	0	0	0	0	0	0	0	0	0	0		-1	0	0	0	0	0	0	0	0	0	0	0	0	0		522	0	0	0	0	0	0	0	0	0	10000	0	0	0	Get an Uber Rare Cat!! 100% Uber drop Rate in the PLATINUM CAPSULES!
20200914	1100	20200929	000	90800	999999	0	0	0	3	-1	0	0	0	0	0	0	0	0	0	0	0	0	0		-1	0	0	0	0	0	0	0	0	0	0	0	0	0		51	0	0	0	0	0	7400	0	2100	0	500	0	0	0	【Limited】 Collect Li'l Cats only during this event!★ Thru September 28th!
20200914	1100	20200920	1100	90800	999999	0	0	0	2	-1	0	0	0	0	0	0	0	0	0	0	0	0	0		3	0	300	0	400	0	2000	0	7000	0	600	0	0	0	Limited Capsules ★ Collect Catfruit by drawing from this set!
20200916	1100	20201002	000	90800	999999	0	0	0	4	-1	0	0	0	0	0	0	0	0	0	0	0	0	0		-1	0	0	0	0	0	0	0	0	0	0	0	0	0		-1	0	0	0	0	0	0	0	0	0	0	0	0	0		50	0	300	0	0	0	5100	0	3500	0	1400	0	0	0	【Limited Event】 Special chance for XP and Catamins! ★ On thru 10/1!
20200916	1100	20200918	1100	90800	999999	0	0	1	1	446	150	0	4024	0	0	6970	0	2500	0	500	1	30	0	Ultimate Cat artillery, with a top-secret Legend?! ★ Tap banner for info!
20200918	1100	20200921	1100	90800	999999	0	0	1	1	521	150	0	4024	0	0	6500	0	2600	0	900	0	0	0	All the Ubers are gathered for EPICFEST, with higher drop rates!
20200920	1100	20200925	1100	90800	999999	0	0	0	2	-1	0	0	0	0	0	0	0	0	0	0	0	0	0		5	0	0	2	500	0	7000	0	2000	0	500	0	0	0	★ Limited Capsules ★ Pick up extra Catseyes in this special Capsule set!
20200921	1100	20200923	1100	90800	999999	0	0	1	1	432	150	0	4024	0	0	6970	0	2500	0	500	1	30	0	Galaxy Gals, here from the future to win the day! ★ Tap banner for info!
20200923	1100	20200925	1100	90800	999999	0	0	1	1	489	150	0	4024	0	0	6970	0	2500	0	500	1	30	0	For Justice and Cats! The Dark Heroes, with 11-draw guaranteed Uber!
20200925	1100	20200928	1100	90800	999999	0	0	1	1	526	150	0	4024	0	0	7000	0	2500	0	500	1	0	0	Best of the Best, with a new collection of heroes! ★ Tap banner for info!
20200925	1100	20201004	000	90800	999999	0	0	0	2	-1	0	0	0	0	0	0	0	0	0	0	0	0	0		3	0	300	0	400	0	2000	0	7000	0	600	0	0	0	Limited Capsules ★ Collect Catfruit by drawing from this set!
20200925	1100	20200928	1100	90800	999999	0	0	1	2	-1	0	0	0	0	0	0	0	0	0	0	0	0	0		426	150	0	4024	0	0	6970	0	2500	0	500	1	30	0	A wacky variety set of mighty Uber Cats! ★ Tap banner for info!
20200928	1100	20200930	1100	90800	999999	0	0	1	2	-1	0	0	0	0	0	0	0	0	0	0	0	0	0		475	150	0	0	0	0	6970	0	2500	0	500	1	30	0	Heroes of Japanese fantasy with 2 battle modes! ★ Tap banner for info!
20200928	1100	20200930	1100	90800	999999	0	0	1	1	530	150	0	0	0	0	6970	0	2500	0	500	1	30	0	6 Year Celebration: Ultra Selection! ★ Tap banner for info!
20200930	1100	20201002	1100	90800	999999	0	0	1	1	531	150	0	0	0	0	6970	0	2500	0	500	1	30	0	6 Year Celebration: Miracle Chance! ★ Tap banner for info!
20200930	1100	20201002	1100	90800	999999	0	0	1	2	-1	0	0	0	0	0	0	0	0	0	0	0	0	0		497	150	0	0	0	0	6970	0	2500	0	500	1	30	0	The Almighties, supreme beings of Catkind! ★ Tap banner for info!
20201002	1100	20201005	1100	90900	999999	0	0	1	1	536	150	0	0	0	0	6500	0	2500	0	1000	0	0	0	All Limited Ubers from Uberfest/Epicfest! Huge Uber drop rate boost!
[end]
