[start]
20180109	1100	20300101	1100	50700	999999	0	0	0	1	0	0	0	0	10000	0	0	0	0	0	0	0	0	0	
20170101	0	20300101	0	80200	999999	0	0	2	3	0	30	0	0	0	0	7500	0	2000	0	500	0	0	0		0	30	0	0	0	0	7500	0	2000	0	500	0	0	0		0	30	0	0	0	0	7500	0	2000	0	500	0	0	0	
20170101	0	20300101	0	80200	999999	0	0	3	3	0	75	0	0	0	0	7500	0	2000	0	500	0	0	0		0	75	0	0	0	0	7500	0	2000	0	500	0	0	0		0	75	0	0	0	0	7500	0	2000	0	500	0	0	0	
20201009	1100	20300101	1100	90900	999999	0	0	1	4	-1	0	0	0	0	0	0	0	0	0	0	0	0	0		-1	0	0	0	0	0	0	0	0	0	0	0	0	0		-1	0	0	0	0	0	0	0	0	0	0	0	0	0		525	0	0	0	0	0	0	0	0	0	10000	0	0	0	Get an Uber Rare Cat!! 100% Uber drop Rate in the PLATINUM CAPSULES!
20201113	1100	20300101	1100	91000	999999	0	0	1	4	-1	0	0	0	0	0	0	0	0	0	0	0	0	0		-1	0	0	0	0	0	0	0	0	0	0	0	0	0		-1	0	0	0	0	0	0	0	0	0	0	0	0	0		543	0	0	0	0	0	0	0	0	0	10000	0	0	0	Get an Uber Rare Cat!! 100% Uber drop Rate in the PLATINUM CAPSULES!
20210212	000	20300101	1100	100200	999999	0	0	1	4	-1	0	0	0	0	0	0	0	0	0	0	0	0	0		-1	0	0	0	0	0	0	0	0	0	0	0	0	0		-1	0	0	0	0	0	0	0	0	0	0	0	0	0		556	0	0	0	0	0	0	0	0	0	10000	0	0	0	Get an Uber Rare Cat!! 100% Uber drop Rate in the PLATINUM CAPSULES!
20210503	1100	20300101	000	100400	999999	0	0	0	3	-1	0	0	0	0	0	0	0	0	0	0	0	0	0		-1	0	0	0	0	0	0	0	0	0	0	0	0	0		62	0	0	0	0	0	7400	0	2100	0	500	0	0	0	【Limited】 Collect Li'l Cats only during this event!
20210416	1100	20300101	000	100400	999999	0	0	0	4	-1	0	0	0	0	0	0	0	0	0	0	0	0	0		-1	0	0	0	0	0	0	0	0	0	0	0	0	0		-1	0	0	0	0	0	0	0	0	0	0	0	0	0		63	0	300	0	0	0	5100	0	3500	0	1400	0	0	0	【Limited Event】 Special chance for XP and Catamins!
20210507	1100	20300101	1100	100400	999999	0	0	1	4	-1	0	0	0	0	0	0	0	0	0	0	0	0	0		-1	0	0	0	0	0	0	0	0	0	0	0	0	0		-1	0	0	0	0	0	0	0	0	0	0	0	0	0		577	0	0	0	0	0	0	0	0	0	10000	0	0	0	Get an Uber Rare Cat!! 100% Uber drop Rate in the PLATINUM CAPSULES!
20210709	0	20300101	1100	100600	999999	0	0	1	4	-1	0	0	0	0	0	0	0	0	0	0	0	0	0		-1	0	0	0	0	0	0	0	0	0	0	0	0	0		-1	0	0	0	0	0	0	0	0	0	0	0	0	0		592	0	0	0	0	0	0	0	0	0	10000	0	0	0	Get an Uber Rare Cat!! 100% Uber drop Rate in the PLATINUM CAPSULES!	0	0	0	4	fr	Obtiens un ultra rare ! 100 % de chances avec les Chapsules platine !	it	Ottieni un gatto ultra raro! 100% possibilità di Ultra nelle CAPSULE PLATINO!	de	Hol dir eine megaseltene Katze!! 100-%-Chance in den PLATINKAPSELN!	es	¡Gana un gato megarraro! Garantizado en las BOLAS DE PLATINO.
20210809	1100	20210811	1100	100700	999999	0	0	1	3	-1	0	0	0	0	0	0	0	0	0	0	0	0	0		-1	0	0	0	0	0	0	0	0	0	0	0	0	0		475	150	0	0	0	0	6970	0	2500	0	500	0	30	0	Super-sweet limited Valentine's heroes! ★ Tap banner for info!	0	0	4	fr	Des héros à croquer pour la Saint-Valentin ! ★ Touche pour plus d’infos !	it	Dolcissimi eroi di San Valentino limitati! ★ Tocca il banner!	de	Supersüße, limitierte Valentinshelden! ★ Tippe auf das Banner!	es	¡Adorables y exclusivos héroes de San Valentín! ★ ¡Toca para saber más!
20210811	1100	20210813	1100	100700	999999	0	0	1	3	-1	0	0	0	0	0	0	0	0	0	0	0	0	0		-1	0	0	0	0	0	0	0	0	0	0	0	0	0		572	150	0	0	0	0	6970	0	2500	0	500	0	30	0	NEW Iron Legion Hero Mighty Aethur Ltd. ★ Tap banner fo info!	0	0	4	fr	Artillerie féline avec Chat légendaire top secret ! ★ Touche pour plus d’infos !	it	L'artiglieria definitiva con un Gatto leggendario segreto?! ★ Tocca il banner!	de	Ultimative Katzenartillerie mit geheimer Legende?! ★ Tippe auf das Banner!	es	La mejor artillería felina y... ¿una leyenda secreta? ★ ¡Toca para saber más!
20210813	1100	20210816	1100	100700	999999	0	0	1	1	590	150	0	0	0	0	6500	0	2600	0	900	0	0	0	All the Ubers are gathered for EPICFEST, with higher drop rates!	4	fr	Tous les ultra rares sont là pour la Méga-fête, taux d’obt. plus élevés !	it	Gli Ultra sono al FESTIVAL EPICO, con maggiori probabilità di ottenerli!	de	Alle Megaseltenen versammeln sich zum epischen Fest mit höheren Chancen!	es	¡Llega el Hiperfesti, con más probabilidad de conseguir megarraros!
20210816	1100	20210823	1100	100600	999999	0	0	0	2	-1	0	0	0	0	0	0	0	0	0	0	0	0	0		5	0	0	2	500	0	7000	0	2000	0	500	0	0	0	★ Limited Capsules ★ Pick up extra Catseyes in this special Capsule set!	0	4	fr	★ Chapsules à durée limitée ★ Plus d’œils-de-chat dans ces Chapsules spéciales !	it	★ Capsule limitate ★ Ottieni Occhio di gatto in questo speciale set capsule!	de	★ Limitierte Kapseln ★ Hol dir zusätzliche Katzenaugen durch dieses Kapselset!	es	★ Bolas exclusivas ★ ¡Consigue más gatojos en esta serie especial de bolas!
20210823	1100	20210830	1100	100600	999999	0	0	0	2	-1	0	0	0	0	0	0	0	0	0	0	0	0	0		3	0	300	0	400	0	2000	0	7000	0	600	0	0	0	Limited Capsules ★ Collect Catfruit by drawing from this set!	0	4	fr	Chapsules ponctuelles ★ Obtiens des Chagrumes dans cet ensemble !	it	Capsule limitate ★ Ottieni miagrumi sorteggiando da questo set!	de	Limitierte Kapseln ★ Sammle Katzenfrüchte aus diesem Set!	es	Bolas exclusivas ★ ¡Consigue fruta felina en esta serie de bolas!
20210816	1100	20210818	000	100700	999999	0	0	1	1	430	150	0	0	0	0	6440	0	2500	0	1000	0	60	0	Double the Uber / Legend chances! ★ Cosmic cuties, here to crush your enemies!	4	fr	Chance x2 : ultra rare/légend. ! ★ Beautés cosmiques qui tueront tes ennemis !	it	Doppia occasione di ultra/leggendari! ★ Bellezze cosmiche distruttive!	de	Doppelte Chance auf Mega/Legenden! ★ Kosmische Fratze vernichten deine Gegner!	es	¡Megarraros/Legendarios con el doble de probabilidad! ★ ¡Bellezas cósmicas!
20210816	1100	20210818	000	100700	999999	0	0	1	2	-1	0	0	0	0	0	0	0	0	0	0	0	0	0		427	150	0	0	0	0	6440	0	2500	0	1000	0	60	0	Double the Uber / Legend chances! ★ Masters of battle join the Cat cause!	0	4	fr	Chance x2 : ultra rare/légend. ! ★ Maîtres du combat pour la cause des Chats !	it	Doppia occasione di ultra/leggendari! ★ Eroi combattenti per la causa felina!	de	Doppelte Chance auf Mega/Legenden! ★ Kampfmeister schließen sich den Katzen an!	es	¡Megarraros/Legendarios con el doble de probabilidad! ★ ¡Maestros del combate!
20210818	000	20210820	000	100700	999999	0	0	1	1	585	150	0	0	0	0	6440	0	2500	0	1000	0	60	0	Double the Uber / Legend chances! ★ Spooky beauties from beyond!	4	fr	Chance x2 : ultra rare/légendaire ! ★ Beautés inquiétantes de l’au-delà !	it	Doppia occasione di ultra/leggendari! ★ Bellezze spettrali dall'aldilà!	de	Doppelte Chance auf Mega/Legenden! ★ Gruselschönheiten aus dem Jenseits!	es	¡Megarraros/Legendarios con el doble de probabilidad! ★ ¡Bellezas del más allá!
20210818	000	20210820	000	100700	999999	0	0	1	2	-1	0	0	0	0	0	0	0	0	0	0	0	0	0		433	150	0	0	0	0	6440	0	2500	0	1000	0	60	0	Double the Uber / Legend chances! ★ Dragon kings of overwhelming power!	0	4	fr	Chance x2 : ultra rare/légendaire ! ★ Des rois dragons au pouvoir immense !	it	Doppia occasione di ultra/leggendari! ★ Re Dragoni di travolgente potenza!	de	Doppelte Chance auf Mega/Legenden! ★ Überwältigend mächtige Drachenkönige!	es	¡Megarraros/Legendarios con el doble de probabilidad! ★ ¡Reyes dragones!
20210820	000	20210822	000	100700	999999	0	0	1	1	424	150	0	0	0	0	6440	0	2500	0	1000	0	60	0	Double the Uber / Legend chances! ★ An awesome variety pack of crazy Cats!	4	fr	Chance x2 : ultra rare/légendaire ! ★ Un choix incroyable de Chats cinglés !	it	Doppia occasione di ultra/leggendari! ★ Ampia varietà di Gatti pazzi!	de	Doppelte Chance auf Mega/Legenden! ★ Eine Super-Sortiment verrückter Katzen!	es	¡Megarraros/Legendarios con el doble de probabilidad! ★ ¡Un montón de gatos!
20210820	000	20210822	000	100700	999999	0	0	1	2	-1	0	0	0	0	0	0	0	0	0	0	0	0	0		517	150	0	0	0	0	6440	0	2500	0	1000	0	60	0	Double the Uber / Legend chances! ★ Unstoppable Eldritch Cats(?)!	0	4	fr	Chance x2 : ultra rare/légendaire ! ★ Chats (?) surnaturels invincibles !	it	Doppia occasione di ultra/leggendari! ★ Gatti arcani (?) inarrestabili!	de	Doppelte Chance auf Mega/Legenden! ★ Unaufhaltsame schaurige Katzen(?)!	es	¡Megarraros/Legendarios con el doble de probabilidad! ★ ¡Gatos de Eldritch!
20210822	000	20210824	000	100700	999999	0	0	1	1	497	150	0	0	0	0	6440	0	2500	0	1000	0	60	0	Double the Uber / Legend chances! ★ Glorious gods of the Cat pantheon!	4	fr	Chance x2 : ultra rare/légendaire ! ★ Dieux glorieux du panthéon des Chats !	it	Doppia occasione di ultra/leggendari! ★ Gloriosi dèi del pantheon felino!	de	Doppelte Chance auf Mega/Legenden! ★ Grandiose Götter des Katzenpantheons!	es	¡Megarraros/Legendarios con el doble de probabilidad! ★ ¡Dioses del panteón!
20210822	000	20210824	000	100700	999999	0	0	1	2	-1	0	0	0	0	0	0	0	0	0	0	0	0	0		487	150	0	0	0	0	6440	0	2500	0	1000	0	60	0	Double the Uber / Legend chances! ★ The Cats' mightiest defenders of justice!	0	4	fr	Chance x2 : ultra rare/légend. ! ★ Meilleurs défenseurs félins de la justice !	it	Doppia occasione di ultra/leggendari! ★ I più potenti difensori dei Gatti!	de	Doppelte Chance auf Mega/Legenden! ★ Mächtigste Verteidiger der Gerechtigkeit!	es	¡Megarraros/Legendarios con el doble de probabilidad! ★ ¡Los mayores defensores!
20210824	000	20210826	000	100700	999999	0	0	1	1	475	150	0	0	0	0	6440	0	2500	0	1000	0	60	0	Double the Uber / Legend chances! ★ Mythical fantasy Cat heroes!	4	fr	Chance x2 : ultra rare/légendaire ! ★ Des Chats héros mythiques !	it	Doppia occasione di ultra/leggendari! ★ Mitici Gatti fantasy!	de	Doppelte Chance auf Mega/Legenden! ★ Mythische Fantasy-Katzenhelden!	es	¡Megarraros/Legendarios con el doble de probabilidad! ★ ¡Héroes míticos!
20210824	000	20210826	000	100700	999999	0	0	1	2	-1	0	0	0	0	0	0	0	0	0	0	0	0	0		538	150	0	0	0	0	6440	0	2500	0	1000	0	60	0	Double the Uber / Legend chances! ★ Adorable avatars of elemental might!	0	4	fr	Chance x2 : ultra rare/légendaire ! ★ Adorables avatars de puissance élém. !	it	Doppia occasione di ultra/leggendari! ★ Adorabili avatar di potenza elementale!	de	Doppelte Chance auf Mega/Legenden! ★ Schnuffige Avatare der Elementarmächte!	es	¡Megarraros/Legendarios con el doble de probabilidad! ★ ¡Avatares adorables!
20210826	000	20210827	1100	100700	999999	0	0	1	1	572	150	0	0	0	0	6440	0	2500	0	1000	0	60	0	Double the Uber / Legend chances! ★ Ultimate anti-Zombie firepower!	4	fr	Chance x2 : ultra rare/légendaire ! ★ Puissance de feu anti-zombie ultime !	it	Doppia occasione di ultra/leggendari! ★ Potenza anti-zombi finale!	de	Doppelte Chance auf Mega/Legenden! ★ Ultimative Feuerkraft gg. Zombies!	es	¡Megarraros/Legendarios con el doble de probabilidad! ★ ¡Poder antizombi!
20210827	1100	20210830	1100	100700	999999	0	0	1	1	602	150	0	16384	0	0	6940	0	2500	0	500	0	60	0	A legion of top-class lady Cats led by Princess Cat! 2x Legend Rare drop chance!	4	fr	Légion féminine au top menée par Princesse féline ! Chance x2 : légendaire !	it	Potenti Gatte guidate dalla Principessa Gatta! Possibilità x2 di leggendari!	de	Erstklassige Katzen mit Prinzessin Katze! Doppelte Chance auf legendär Seltene!	es	¡Una legión de gatas guiadas por la Gata Princesa! ¡El doble de probabilidad!
20210827	1100	20300101	1100	100700	999999	0	0	1	4	-1	0	0	0	0	0	0	0	0	0	0	0	0	0		-1	0	0	0	0	0	0	0	0	0	0	0	0	0		-1	0	0	0	0	0	0	0	0	0	0	0	0	0		603	0	0	0	0	0	0	0	0	0	10000	0	0	0	Get an Uber Rare Cat!! 100% Uber drop Rate in the PLATINUM CAPSULES!	0	0	0	4	fr	Obtiens un ultra rare ! 100 % de chances avec les Chapsules platine !	it	Ottieni un gatto ultra raro! 100% possibilità di Ultra nelle CAPSULE PLATINO!	de	Hol dir eine megaseltene Katze!! 100-%-Chance in den PLATINKAPSELN!	es	¡Gana un gato megarraro! Garantizado en las BOLAS DE PLATINO.
[end]
