[start]
20180109	1100	20300101	1100	50700	999999	0	0	0	1	0	0	0	0	10000	0	0	0	0	0	0	0	0	0	
20170101	0	20300101	0	80200	999999	0	0	2	3	0	30	0	0	0	0	7500	0	2000	0	500	0	0	0		0	30	0	0	0	0	7500	0	2000	0	500	0	0	0		0	30	0	0	0	0	7500	0	2000	0	500	0	0	0	
20170101	0	20300101	0	80200	999999	0	0	3	3	0	75	0	0	0	0	7500	0	2000	0	500	0	0	0		0	75	0	0	0	0	7500	0	2000	0	500	0	0	0		0	75	0	0	0	0	7500	0	2000	0	500	0	0	0	
20201009	1100	20300101	1100	90900	999999	0	0	1	4	-1	0	0	0	0	0	0	0	0	0	0	0	0	0		-1	0	0	0	0	0	0	0	0	0	0	0	0	0		-1	0	0	0	0	0	0	0	0	0	0	0	0	0		525	0	0	0	0	0	0	0	0	0	10000	0	0	0	Get an Uber Rare Cat!! 100% Uber drop Rate in the PLATINUM CAPSULES!
20201113	1100	20300101	1100	91000	999999	0	0	1	4	-1	0	0	0	0	0	0	0	0	0	0	0	0	0		-1	0	0	0	0	0	0	0	0	0	0	0	0	0		-1	0	0	0	0	0	0	0	0	0	0	0	0	0		543	0	0	0	0	0	0	0	0	0	10000	0	0	0	Get an Uber Rare Cat!! 100% Uber drop Rate in the PLATINUM CAPSULES!
20210212	000	20300101	1100	100200	999999	0	0	1	4	-1	0	0	0	0	0	0	0	0	0	0	0	0	0		-1	0	0	0	0	0	0	0	0	0	0	0	0	0		-1	0	0	0	0	0	0	0	0	0	0	0	0	0		556	0	0	0	0	0	0	0	0	0	10000	0	0	0	Get an Uber Rare Cat!! 100% Uber drop Rate in the PLATINUM CAPSULES!
20210216	1100	20210302	000	100200	999999	0	0	0	4	-1	0	0	0	0	0	0	0	0	0	0	0	0	0		-1	0	0	0	0	0	0	0	0	0	0	0	0	0		-1	0	0	0	0	0	0	0	0	0	0	0	0	0		59	0	300	0	0	0	5100	0	3500	0	1400	0	0	0	【Limited Event】 Special chance for XP and Catamins! ★ On thru 3/1!
20210215	1100	20210301	1100	100200	999999	0	0	1	1	568	150	0	0	0	0	7000	0	2500	0	500	0	0	0	Super-sweet limited Valentine's heroes! ★ Tap banner for info!
20210224	1100	20210226	1100	100200	999999	0	0	1	2	-1	0	0	0	0	0	0	0	0	0	0	0	0	0		506	150	0	0	0	0	6970	0	2500	0	500	0	30	0	A Legend now fights alongside the spooky cuties! ★ Tap banner for info!
20210226	1100	20210301	1100	100200	999999	0	0	1	1	568	150	0	0	0	0	7000	0	2500	0	500	1	0	0	Super-sweet limited Valentine's heroes! ★ Tap banner for info!
20210226	1100	20210301	1100	100200	999999	0	0	1	2	-1	0	0	0	0	0	0	0	0	0	0	0	0	0		475	150	0	0	0	0	6970	0	2500	0	500	1	30	0	Heroes of Japanese fantasy with 2 battle modes! ★ Tap banner for info!
20210301	1100	20210315	1100	100201	999999	0	0	1	1	516	150	0	0	0	0	7000	0	2500	0	500	0	0	0	Five NEW Ubers! Your chance to get an Eva Angel for your Cat Army!
20210301	1100	20210315	1100	100201	999999	0	0	1	2	-1	0	0	0	0	0	0	0	0	0	0	0	0	0		570	150	0	0	0	0	7000	0	2500	0	500	0	0	0	The return of the classic Evangelion collab capsule set!
20210301	1100	20210303	1100	100201	999999	0	0	1	3	-1	0	0	0	0	0	0	0	0	0	0	0	0	0		-1	0	0	0	0	0	0	0	0	0	0	0	0	0		487	150	0	0	0	0	6970	0	2500	0	500	0	30	0	For Justice and Cats! The Dark Heroes! ★ Tap banner for info!
20210303	1100	20210305	1100	100201	999999	0	0	1	3	-1	0	0	0	0	0	0	0	0	0	0	0	0	0		-1	0	0	0	0	0	0	0	0	0	0	0	0	0		445	150	0	0	0	0	6970	0	2500	0	500	0	30	0	Ultimate Cat artillery, with a top-secret Legend?! ★ Tap banner for info!
20210305	1100	20210308	1100	100201	999999	0	0	1	1	555	150	0	0	0	0	6500	0	2600	0	900	0	0	0	Baby Garu joins the fight, with higher Uber Rare drop rates!
20210305	1100	20210315	1100	100201	999999	0	0	1	2	-1	0	0	0	0	0	0	0	0	0	0	0	0	0		516	150	0	0	0	0	7000	0	2500	0	500	0	0	0	Five NEW Ubers! Your chance to get an Eva Angel for your Cat Army!
20210305	1100	20210315	1100	100201	999999	0	0	1	3	-1	0	0	0	0	0	0	0	0	0	0	0	0	0		-1	0	0	0	0	0	0	0	0	0	0	0	0	0		570	150	0	0	0	0	7000	0	2500	0	500	0	0	0	The return of the classic Evangelion collab capsule set!
20210308	1100	20210315	1100	100201	999999	0	0	1	1	516	150	0	0	0	0	7000	0	2500	0	500	0	0	0	Five NEW Ubers! Your chance to get an Eva Angel for your Cat Army!
20210308	1100	20210315	1100	100201	999999	0	0	1	2	-1	0	0	0	0	0	0	0	0	0	0	0	0	0		570	150	0	0	0	0	7000	0	2500	0	500	0	0	0	The return of the classic Evangelion collab capsule set!
20210308	1100	20210310	1100	100201	999999	0	0	1	3	-1	0	0	0	0	0	0	0	0	0	0	0	0	0		-1	0	0	0	0	0	0	0	0	0	0	0	0	0		430	150	0	0	0	0	6970	0	2500	0	500	0	30	0	Galaxy Gals, here from the future to win the day! ★ Tap banner for info!
20210310	1100	20210312	1100	100201	999999	0	0	1	3	-1	0	0	0	0	0	0	0	0	0	0	0	0	0		-1	0	0	0	0	0	0	0	0	0	0	0	0	0		427	150	0	0	0	0	6970	0	2500	0	500	0	30	0	Slay your foes with the mighty Vajiras! ★ Tap banner for info!
20210312	1100	20210315	1100	100201	999999	0	0	1	1	516	150	0	0	0	0	7000	0	2500	0	500	1	0	0	Five NEW Ubers! Your chance to get an Eva Angel for your Cat Army!
20210312	1100	20210315	1100	100201	999999	0	0	1	2	-1	0	0	0	0	0	0	0	0	0	0	0	0	0		570	150	0	0	0	0	7000	0	2500	0	500	1	0	0	The return of the classic Evangelion collab capsule set!
20210312	1100	20210315	1100	100201	999999	0	0	1	3	-1	0	0	0	0	0	0	0	0	0	0	0	0	0		-1	0	0	0	0	0	0	0	0	0	0	0	0	0		424	150	0	0	0	0	6970	0	2500	0	500	1	30	0	A wacky variety set of mighty Uber Cats! ★ Tap banner for info!
[end]
