[start]
20180109	1100	20300101	1100	50700	999999	0	0	0	1	0	0	0	0	10000	0	0	0	0	0	0	0	0	0	
20170101	0	20300101	0	80200	999999	0	0	2	3	0	30	0	0	0	0	7500	0	2000	0	500	0	0	0		0	30	0	0	0	0	7500	0	2000	0	500	0	0	0		0	30	0	0	0	0	7500	0	2000	0	500	0	0	0	
20170101	0	20300101	0	80200	999999	0	0	3	3	0	75	0	0	0	0	7500	0	2000	0	500	0	0	0		0	75	0	0	0	0	7500	0	2000	0	500	0	0	0		0	75	0	0	0	0	7500	0	2000	0	500	0	0	0	
20210503	1100	20300101	0	100400	999999	0	0	0	3	-1	0	0	0	0	0	0	0	0	0	0	0	0	0		-1	0	0	0	0	0	0	0	0	0	0	0	0	0		62	0	0	0	0	0	7400	0	2100	0	500	0	0	0	【Limited】 Collect Li'l Cats only during this event!	0	0	4	fr	【Durée limitée】 P’tits Chats uniquement dans cet événement !	it	【Limitato】 Ottieni Mini Gatti solo in questo evento! 	de	(Begrenzt) Sammle nur während dieses Events kleine Katzen!	es	[Exclusivo] ¡Consigue Minigatos solo en este evento!
20210416	1100	20300101	0	100400	999999	0	0	0	4	-1	0	0	0	0	0	0	0	0	0	0	0	0	0		-1	0	0	0	0	0	0	0	0	0	0	0	0	0		-1	0	0	0	0	0	0	0	0	0	0	0	0	0		63	0	300	0	0	0	5100	0	3500	0	1400	0	0	0	【Limited Event】 Special chance for XP and Catamins!	0	0	0	4	fr	【Durée limitée】 Chance spéciale d’obtenir XP et vichamines ! 	it	【Evento limitato】 Occasione speciale per XP e Vitamiao! 	de	(Begrenztes Event) Sonderchance auf XP und Katzamine! 	es	[Evento exclusivo] ¡Probabilidad de ganar XP y gataminas!
20220106	1100	20300101	1100	110100	999999	0	0	0	1	64	0	2300	0	10000	0	0	0	0	0	0	0	0	0		4	fr		it		de		es	
20220527	1100	20300101	1100	110400	999999	0	0	1	4	-1	0	0	0	0	0	0	0	0	0	0	0	0	0		-1	0	0	0	0	0	0	0	0	0	0	0	0	0		-1	0	0	0	0	0	0	0	0	0	0	0	0	0		723	0	0	0	0	0	0	0	0	0	9500	0	500	0	Get a Guaranteed Uber or Legend Rare from the Legend Capsules!	0	0	0	4	fr	Un ultra rare ou un légendaire garanti dans les Chapsules légendaires !	it	Ottieni un'unità ultra rara o leggendaria garantita dalle Capsule leggendarie!	de	Garantiert eine mega- oder legendär seltene Katze aus legendären Kapseln!	es	¡Una unidad megarrara o legendaria garantizada en las bolas legendarias!
20220527	1100	20300101	1100	110400	999999	0	0	1	5	-1	0	0	0	0	0	0	0	0	0	0	0	0	0		-1	0	0	0	0	0	0	0	0	0	0	0	0	0		-1	0	0	0	0	0	0	0	0	0	0	0	0	0		-1	0	0	0	0	0	0	0	0	0	0	0	0	0		722	0	0	0	0	0	0	0	0	0	10000	0	0	0	Get an Uber Rare Cat!! 100% Uber drop Rate in the PLATINUM CAPSULES!	0	0	0	0	4	fr	Obtiens un ultra rare ! 100 % de chances avec les Chapsules platine !	it	Ottieni un gatto ultra raro! 100% possibilità di Ultra nelle CAPSULE PLATINO!	de	Hol dir eine megaseltene Katze!! 100-%-Chance in den PLATINKAPSELN!	es	¡Gana un gato megarraro! Garantizado en las BOLAS DE PLATINO.
20220715	1100	20300101	1100	110600	999999	0	0	1	4	-1	0	0	0	0	0	0	0	0	0	0	0	0	0		-1	0	0	0	0	0	0	0	0	0	0	0	0	0		-1	0	0	0	0	0	0	0	0	0	0	0	0	0		730	0	0	0	0	0	0	0	0	0	9500	0	500	0	Get a Guaranteed Uber or Legend Rare from the Legend Capsules!	0	0	0	4	fr	Un ultra rare ou un légendaire garanti dans les Chapsules légendaires !	it	Ottieni un'unità ultra rara o leggendaria garantita dalle Capsule leggendarie!	de	Garantiert eine mega- oder legendär seltene Katze aus legendären Kapseln!	es	¡Una unidad megarrara o legendaria garantizada en las bolas legendarias!
20220715	1100	20300101	1100	110600	999999	0	0	1	5	-1	0	0	0	0	0	0	0	0	0	0	0	0	0		-1	0	0	0	0	0	0	0	0	0	0	0	0	0		-1	0	0	0	0	0	0	0	0	0	0	0	0	0		-1	0	0	0	0	0	0	0	0	0	0	0	0	0		729	0	0	0	0	0	0	0	0	0	10000	0	0	0	Get an Uber Rare Cat!! 100% Uber drop Rate in the PLATINUM CAPSULES!	0	0	0	0	4	fr	Obtiens un ultra rare ! 100 % de chances avec les Chapsules platine !	it	Ottieni un gatto ultra raro! 100% possibilità di Ultra nelle CAPSULE PLATINO!	de	Hol dir eine megaseltene Katze!! 100-%-Chance in den PLATINKAPSELN!	es	¡Gana un gato megarraro! Garantizado en las BOLAS DE PLATINO.
20220802	1100	20300101	1100	110700	999999	0	0	1	4	-1	0	0	0	0	0	0	0	0	0	0	0	0	0		-1	0	0	0	0	0	0	0	0	0	0	0	0	0		-1	0	0	0	0	0	0	0	0	0	0	0	0	0		736	0	0	0	0	0	0	0	0	0	9500	0	500	0	Get a Guaranteed Uber or Legend Rare from the Legend Capsules!	0	0	0	4	fr	Un ultra rare ou un légendaire garanti dans les Chapsules légendaires !	it	Ottieni un'unità ultra rara o leggendaria garantita dalle Capsule leggendarie!	de	Garantiert eine mega- oder legendär seltene Katze aus legendären Kapseln!	es	¡Una unidad megarrara o legendaria garantizada en las bolas legendarias!
20220802	1100	20300101	1100	110700	999999	0	0	1	5	-1	0	0	0	0	0	0	0	0	0	0	0	0	0		-1	0	0	0	0	0	0	0	0	0	0	0	0	0		-1	0	0	0	0	0	0	0	0	0	0	0	0	0		-1	0	0	0	0	0	0	0	0	0	0	0	0	0		735	0	0	0	0	0	0	0	0	0	10000	0	0	0	Get an Uber Rare Cat!! 100% Uber drop Rate in the PLATINUM CAPSULES!	0	0	0	0	4	fr	Obtiens un ultra rare ! 100 % de chances avec les Chapsules platine !	it	Ottieni un gatto ultra raro! 100% possibilità di Ultra nelle CAPSULE PLATINO!	de	Hol dir eine megaseltene Katze!! 100-%-Chance in den PLATINKAPSELN!	es	¡Gana un gato megarraro! Garantizado en las BOLAS DE PLATINO.
20220826	1100	20300101	1100	110700	999999	0	0	1	4	-1	0	0	0	0	0	0	0	0	0	0	0	0	0		-1	0	0	0	0	0	0	0	0	0	0	0	0	0		-1	0	0	0	0	0	0	0	0	0	0	0	0	0		746	0	0	0	0	0	0	0	0	0	9500	0	500	0	Get a Guaranteed Uber or Legend Rare from the Legend Capsules!	0	0	0	4	fr	Un ultra rare ou un légendaire garanti dans les Chapsules légendaires !	it	Ottieni un'unità ultra rara o leggendaria garantita dalle Capsule leggendarie!	de	Garantiert eine mega- oder legendär seltene Katze aus legendären Kapseln!	es	¡Una unidad megarrara o legendaria garantizada en las bolas legendarias!
20220826	1100	20300101	1100	110700	999999	0	0	1	5	-1	0	0	0	0	0	0	0	0	0	0	0	0	0		-1	0	0	0	0	0	0	0	0	0	0	0	0	0		-1	0	0	0	0	0	0	0	0	0	0	0	0	0		-1	0	0	0	0	0	0	0	0	0	0	0	0	0		745	0	0	0	0	0	0	0	0	0	10000	0	0	0	Get an Uber Rare Cat!! 100% Uber drop Rate in the PLATINUM CAPSULES!	0	0	0	0	4	fr	Obtiens un ultra rare ! 100 % de chances avec les Chapsules platine !	it	Ottieni un gatto ultra raro! 100% possibilità di Ultra nelle CAPSULE PLATINO!	de	Hol dir eine megaseltene Katze!! 100-%-Chance in den PLATINKAPSELN!	es	¡Gana un gato megarraro! Garantizado en las BOLAS DE PLATINO.
20221010	1100	20221024	1100	110800	999999	0	0	1	2	-1	0	0	0	0	0	0	0	0	0	0	0	0	0		757	150	0	16384	0	0	7000	0	2500	0	500	0	0	0	Two new units join Ranma 1/2! ★ Tap for info!	0	4	fr	Two new units join Ranma 1/2! ★ Tap for info!	it	Two new units join Ranma 1/2! ★ Tap for info!	de	Two new units join Ranma 1/2! ★ Tap for info!	es	Two new units join Ranma 1/2! ★ Tap for info!
20221019	1100	20221024	1100	110800	999999	0	0	1	2	-1	0	0	0	0	0	0	0	0	0	0	0	0	0		757	150	0	0	0	0	7000	0	2500	0	500	1	0	0	Two new units join Ranma 1/2! ★ Guaranteed Uber in each 11-Capsule Draw!	0	4	fr	Two new units join Ranma 1/2! ★ Guaranteed Uber in each 11-Capsule Draw!	it	Two new units join Ranma 1/2! ★ Guaranteed Uber in each 11-Capsule Draw!	de	Two new units join Ranma 1/2! ★ Guaranteed Uber in each 11-Capsule Draw!	es	Two new units join Ranma 1/2! ★ Guaranteed Uber in each 11-Capsule Draw!
20221019	1100	20221022	1100	110800	999999	0	0	1	1	753	150	0	0	0	0	6970	0	2500	0	500	1	30	0	Colossus Slayer Mighty Carrowsell has been added! Tap the banner for details!	4	fr	Puissant Charrousel (fléau des colosses)ajouté ! Touche la bannière !	it	Aggiunta l'ammazzagiganti Muggiostra possente! Tocca il banner per dettagli!	de	Der Kolosstöter Mächtiges Karussell wurde hinzugefügt! Tippe auf das Banner!	es	¡Se ha añadido el matacolosos Garrusel brutal! ¡Toca para saber más!
20221019	1100	20300101	1100	110800	999999	0	0	1	4	-1	0	0	0	0	0	0	0	0	0	0	0	0	0		-1	0	0	0	0	0	0	0	0	0	0	0	0	0		-1	0	0	0	0	0	0	0	0	0	0	0	0	0		756	0	0	0	0	0	0	0	0	0	9500	0	500	0	Get a Guaranteed Uber or Legend Rare from the Legend Capsules!	0	0	0	4	fr	Un ultra rare ou un légendaire garanti dans les Chapsules légendaires !	it	Ottieni un'unità ultra rara o leggendaria garantita dalle Capsule leggendarie!	de	Garantiert eine mega- oder legendär seltene Katze aus legendären Kapseln!	es	¡Una unidad megarrara o legendaria garantizada en las bolas legendarias!
20221019	1100	20300101	1100	110800	999999	0	0	1	5	-1	0	0	0	0	0	0	0	0	0	0	0	0	0		-1	0	0	0	0	0	0	0	0	0	0	0	0	0		-1	0	0	0	0	0	0	0	0	0	0	0	0	0		-1	0	0	0	0	0	0	0	0	0	0	0	0	0		755	0	0	0	0	0	0	0	0	0	10000	0	0	0	Get an Uber Rare Cat!! 100% Uber drop Rate in the PLATINUM CAPSULES!	0	0	0	0	4	fr	Obtiens un ultra rare ! 100 % de chances avec les Chapsules platine !	it	Ottieni un gatto ultra raro! 100% possibilità di Ultra nelle CAPSULE PLATINO!	de	Hol dir eine megaseltene Katze!! 100-%-Chance in den PLATINKAPSELN!	es	¡Gana un gato megarraro! Garantizado en las BOLAS DE PLATINO.
20221022	1100	20221024	1100	110800	999999	0	0	1	3	-1	0	0	0	0	0	0	0	0	0	0	0	0	0		-1	0	0	0	0	0	0	0	0	0	0	0	0	0		679	150	0	0	0	0	6970	0	2500	0	500	1	30	0	Punish Floating and Aku with NEW hero Lucifer the Fallen! ★ Tap for info!	0	0	4	fr	Élimine flottants et Akus avec Lucifer le déchu ! ★ Touche pour des infos	it	Punisci fluttuanti e Aku con il NUOVO eroe Lucifero caduto! ★ Tocca per info!	de	Strafe Fliegende & Aku: NEUER „Luzifer der Gefallene“! ★ Tippe für mehr Info!	es	¡Castiga a akus y voladores con Lucifer el Caído! ★ ¡Toca para saber más!
20221024	1100	20221107	1100	110900	999999	0	0	1	2	-1	0	0	0	0	0	0	0	0	0	0	0	0	0		511	150	0	20600	0	0	7000	0	2500	0	500	0	0	0	Limited Shoumetsu Toshi Collab Capsules! ★ Tap banner for info!	0	4	fr	Limited Shoumetsu Toshi Collab Capsules! ★ Tap banner for info!	it	Limited Shoumetsu Toshi Collab Capsules! ★ Tap banner for info!	de	Limited Shoumetsu Toshi Collab Capsules! ★ Tap banner for info!	es	Limited Shoumetsu Toshi Collab Capsules! ★ Tap banner for info!
20221024	1100	20221026	1100	110900	999999	0	0	1	3	-1	0	0	0	0	0	0	0	0	0	0	0	0	0		-1	0	0	0	0	0	0	0	0	0	0	0	0	0		626	150	0	20600	0	0	6970	0	2500	0	500	0	30	0	NEW Barrier and Shield destroying hero Furiluga appears! ★Tap banner for info!	0	0	4	fr	Nouvel anti-barrières et boucliers Furiluga ! ★Bannière pour plus d'infos.	it	Arriva Furiluga: il NUOVO eroe che distrugge barriere e scudi! ★Tocca il banner!	de	NEUER Barrieren- und Schilde-zerstörender Held Furiluga! ★ Tippe auf das Banner!	es	El nuevo héroe, Furiluga, rompe barreras y escudos. ★ ¡Toca para saber más!
20221026	1100	20221028	1100	110900	999999	0	0	1	3	-1	0	0	0	0	0	0	0	0	0	0	0	0	0		-1	0	0	0	0	0	0	0	0	0	0	0	0	0		719	150	0	20600	0	0	6970	0	2500	0	500	0	30	0	Colossus Slaying NEW hero Bliza joins the Elemental Pixies! ★ Tap for info!	0	0	4	fr	Bliza, fléau des colosses des Farfadets élémentaires ! ★ Touche pour des infos	it	L'ammazzagiganti Bliza si unisce alle Fate elementali! ★ Tocca per info!	de	Die NEUE Kolosstöter-Heldin „Bliza“ stößt zu den Elementfeen! ★ Tippe für Infos!	es	Ventis matacolosos se une a las Hadas Elementales. ★ ¡Toca para saber más!
20221028	1100	20221030	1100	110900	999999	0	0	1	3	-1	0	0	0	0	0	0	0	0	0	0	0	0	0		-1	0	0	0	0	0	0	0	0	0	0	0	0	0		742	150	0	20600	0	0	6970	0	2500	0	500	0	30	0	Colossus Slayer Cat Tengu joins the fight! Tap banner for info!	0	0	4	fr	Chat Tengu, fléau des colosses, rejoint la bataille ! Touche pour plus d'infos !	it	L'ammazzagiganti Gatto Tengu Scende in campo! Tocca il banner!	de	Kolosstöter „Katzen-Tengu“ tritt dem Kampf bei! Tippe auf das Banner!	es	¡Gatengu matacolosos se une a la lucha! ¡Toca para saber más!
20221030	1100	20221101	1100	110900	999999	0	0	1	1	709	150	0	20600	0	0	6970	0	2500	0	500	0	30	0	Colossus Slayer Hattori Hanzo joins the fight! ★ Tap banner for info!	4	fr	Hanzo Hattori, Fléau des colosses, rejoint la bataille ! ★ Touche pour info !	it	L'ammazzagiganti Hattori Hanzo scende in campo! ★ Tocca il banner!	de	Kolosstöter „Hattori Hanzo“ tritt dem Kampf bei! ★ Tippe auf das Banner!	es	¡El matacolosos Hattori Hanzo se une al combate! ★ ¡Toca para saber más!
20221031	1100	20221114	1100	110900	999999	0	0	1	3	-1	0	0	0	0	0	0	0	0	0	0	0	0	0		-1	0	0	0	0	0	0	0	0	0	0	0	0	0		766	150	0	20600	0	0	7000	0	2500	0	500	0	0	0	New units added! Earn limited-time costumed units! Tap the banner for details!	0	0	4	fr	Nouvelles unités ! Gagne des unités costumées limitées ! Touche la bannière !	it	Novità! Unità in costume a tempo limitato! Tocca il banner per dettagli!	de	Neue Einheiten! Verdiene limitierte kostümierte Einheiten! Tippe auf das Banner!	es	¡Nuevas unidades! ¡Gana unidades con disfraces limitadas! ¡Toca para saber más!
20221101	1100	20221104	1100	110900	999999	0	0	1	1	754	150	0	4216	0	0	6500	0	2600	0	900	0	0	0	NEW hero IZ THE DANCER and Higher drop rate for Uber Rares!	4	fr	Iz la danseuse est là ! + taux d’obt. ultra rares élevé pendant la Maxi-fête !	it	NUOVO eroe Iz ballerina e più ricompense ultra rare durante il Festival Ultra!	de	NEUE Heldin „Iz die Tänzerin“ + höhere Beuterate für Megaseltene beim Megafest!	es	¡Llega Iz la Bailarina! ¡Y más probabilidad de ganar megarraros en el Megafesti!
20221104	1100	20221107	1100	110900	999999	0	0	1	1	659	150	0	4216	0	0	6970	0	2500	0	500	1	30	0	Face down Aku and Angels with NEW hero Shitakiri Sparrow! ★ Tap for info!	4	fr	Affronte Akus et anges avec le Moineau shitakiri ! ★ Touche pour des infos !	it	Affronta Aku e angelici con il NUOVO eroe Passero Shitakiri! ★ Tocca per info!	de	Stell dich Aku & Engeln mit dem NEUEN „Shitakari-Spatz“! ★ Tippe für mehr Info!	es	¡Derrota a akus y ángeles con Gorrión Cazatesoros! ★ ¡Toca para saber más!
20221104	1100	20221107	1100	110900	999999	0	0	1	2	-1	0	0	0	0	0	0	0	0	0	0	0	0	0		511	150	0	4216	0	0	7000	0	2500	0	500	1	0	0	Limited Shoumetsu Toshi Collab Capsules! ★ Tap banner for info!	0	4	fr	Limited Shoumetsu Toshi Collab Capsules! ★ Tap banner for info!	it	Limited Shoumetsu Toshi Collab Capsules! ★ Tap banner for info!	de	Limited Shoumetsu Toshi Collab Capsules! ★ Tap banner for info!	es	Limited Shoumetsu Toshi Collab Capsules! ★ Tap banner for info!
20221104	1100	20221114	1100	110900	999999	0	0	1	3	-1	0	0	0	0	0	0	0	0	0	0	0	0	0		-1	0	0	0	0	0	0	0	0	0	0	0	0	0		766	150	0	4216	0	0	7000	0	2500	0	500	1	0	0	New units added! Earn limited-time costumed units! Tap the banner for details!	0	0	4	fr	Nouvelles unités ! Gagne des unités costumées limitées ! Touche la bannière !	it	Novità! Unità in costume a tempo limitato! Tocca il banner per dettagli!	de	Neue Einheiten! Verdiene limitierte kostümierte Einheiten! Tippe auf das Banner!	es	¡Nuevas unidades! ¡Gana unidades con disfraces limitadas! ¡Toca para saber más!
[end]
