[start]
20180109	1100	20300101	1100	50700	999999	0	0	0	1	0	0	0	0	10000	0	0	0	0	0	0	0	0	0	
20170101	0	20300101	0	80200	999999	0	0	2	3	0	30	0	0	0	0	7500	0	2000	0	500	0	0	0		0	30	0	0	0	0	7500	0	2000	0	500	0	0	0		0	30	0	0	0	0	7500	0	2000	0	500	0	0	0	
20170101	0	20300101	0	80200	999999	0	0	3	3	0	75	0	0	0	0	7500	0	2000	0	500	0	0	0		0	75	0	0	0	0	7500	0	2000	0	500	0	0	0		0	75	0	0	0	0	7500	0	2000	0	500	0	0	0	
20210503	1100	20300101	0	100400	999999	0	0	0	3	-1	0	0	0	0	0	0	0	0	0	0	0	0	0		-1	0	0	0	0	0	0	0	0	0	0	0	0	0		62	0	0	0	0	0	7400	0	2100	0	500	0	0	0	【Limited】 Collect Li'l Cats only during this event!	0	0	4	fr	【Durée limitée】 P’tits Chats uniquement dans cet événement !	it	【Limitato】 Ottieni Mini Gatti solo in questo evento! 	de	(Begrenzt) Sammle nur während dieses Events kleine Katzen!	es	[Exclusivo] ¡Consigue Minigatos solo en este evento!
20210416	1100	20300101	0	100400	999999	0	0	0	4	-1	0	0	0	0	0	0	0	0	0	0	0	0	0		-1	0	0	0	0	0	0	0	0	0	0	0	0	0		-1	0	0	0	0	0	0	0	0	0	0	0	0	0		63	0	300	0	0	0	5100	0	3500	0	1400	0	0	0	【Limited Event】 Special chance for XP and Catamins!	0	0	0	4	fr	【Durée limitée】 Chance spéciale d’obtenir XP et vichamines ! 	it	【Evento limitato】 Occasione speciale per XP e Vitamiao! 	de	(Begrenztes Event) Sonderchance auf XP und Katzamine! 	es	[Evento exclusivo] ¡Probabilidad de ganar XP y gataminas!
20220106	1100	20300101	1100	110100	999999	0	0	0	1	64	0	2300	0	10000	0	0	0	0	0	0	0	0	0		4	fr		it		de		es	
20220527	1100	20300101	1100	110400	999999	0	0	1	4	-1	0	0	0	0	0	0	0	0	0	0	0	0	0		-1	0	0	0	0	0	0	0	0	0	0	0	0	0		-1	0	0	0	0	0	0	0	0	0	0	0	0	0		723	0	0	0	0	0	0	0	0	0	9500	0	500	0	Get a Guaranteed Uber or Legend Rare from the Legend Capsules!	0	0	0	4	fr	Un ultra rare ou un légendaire garanti dans les Chapsules légendaires !	it	Ottieni un'unità ultra rara o leggendaria garantita dalle Capsule leggendarie!	de	Garantiert eine mega- oder legendär seltene Katze aus legendären Kapseln!	es	¡Una unidad megarrara o legendaria garantizada en las bolas legendarias!
20220527	1100	20300101	1100	110400	999999	0	0	1	5	-1	0	0	0	0	0	0	0	0	0	0	0	0	0		-1	0	0	0	0	0	0	0	0	0	0	0	0	0		-1	0	0	0	0	0	0	0	0	0	0	0	0	0		-1	0	0	0	0	0	0	0	0	0	0	0	0	0		722	0	0	0	0	0	0	0	0	0	10000	0	0	0	Get an Uber Rare Cat!! 100% Uber drop Rate in the PLATINUM CAPSULES!	0	0	0	0	4	fr	Obtiens un ultra rare ! 100 % de chances avec les Chapsules platine !	it	Ottieni un gatto ultra raro! 100% possibilità di Ultra nelle CAPSULE PLATINO!	de	Hol dir eine megaseltene Katze!! 100-%-Chance in den PLATINKAPSELN!	es	¡Gana un gato megarraro! Garantizado en las BOLAS DE PLATINO.
20220715	1100	20300101	1100	110600	999999	0	0	1	4	-1	0	0	0	0	0	0	0	0	0	0	0	0	0		-1	0	0	0	0	0	0	0	0	0	0	0	0	0		-1	0	0	0	0	0	0	0	0	0	0	0	0	0		730	0	0	0	0	0	0	0	0	0	9500	0	500	0	Get a Guaranteed Uber or Legend Rare from the Legend Capsules!	0	0	0	4	fr	Un ultra rare ou un légendaire garanti dans les Chapsules légendaires !	it	Ottieni un'unità ultra rara o leggendaria garantita dalle Capsule leggendarie!	de	Garantiert eine mega- oder legendär seltene Katze aus legendären Kapseln!	es	¡Una unidad megarrara o legendaria garantizada en las bolas legendarias!
20220715	1100	20300101	1100	110600	999999	0	0	1	5	-1	0	0	0	0	0	0	0	0	0	0	0	0	0		-1	0	0	0	0	0	0	0	0	0	0	0	0	0		-1	0	0	0	0	0	0	0	0	0	0	0	0	0		-1	0	0	0	0	0	0	0	0	0	0	0	0	0		729	0	0	0	0	0	0	0	0	0	10000	0	0	0	Get an Uber Rare Cat!! 100% Uber drop Rate in the PLATINUM CAPSULES!	0	0	0	0	4	fr	Obtiens un ultra rare ! 100 % de chances avec les Chapsules platine !	it	Ottieni un gatto ultra raro! 100% possibilità di Ultra nelle CAPSULE PLATINO!	de	Hol dir eine megaseltene Katze!! 100-%-Chance in den PLATINKAPSELN!	es	¡Gana un gato megarraro! Garantizado en las BOLAS DE PLATINO.
20220802	1100	20300101	1100	110700	999999	0	0	1	4	-1	0	0	0	0	0	0	0	0	0	0	0	0	0		-1	0	0	0	0	0	0	0	0	0	0	0	0	0		-1	0	0	0	0	0	0	0	0	0	0	0	0	0		736	0	0	0	0	0	0	0	0	0	9500	0	500	0	Get a Guaranteed Uber or Legend Rare from the Legend Capsules!	0	0	0	4	fr	Un ultra rare ou un légendaire garanti dans les Chapsules légendaires !	it	Ottieni un'unità ultra rara o leggendaria garantita dalle Capsule leggendarie!	de	Garantiert eine mega- oder legendär seltene Katze aus legendären Kapseln!	es	¡Una unidad megarrara o legendaria garantizada en las bolas legendarias!
20220802	1100	20300101	1100	110700	999999	0	0	1	5	-1	0	0	0	0	0	0	0	0	0	0	0	0	0		-1	0	0	0	0	0	0	0	0	0	0	0	0	0		-1	0	0	0	0	0	0	0	0	0	0	0	0	0		-1	0	0	0	0	0	0	0	0	0	0	0	0	0		735	0	0	0	0	0	0	0	0	0	10000	0	0	0	Get an Uber Rare Cat!! 100% Uber drop Rate in the PLATINUM CAPSULES!	0	0	0	0	4	fr	Obtiens un ultra rare ! 100 % de chances avec les Chapsules platine !	it	Ottieni un gatto ultra raro! 100% possibilità di Ultra nelle CAPSULE PLATINO!	de	Hol dir eine megaseltene Katze!! 100-%-Chance in den PLATINKAPSELN!	es	¡Gana un gato megarraro! Garantizado en las BOLAS DE PLATINO.
20220808	1100	20220919	2359	110700	999999	0	0	4	1	20	0	0	0	500	0	5000	0	2000	0	1000	1	1500	0	【Summer Break Cats】 Catch items & limited Cats using Legend Nets, thru 9/19!	 	 more draws until a guaranteed Bug hero!	4	fr	【Chats de vacances d'été】 Attrape obj. et Chats au filet légend. jusqu'au 19/9 !	 	 tirages supplémentaires avant d'obtenir un insecte garanti.	it	【Gatti estivi】 Oggetti e Gatti limitati con le reti leggendarie, fino al 19/09!	Altri	 sorteggi fino a un eroe insetto garantito!	de	(Sommerferienkatzen) Bis 19.9.: Gegenst. & limit. Katzen mit Legendennetzen!	 	 Ziehungen bis zum garantierten Käferhelden!	es	¡Gatos Estivales! ¡Pesca objetos y unidades con redes legendarias hasta el 19/9!	¡	 aperturas más para tener un bicho héroe garantizado!
20220808	1100	20220829	1100	110700	999999	0	0	1	2	-1	0	0	0	0	0	0	0	0	0	0	0	0	0		750	150	0	16384	0	0	7000	0	2500	0	500	0	0	0	New heroes appear for summer fun! ★ Tap banner for info!	0	4	fr	Nouvelle dame de l’été à découvrir ! ★ Touche pour plus d’infos !	it	Ci sono novità tra le Ragazze estive! ★ Tocca il banner!	de	Die Sommermädchen haben ein neues Mitglied! ★ Tippe auf das Banner!	es	¡Nuevo miembro de las chicas de verano! ★ ¡Toca para saber más!
20220824	1100	20220829	1100	110700	999999	0	0	1	2	-1	0	0	0	0	0	0	0	0	0	0	0	0	0		750	150	0	0	0	0	7000	0	2500	0	500	1	0	0	New heroes appear for summer fun, with 11-Draw Uber Guarantee!	0	4	fr	Nouvelle dame de l’été à découvrir ! ★ Ultra rare garanti sur 11 ouvertures !	it	Ci sono novità tra le Ragazze estive! ★ con unità Ultra sicura su 11 sorteggi!	de	Die Sommermädchen haben ein neues Mitglied! ★ mit 11er-Ziehung-Megagarantie!	es	¡Nuevo miembro de las chicas de verano! ★ ¡Abrir 11 bolas da un megarraro!
20220824	1100	20220826	1100	110700	999999	0	0	1	3	-1	0	0	0	0	0	0	0	0	0	0	0	0	0		-1	0	0	0	0	0	0	0	0	0	0	0	0	0		719	150	0	0	0	0	6970	0	2500	0	500	1	30	0	Colossus Slaying NEW hero Bliza joins the Elemental Pixies! ★ Tap for info!	0	0	4	fr	Bliza, fléau des colosses des Farfadets élémentaires ! ★ Touche pour des infos	it	L'ammazzagiganti Bliza si unisce alle Fate elementali! ★ Tocca per info!	de	Die NEUE Kolosstöter-Heldin „Bliza“ stößt zu den Elementfeen! ★ Tippe für Infos!	es	Ventis matacolosos se une a las Hadas Elementales. ★ ¡Toca para saber más!
20220826	1100	20220829	1100	110700	999999	0	0	1	1	742	150	0	0	0	0	6970	0	2500	0	500	1	30	0	Colossus Slayer Cat Tengu joins the fight! Tap banner for info!	4	fr	Chat Tengu, fléau des colosses, rejoint la bataille ! Touche pour plus d'infos !	it	L'ammazzagiganti Gatto Tengu Scende in campo! Tocca il banner!	de	Kolosstöter „Katzen-Tengu“ tritt dem Kampf bei! Tippe auf das Banner!	es	¡Gatengu matacolosos se une a la lucha! ¡Toca para saber más!
20220826	1100	20300101	1100	110700	999999	0	0	1	4	-1	0	0	0	0	0	0	0	0	0	0	0	0	0		-1	0	0	0	0	0	0	0	0	0	0	0	0	0		-1	0	0	0	0	0	0	0	0	0	0	0	0	0		746	0	0	0	0	0	0	0	0	0	9500	0	500	0	Get a Guaranteed Uber or Legend Rare from the Legend Capsules!	0	0	0	4	fr	Un ultra rare ou un légendaire garanti dans les Chapsules légendaires !	it	Ottieni un'unità ultra rara o leggendaria garantita dalle Capsule leggendarie!	de	Garantiert eine mega- oder legendär seltene Katze aus legendären Kapseln!	es	¡Una unidad megarrara o legendaria garantizada en las bolas legendarias!
20220826	1100	20300101	1100	110700	999999	0	0	1	5	-1	0	0	0	0	0	0	0	0	0	0	0	0	0		-1	0	0	0	0	0	0	0	0	0	0	0	0	0		-1	0	0	0	0	0	0	0	0	0	0	0	0	0		-1	0	0	0	0	0	0	0	0	0	0	0	0	0		745	0	0	0	0	0	0	0	0	0	10000	0	0	0	Get an Uber Rare Cat!! 100% Uber drop Rate in the PLATINUM CAPSULES!	0	0	0	0	4	fr	Obtiens un ultra rare ! 100 % de chances avec les Chapsules platine !	it	Ottieni un gatto ultra raro! 100% possibilità di Ultra nelle CAPSULE PLATINO!	de	Hol dir eine megaseltene Katze!! 100-%-Chance in den PLATINKAPSELN!	es	¡Gana un gato megarraro! Garantizado en las BOLAS DE PLATINO.
20220829	1100	20220912	1100	110700	999999	0	0	1	2	-1	0	0	0	0	0	0	0	0	0	0	0	0	0		496	150	0	20600	0	0	7000	0	2500	0	500	0	0	0	Survive! Mola Mola! Collab Capsules! ★ Tap the banner for info!	0	4	fr	Survive! Mola Mola! Collab Capsules! ★ Tap the banner for info!	it	Survive! Mola Mola! Collab Capsules! ★ Tap the banner for info!	de	Survive! Mola Mola! Collab Capsules! ★ Tap the banner for info!	es	Survive! Mola Mola! Collab Capsules! ★ Tap the banner for info!
20220829	1100	20220831	1100	110700	999999	0	0	1	3	-1	0	0	0	0	0	0	0	0	0	0	0	0	0		-1	0	0	0	0	0	0	0	0	0	0	0	0	0		645	150	0	20600	0	0	6970	0	2500	0	500	0	30	0	Tear through Zombies/Aku with Mighty Deth-Troy-R! ★ Tap banner for info!	0	0	4	fr	Annihile zombies/Akus avec Puissant Dess-truk-teur ★ Touche pour plus d'infos !	it	Sbaraglia zombi/Aku con Deth-Troy-R possente! ★ Tocca il banner!	de	Erledige Zombies/Aku mit dem Mächtigen Zernichter! ★ Tippe auf das Banner!	es	¡Destroza a zombis y akus con Dez-Troyer-R Brutal! ★ ¡Toca para saber más!
20220831	1100	20220902	1100	110700	999999	0	0	1	3	-1	0	0	0	0	0	0	0	0	0	0	0	0	0		-1	0	0	0	0	0	0	0	0	0	0	0	0	0		709	150	0	20600	0	0	6970	0	2500	0	500	0	30	0	Colossus Slayer Hattori Hanzo joins the fight! ★ Tap banner for info!	0	0	4	fr	Hanzo Hattori, Fléau des colosses, rejoint la bataille ! ★ Touche pour info !	it	L'ammazzagiganti Hattori Hanzo scende in campo! ★ Tocca il banner!	de	Kolosstöter „Hattori Hanzo“ tritt dem Kampf bei! ★ Tippe auf das Banner!	es	¡El matacolosos Hattori Hanzo se une al combate! ★ ¡Toca para saber más!
20220902	1100	20220905	1100	110700	999999	0	0	1	1	749	150	0	4216	0	0	6500	0	2600	0	900	0	0	0	NEW hero IZ THE DANCER and Higher drop rate for Uber Rares!	4	fr	Iz la danseuse est là ! + taux d’obt. ultra rares élevé pendant la Maxi-fête !	it	NUOVO eroe Iz ballerina e più ricompense ultra rare durante il Festival Ultra!	de	NEUE Heldin „Iz die Tänzerin“ + höhere Beuterate für Megaseltene beim Megafest!	es	¡Llega Iz la Bailarina! ¡Y más probabilidad de ganar megarraros en el Megafesti!
20220905	1100	20220907	1100	110700	999999	0	0	1	3	-1	0	0	0	0	0	0	0	0	0	0	0	0	0		-1	0	0	0	0	0	0	0	0	0	0	0	0	0		659	150	0	20600	0	0	6970	0	2500	0	500	0	30	0	Face down Aku and Angels with NEW hero Shitakiri Sparrow! ★ Tap for info!	0	0	4	fr	Affronte Akus et anges avec le Moineau shitakiri ! ★ Touche pour des infos !	it	Affronta Aku e angelici con il NUOVO eroe Passero Shitakiri! ★ Tocca per info!	de	Stell dich Aku & Engeln mit dem NEUEN „Shitakari-Spatz“! ★ Tippe für mehr Info!	es	¡Derrota a akus y ángeles con Gorrión Cazatesoros! ★ ¡Toca para saber más!
20220907	1100	20220909	1100	110700	999999	0	0	1	3	-1	0	0	0	0	0	0	0	0	0	0	0	0	0		-1	0	0	0	0	0	0	0	0	0	0	0	0	0		733	150	0	20600	0	0	6970	0	2500	0	500	0	30	0	Colossus Slayer Daliasan joins the fight! Tap banner for info!	0	0	4	fr	Daliasan, fléau des colosses, rejoint la bataille ! Touche pour plus d'infos !	it	L'ammazzagiganti Daliasan scende in campo! Tocca il banner!	de	Kolosstöter „Daliasan“ tritt dem Kampf bei! Tippe auf das Banner!	es	¡Daliasan matacolosos se une a la lucha! ¡Toca para saber más!
20220909	1100	20220912	1100	110700	999999	0	0	1	2	-1	0	0	0	0	0	0	0	0	0	0	0	0	0		496	150	0	4216	0	0	7000	0	2500	0	500	1	0	0	Survive! Mola Mola! Collab Capsules! ★ Tap the banner for info!	0	4	fr	Survive! Mola Mola! Collab Capsules! ★ Tap the banner for info!	it	Survive! Mola Mola! Collab Capsules! ★ Tap the banner for info!	de	Survive! Mola Mola! Collab Capsules! ★ Tap the banner for info!	es	Survive! Mola Mola! Collab Capsules! ★ Tap the banner for info!
20220909	1100	20220912	1100	110700	999999	0	0	1	3	-1	0	0	0	0	0	0	0	0	0	0	0	0	0		-1	0	0	0	0	0	0	0	0	0	0	0	0	0		694	150	0	4216	0	0	6970	0	2500	0	500	1	30	0	Take down Colossal prey with NEW hero Huntress Terun! ★ Tap for info!	0	0	4	fr	Abats les colosses avec Terun chasseresse ! ★ Touche pour des infos	it	Elimina nemici giganti con la NUOVA unità Terun cacciatrice! ★ Tocca per info!	de	Vernichte kolossale Ziele: NEUE Heldin „Jägerin Terun“! ★ Tippe für mehr Info!	es	¡Derrota a presas colosales con Terun Cazadora! ★ ¡Toca para saber más!
[end]
