[start]
20160101	0	20300101	0	50700	999999	0	0	1	1	0	150	0	0	0	0	7500	0	2000	0	500	0	0	0	여기에서만 얻을 수 있는 레어 캐릭터가 100% 출현!!
20180109	1100	20300101	1100	50700	999999	0	0	0	1	0	0	0	0	10000	0	0	0	0	0	0	0	0	0	
20170101	0	20300101	0	50700	999999	0	0	2	2	0	30	0	0	0	0	7500	0	2000	0	500	0	0	0		0	30	0	0	0	0	7500	0	2000	0	500	0	0	0	
20170101	0	20300101	0	50700	999999	0	0	3	2	0	75	0	0	0	0	7500	0	2000	0	500	0	0	0		0	75	0	0	0	0	7500	0	2000	0	500	0	0	0	
20181013	1100	20300101	1100	70400	999999	0	0	1	4	-1	150	0	0	0	0	7500	0	2000	0	500	0	0	0		-1	150	0	0	0	0	7500	0	2000	0	500	0	0	0		-1	150	0	0	0	0	7500	0	2000	0	500	0	0	0		320	0	0	0	0	0	0	0	0	0	10000	0	0	0	울트라 슈퍼 레어 캐릭터를 반드시 뽑을 수 있는 「플래티넘 뽑기」
20190916	1100	20191002	0	80800	999999	0	0	0	4	-1	150	0	0	0	0	7500	0	2000	0	500	0	0	0		-1	150	0	0	0	0	7500	0	2000	0	500	0	0	0		-1	150	0	0	0	0	7500	0	2000	0	500	0	0	0		32	0	300	0	0	0	5100	0	3500	0	1400	0	0	0	【기간한정】고양이 드링크와 XP를 GET할 수 있는 특별 뽑기!★ 10월 1일 까지!
20190923	1100	20191008	0	80900	999999	0	0	0	3	-1	150	0	0	0	0	7500	0	2000	0	500	0	0	0		-1	150	0	0	0	0	7500	0	2000	0	500	0	0	0		31	0	0	0	0	0	7400	0	2100	0	500	0	0	0	【기간 한정】꼬맹이 고양이들을 손에 넣을 수 있는 특별 이벤트 뽑기 등장! (~10/7)
20190925	1100	20190928	1100	80900	999999	0	0	1	1	336	150	0	3704	0	0	6970	0	2500	0	500	0	30	0	★압도적인 파괴력을 가진 초파괴대제 【드래곤 엠퍼러스】 등장★
20190928	1100	20191001	1100	80900	999999	0	0	1	1	354	150	0	3704	0	0	7000	0	2500	0	500	1	0	0	♡이세계에서 소환 된 몬스터 미소녀들♡10+1연속 뽑기 울슈레 1개 확정! ♡
20191001	1100	20191003	1100	80900	999999	0	0	1	1	380	150	0	3704	0	0	6970	0	2500	0	500	0	30	0	★우주에서 온 개성 넘치는 깜찍한 정령들!★시크릿 참전!?★자세한 내용은 배너를 클릭!!★
20191003	1100	20191006	1100	80900	999999	0	0	1	1	360	150	0	3704	0	0	6500	0	2600	0	900	0	0	0	★강력한 한정 캐릭터 「쾌걸 달타냥」 참전!★울슈레 확률 지금만 초 UP★
20191006	1100	20191009	1100	80900	999999	0	0	1	1	333	150	0	3704	0	0	6970	0	2500	0	500	0	30	0	파워풀 & 큐트한 사이버학원 소녀전사들! 시크릿 참전!?★자세한 내용은 배너를 클릭! 
20191007	1100	20191009	1100	80900	999999	0	0	1	1	333	150	0	0	0	0	6970	0	2500	0	500	0	30	0	파워풀 & 큐트한 사이버학원 소녀전사들! 시크릿 참전!?★자세한 내용은 배너를 클릭! 
20191009	1100	20191012	1100	80900	999999	0	0	1	1	392	150	0	0	0	0	6970	0	2500	0	500	0	30	0	★냥코 월드에 위대한 신들이 집결!!★시크릿 참전!?★자세한 내용은 배너를 클릭!!★
20191012	1100	20191015	1100	80900	999999	0	0	1	1	396	150	0	0	0	0	6970	0	2500	0	500	1	30	0	★미네르바 참전! 검은 적에 강한 환수들을 GET하자냥! 자세한 내용은 배너를 클릭!★
20191012	1100	20300101	1100	80900	999999	0	0	1	4	-1	150	0	0	0	0	7500	0	2000	0	500	0	0	0		-1	150	0	0	0	0	7500	0	2000	0	500	0	0	0		-1	150	0	0	0	0	7500	0	2000	0	500	0	0	0		401	0	0	0	0	0	0	0	0	0	10000	0	0	0	울트라 슈퍼 레어 캐릭터를 반드시 뽑을 수 있는 「플래티넘 뽑기」
20191015	1100	20191018	1100	80900	999999	0	0	1	1	384	150	0	0	0	0	6970	0	2500	0	500	0	30	0	★정의와 어둠 두 가지 능력을 가진 구세주! 시크릿 참전!?★자세한 내용은 배너를 클릭!!★
20191016	1100	20191102	0	80900	999999	0	0	0	4	-1	150	0	0	0	0	7500	0	2000	0	500	0	0	0		-1	150	0	0	0	0	7500	0	2000	0	500	0	0	0		-1	150	0	0	0	0	7500	0	2000	0	500	0	0	0		33	0	300	0	0	0	5100	0	3500	0	1400	0	0	0	【기간한정】고양이 드링크와 XP를 GET할 수 있는 특별 뽑기!★ 11월 1일 까지!
[end]
