[start]
20160101	0	20300101	0	50700	999999	0	0	1	1	0	150	0	0	0	0	7500	0	2000	0	500	0	0	0	여기에서만 얻을 수 있는 레어 캐릭터가 100% 출현!!
20180109	1100	20300101	1100	50700	999999	0	0	0	1	0	0	0	0	10000	0	0	0	0	0	0	0	0	0	
20170101	0	20300101	0	50700	999999	0	0	2	2	0	30	0	0	0	0	7500	0	2000	0	500	0	0	0		0	30	0	0	0	0	7500	0	2000	0	500	0	0	0	
20170101	0	20300101	0	50700	999999	0	0	3	2	0	75	0	0	0	0	7500	0	2000	0	500	0	0	0		0	75	0	0	0	0	7500	0	2000	0	500	0	0	0	
20181013	1100	20300101	1100	70400	999999	0	0	1	4	-1	150	0	0	0	0	7500	0	2000	0	500	0	0	0		-1	150	0	0	0	0	7500	0	2000	0	500	0	0	0		-1	150	0	0	0	0	7500	0	2000	0	500	0	0	0		320	0	0	0	0	0	0	0	0	0	10000	0	0	0	울트라 슈퍼 레어 캐릭터를 반드시 뽑을 수 있는 「플래티넘 뽑기」
20190216	1100	20190302	0	80200	999999	0	0	0	2	-1	0	300	0	0	0	5100	0	3500	0	1400	0	0	0		19	0	300	0	0	0	5100	0	3500	0	1400	0	0	0	【기간한정】고양이 드링크와 XP를 GET할 수 있는 특별 뽑기!★ 3월 1일 까지!
20190225	1100	20190311	1100	80201	999999	0	0	1	1	368	150	0	0	0	0	7000	0	2500	0	500	0	0	0	★극장판 「Fate/stay night [Heaven's Feel]」콜라보 뽑기!★자세한 내용은 배너를 클릭!!★
20190227	1100	20190301	1100	80200	999999	0	0	1	2	-1	150	0	0	0	0	7500	0	2000	0	500	0	0	0		333	150	0	0	0	0	6970	0	2500	0	500	0	30	0	파워풀 & 큐트한 사이버학원 소녀전사들! 시크릿 참전!?★자세한 내용은 배너를 클릭! 
20190301	1100	20190304	1100	80200	999999	0	0	1	2	-1	150	0	0	0	0	7500	0	2000	0	500	0	0	0		360	150	0	0	0	0	6500	0	2600	0	900	0	0	0	★강력한 한정 캐릭터 「쾌걸 달타냥」 참전!★울슈레 확률 지금만 초 UP★
20190304	1100	20190306	1100	80202	999999	0	0	1	2	-1	150	0	0	0	0	7500	0	2000	0	500	0	0	0		348	150	0	0	0	0	7000	0	2500	0	500	0	0	0	★냥코 군단의 신병기! 좀비 킬러 【강철군대 아이언워즈】 등장!★
20190306	1100	20190311	1100	80202	999999	0	0	1	1	368	150	0	0	0	0	7000	0	2500	0	500	1	0	0	★극장판 「Fate/stay night [Heaven's Feel]」콜라보 뽑기!★10+1 연속 뽑기 울슈레 확정!★
20190306	1100	20190308	1100	80202	999999	0	0	1	2	-1	150	0	0	0	0	7500	0	2000	0	500	0	0	0		324	150	0	0	0	0	7000	0	2500	0	500	1	0	0	★10+1연속 뽑기 울슈레 1개 이상 확정! 진화하면 과연....? 【고양이 루가족】 등장!!★
20190308	1100	20190311	1100	80202	999999	0	0	1	2	-1	150	0	0	0	0	7500	0	2000	0	500	0	0	0		336	150	0	0	0	0	6970	0	2500	0	500	1	30	0	압도적인 존재감을 보여주는 드래곤들! 시크릿 참전!?★자세한 내용은 배너를 클릭! 
20190311	1100	20190313	1100	80202	999999	0	0	1	1	345	150	0	0	0	0	7000	0	2500	0	500	0	0	0	★냥코 월드에 위대한 신들이 집결★ 【궁극강림 기간트 제우스】 등장★
20190313	1100	20190315	1100	80202	999999	0	0	1	1	245	150	0	4	0	0	7000	0	2500	0	500	0	0	0	★보너스☆UP 뽑기 개최 중!! 빨간 적에 강한  【레드 바스터즈】  등장!★
20190315	1100	20190318	1100	80202	999999	0	0	1	1	361	150	0	0	0	0	6500	0	2600	0	900	0	0	0	★한정 캐릭터 「호걸 달타냥」 참전!★울슈레 확률 지금만 초 UP★
20190316	1100	20190402	0	80202	999999	0	0	0	2	-1	0	300	0	0	0	5100	0	3500	0	1400	0	0	0		21	0	300	0	0	0	5100	0	3500	0	1400	0	0	0	【기간한정】고양이 드링크와 XP를 GET할 수 있는 특별 뽑기!★ 4월 1일 까지!
[end]
