[start]
20180109	1100	20300101	1100	50700	999999	0	0	0	1	0	0	0	0	10000	0	0	0	0	0	0	0	0	0	
20170101	0	20300101	0	80200	999999	0	0	2	3	0	30	0	0	0	0	7500	0	2000	0	500	0	0	0		0	30	0	0	0	0	7500	0	2000	0	500	0	0	0		0	30	0	0	0	0	7500	0	2000	0	500	0	0	0	
20170101	0	20300101	0	80200	999999	0	0	3	3	0	75	0	0	0	0	7500	0	2000	0	500	0	0	0		0	75	0	0	0	0	7500	0	2000	0	500	0	0	0		0	75	0	0	0	0	7500	0	2000	0	500	0	0	0	
20201009	1100	20300101	1100	90900	999999	0	0	1	4	-1	0	0	0	0	0	0	0	0	0	0	0	0	0		-1	0	0	0	0	0	0	0	0	0	0	0	0	0		-1	0	0	0	0	0	0	0	0	0	0	0	0	0		525	0	0	0	0	0	0	0	0	0	10000	0	0	0	울트라 슈퍼 레어 캐릭터를 반드시 뽑을 수 있는 ★플래티넘 뽑기★
20201113	1100	20300101	1100	91000	999999	0	0	1	4	-1	0	0	0	0	0	0	0	0	0	0	0	0	0		-1	0	0	0	0	0	0	0	0	0	0	0	0	0		-1	0	0	0	0	0	0	0	0	0	0	0	0	0		543	0	0	0	0	0	0	0	0	0	10000	0	0	0	울트라 슈퍼 레어 캐릭터 100% 획득 가능! ★플래티넘 뽑기★
20210212	000	20300101	1100	100200	999999	0	0	1	4	-1	0	0	0	0	0	0	0	0	0	0	0	0	0		-1	0	0	0	0	0	0	0	0	0	0	0	0	0		-1	0	0	0	0	0	0	0	0	0	0	0	0	0		556	0	0	0	0	0	0	0	0	0	10000	0	0	0	울트라 슈퍼 레어 캐릭터 100% 획득 가능! ★플래티넘 뽑기★
20210503	1100	20300101	0	100400	999999	0	0	0	3	-1	0	0	0	0	0	0	0	0	0	0	0	0	0		-1	0	0	0	0	0	0	0	0	0	0	0	0	0		62	0	0	0	0	0	7400	0	2100	0	500	0	0	0	【기간한정】 꼬맹이 고양이들을 손에 넣을 수 있는 특별 이벤트 뽑기 등장!
20210416	1100	20300101	0	100400	999999	0	0	0	4	-1	0	0	0	0	0	0	0	0	0	0	0	0	0		-1	0	0	0	0	0	0	0	0	0	0	0	0	0		-1	0	0	0	0	0	0	0	0	0	0	0	0	0		63	0	300	0	0	0	5100	0	3500	0	1400	0	0	0	【기간한정】 고양이 드링크와 XP를 GET할 수 있는 특별 뽑기!
20210507	1100	20300101	1100	100400	999999	0	0	1	4	-1	0	0	0	0	0	0	0	0	0	0	0	0	0		-1	0	0	0	0	0	0	0	0	0	0	0	0	0		-1	0	0	0	0	0	0	0	0	0	0	0	0	0		577	0	0	0	0	0	0	0	0	0	10000	0	0	0	울트라 슈퍼 레어 캐릭터 100% 획득 가능! ★플래티넘 뽑기★
20210709	000	20300101	1100	100600	999999	0	0	1	4	-1	0	0	0	0	0	0	0	0	0	0	0	0	0		-1	0	0	0	0	0	0	0	0	0	0	0	0	0		-1	0	0	0	0	0	0	0	0	0	0	0	0	0		592	0	0	0	0	0	0	0	0	0	10000	0	0	0	울트라 슈퍼 레어 캐릭터 100% 획득 가능! ★플래티넘 뽑기★
20210809	1100	20210811	1100	100700	999999	0	0	1	3	-1	0	0	0	0	0	0	0	0	0	0	0	0	0		-1	0	0	0	0	0	0	0	0	0	0	0	0	0		475	150	0	0	0	0	6970	0	2500	0	500	0	30	0	냥코 월드 최대급 진화! 초고대 전설의 용사들!★자세한 내용은 배너를 클릭!	0	0	0
20210811	1100	20210813	1100	100700	999999	0	0	1	3	-1	0	0	0	0	0	0	0	0	0	0	0	0	0		-1	0	0	0	0	0	0	0	0	0	0	0	0	0		572	150	0	0	0	0	6970	0	2500	0	500	0	30	0	신 캐릭터 '공중상사 콜럼버스' 참전!★냥코 군단의 초병기!★자세한 내용은 배너를 클릭!	0	0	0
20210813	1100	20210816	1100	100700	999999	0	0	1	1	590	150	0	0	0	0	6500	0	2600	0	900	0	0	0	신 캐릭터 '흑수 가르디언' 참전!★울슈레 출현율 초 UP! 하이퍼 고양이 축제 개최 중!	0
20210816	1100	20210823	1100	100600	999999	0	0	0	2	-1	0	0	0	0	0	0	0	0	0	0	0	0	0		5	0	0	2	500	0	7000	0	2000	0	500	0	0	0	☆기간 한정★높은 확률로 캣츠아이를 획득할 수 있는 특별 뽑기!☆
20210823	1100	20210830	1100	100600	999999	0	0	0	2	-1	0	0	0	0	0	0	0	0	0	0	0	0	0		3	0	300	0	400	0	2000	0	7000	0	600	0	0	0	☆기간 한정★개다래를 획득할 수 있는 특별 뽑기!☆
20210816	1100	20210818	000	100700	999999	0	0	1	1	430	150	0	0	0	0	6440	0	2500	0	1000	0	60	0	★울슈레, 레전드 레어 출현율 2배!★파워풀&큐트한 소녀들!★
20210816	1100	20210818	000	100700	999999	0	0	1	2	-1	0	0	0	0	0	0	0	0	0	0	0	0	0		427	150	0	0	0	0	6440	0	2500	0	1000	0	60	0	★울슈레, 레전드 레어 출현율 2배!★검은 적에 강한 멋진 환수들! ★
20210818	000	20210820	000	100700	999999	0	0	1	1	585	150	0	0	0	0	6440	0	2500	0	1000	0	60	0	★울슈레, 레전드 레어 출현율 2배!★이세계에서 소환된 유쾌한 미소녀들!★
20210818	000	20210820	000	100700	999999	0	0	1	2	-1	0	0	0	0	0	0	0	0	0	0	0	0	0		433	150	0	0	0	0	6440	0	2500	0	1000	0	60	0	★울슈레, 레전드 레어 출현율 2배!★압도적인 존재감을 내뿜는 강력한 드래곤들!★
20210820	000	20210822	000	100700	999999	0	0	1	1	424	150	0	0	0	0	6440	0	2500	0	1000	0	60	0	★울슈레, 레전드 레어 출현율 2배!★세계 최강 전력의 냥코 군단!★
20210820	000	20210822	000	100700	999999	0	0	1	2	-1	0	0	0	0	0	0	0	0	0	0	0	0	0		517	150	0	0	0	0	6440	0	2500	0	1000	0	60	0	★울슈레, 레전드 레어 출현율 2배!★고양이가 맞는지 아닌지, 수수께끼에 싸인 생명체!★
20210822	000	20210824	000	100700	999999	0	0	1	1	497	150	0	0	0	0	6440	0	2500	0	1000	0	60	0	★울슈레, 레전드 레어 출현율 2배!★냥코 월드의 위대한 신들이 이곳에 집결!★
20210822	000	20210824	000	100700	999999	0	0	1	2	-1	0	0	0	0	0	0	0	0	0	0	0	0	0		487	150	0	0	0	0	6440	0	2500	0	1000	0	60	0	★울슈레, 레전드 레어 출현율 2배!★정의와 어둠의 힘을 둘 다 갖춘 냥코 군단의 구세주들!★
20210824	000	20210826	000	100700	999999	0	0	1	1	475	150	0	0	0	0	6440	0	2500	0	1000	0	60	0	★울슈레, 레전드 레어 출현율 2배!★냥코 월드 최대급 진화! 초고대 전설의 용사들!★
20210824	000	20210826	000	100700	999999	0	0	1	2	-1	0	0	0	0	0	0	0	0	0	0	0	0	0		538	150	0	0	0	0	6440	0	2500	0	1000	0	60	0	★울슈레, 레전드 레어 출현율 2배!★우주에서 온 개성 넘치는 깜찍한 정령들!★
20210826	000	20210827	1100	100700	999999	0	0	1	1	572	150	0	0	0	0	6440	0	2500	0	1000	0	60	0	★울슈레, 레전드 레어 출현율 2배!★냥코군단에 초병기가 등장!★
20210827	1100	20210830	1100	100700	999999	0	0	1	1	602	150	0	16384	0	0	6940	0	2500	0	500	0	60	0	★한정 울슈레 '고양이 왕녀' 포함 여성 캐릭터들이 총집결한 신 뽑기!★레전드 레어만 출현율 2배!★
20210827	1100	20300101	1100	100700	999999	0	0	1	4	-1	0	0	0	0	0	0	0	0	0	0	0	0	0		-1	0	0	0	0	0	0	0	0	0	0	0	0	0		-1	0	0	0	0	0	0	0	0	0	0	0	0	0		603	0	0	0	0	0	0	0	0	0	10000	0	0	0	울트라 슈퍼 레어 캐릭터 100% 획득 가능! ★플래티넘 뽑기★
[end]
