[start]
20180109	1100	20300101	1100	50700	999999	0	0	0	1	0	0	0	0	10000	0	0	0	0	0	0	0	0	0	
20170101	0	20300101	0	80200	999999	0	0	2	3	0	30	0	0	0	0	7500	0	2000	0	500	0	0	0		0	30	0	0	0	0	7500	0	2000	0	500	0	0	0		0	30	0	0	0	0	7500	0	2000	0	500	0	0	0	
20170101	0	20300101	0	80200	999999	0	0	3	3	0	75	0	0	0	0	7500	0	2000	0	500	0	0	0		0	75	0	0	0	0	7500	0	2000	0	500	0	0	0		0	75	0	0	0	0	7500	0	2000	0	500	0	0	0	
20210503	1100	20300101	0	100400	999999	0	0	0	3	-1	0	0	0	0	0	0	0	0	0	0	0	0	0		-1	0	0	0	0	0	0	0	0	0	0	0	0	0		62	0	0	0	0	0	7400	0	2100	0	500	0	0	0	【기간한정】 꼬맹이 고양이들을 손에 넣을 수 있는 특별 이벤트 뽑기 등장!
20210416	1100	20300101	0	100400	999999	0	0	0	4	-1	0	0	0	0	0	0	0	0	0	0	0	0	0		-1	0	0	0	0	0	0	0	0	0	0	0	0	0		-1	0	0	0	0	0	0	0	0	0	0	0	0	0		63	0	300	0	0	0	5100	0	3500	0	1400	0	0	0	【기간한정】 고양이 드링크와 XP를 GET할 수 있는 특별 뽑기!
20211022	1100	20300101	1100	100900	999999	0	0	1	4	-1	0	0	0	0	0	0	0	0	0	0	0	0	0		-1	0	0	0	0	0	0	0	0	0	0	0	0	0		-1	0	0	0	0	0	0	0	0	0	0	0	0	0		617	0	0	0	0	0	0	0	0	0	10000	0	0	0	울트라 슈퍼 레어 캐릭터 100% 획득 가능! ★플래티넘 뽑기★
20211105	1100	20300101	1100	100900	999999	0	0	1	4	-1	0	0	0	0	0	0	0	0	0	0	0	0	0		-1	0	0	0	0	0	0	0	0	0	0	0	0	0		-1	0	0	0	0	0	0	0	0	0	0	0	0	0		635	0	0	0	0	0	0	0	0	0	10000	0	0	0	울트라 슈퍼 레어 캐릭터 100% 획득 가능! ★플래티넘 뽑기★	0	0	0	0
20211119	1100	20300101	1100	101000	999999	0	0	1	4	-1	0	0	0	0	0	0	0	0	0	0	0	0	0		-1	0	0	0	0	0	0	0	0	0	0	0	0	0		-1	0	0	0	0	0	0	0	0	0	0	0	0	0		636	0	0	0	0	0	0	0	0	0	10000	0	0	0	울트라 슈퍼 레어 캐릭터 100% 획득 가능! ★플래티넘 뽑기★
20211122	1100	20300101	1100	101000	999999	0	0	1	5	-1	0	0	0	0	0	0	0	0	0	0	0	0	0		-1	0	0	0	0	0	0	0	0	0	0	0	0	0		-1	0	0	0	0	0	0	0	0	0	0	0	0	0		-1	0	0	0	0	0	0	0	0	0	0	0	0	0		639	0	0	0	0	0	0	0	0	0	9500	0	500	0	울슈레 이상 캐릭터 반드시 1개이상 확정 획득 가능! ★레전드 뽑기★
20211126	1100	20300101	1100	101000	999999	0	0	1	4	-1	0	0	0	0	0	0	0	0	0	0	0	0	0		-1	0	0	0	0	0	0	0	0	0	0	0	0	0		-1	0	0	0	0	0	0	0	0	0	0	0	0	0		637	0	0	0	0	0	0	0	0	0	10000	0	0	0	울트라 슈퍼 레어 캐릭터 100% 획득 가능! ★플래티넘 뽑기★
20211126	1100	20300101	1100	101000	999999	0	0	1	5	-1	0	0	0	0	0	0	0	0	0	0	0	0	0		-1	0	0	0	0	0	0	0	0	0	0	0	0	0		-1	0	0	0	0	0	0	0	0	0	0	0	0	0		-1	0	0	0	0	0	0	0	0	0	0	0	0	0		640	0	0	0	0	0	0	0	0	0	9500	0	500	0	울슈레 이상 캐릭터 반드시 1개이상 확정 획득 가능! ★레전드 뽑기★
20211224	1100	20300101	1100	110000	999999	0	0	1	4	-1	0	0	0	0	0	0	0	0	0	0	0	0	0		-1	0	0	0	0	0	0	0	0	0	0	0	0	0		-1	0	0	0	0	0	0	0	0	0	0	0	0	0		655	0	0	0	0	0	0	0	0	0	9500	0	500	0	울슈레 이상 캐릭터 반드시 1개이상 확정 획득 가능! ★레전드 뽑기★
20211224	1100	20300101	1100	110000	999999	0	0	1	5	-1	0	0	0	0	0	0	0	0	0	0	0	0	0		-1	0	0	0	0	0	0	0	0	0	0	0	0	0		-1	0	0	0	0	0	0	0	0	0	0	0	0	0		-1	0	0	0	0	0	0	0	0	0	0	0	0	0		653	0	0	0	0	0	0	0	0	0	10000	0	0	0	울트라 슈퍼 레어 캐릭터 100% 획득 가능! ★플래티넘 뽑기★
20220106	1100	20300101	1100	110100	999999	0	0	0	1	64	0	2300	0	10000	0	0	0	0	0	0	0	0	0	
20220121	1100	20300101	1100	110100	999999	0	0	1	4	-1	0	0	0	0	0	0	0	0	0	0	0	0	0		-1	0	0	0	0	0	0	0	0	0	0	0	0	0		-1	0	0	0	0	0	0	0	0	0	0	0	0	0		656	0	0	0	0	0	0	0	0	0	9500	0	500	0	울슈레 이상 캐릭터 반드시 1개이상 확정 획득 가능! ★레전드 뽑기★
20220121	1100	20300101	1100	110100	999999	0	0	1	5	-1	0	0	0	0	0	0	0	0	0	0	0	0	0		-1	0	0	0	0	0	0	0	0	0	0	0	0	0		-1	0	0	0	0	0	0	0	0	0	0	0	0	0		-1	0	0	0	0	0	0	0	0	0	0	0	0	0		654	0	0	0	0	0	0	0	0	0	10000	0	0	0	울트라 슈퍼 레어 캐릭터 100% 획득 가능! ★플래티넘 뽑기★
20220201	000	20300101	1100	110100	999999	0	0	1	4	-1	0	0	0	0	0	0	0	0	0	0	0	0	0		-1	0	0	0	0	0	0	0	0	0	0	0	0	0		-1	0	0	0	0	0	0	0	0	0	0	0	0	0		690	0	0	0	0	0	0	0	0	0	9500	0	500	0	울슈레 이상 캐릭터 반드시 1개이상 확정 획득 가능! ★레전드 뽑기★
20220201	000	20300101	1100	110100	999999	0	0	1	5	-1	0	0	0	0	0	0	0	0	0	0	0	0	0		-1	0	0	0	0	0	0	0	0	0	0	0	0	0		-1	0	0	0	0	0	0	0	0	0	0	0	0	0		-1	0	0	0	0	0	0	0	0	0	0	0	0	0		689	0	0	0	0	0	0	0	0	0	10000	0	0	0	울트라 슈퍼 레어 캐릭터 100% 획득 가능! ★플래티넘 뽑기★
20220204	1100	20300101	1100	110100	999999	0	0	1	4	-1	0	0	0	0	0	0	0	0	0	0	0	0	0		-1	0	0	0	0	0	0	0	0	0	0	0	0	0		-1	0	0	0	0	0	0	0	0	0	0	0	0	0		692	0	0	0	0	0	0	0	0	0	9500	0	500	0	울슈레 이상 캐릭터 반드시 1개이상 확정 획득 가능! ★레전드 뽑기★
20220204	1100	20300101	1100	110100	999999	0	0	1	5	-1	0	0	0	0	0	0	0	0	0	0	0	0	0		-1	0	0	0	0	0	0	0	0	0	0	0	0	0		-1	0	0	0	0	0	0	0	0	0	0	0	0	0		-1	0	0	0	0	0	0	0	0	0	0	0	0	0		691	0	0	0	0	0	0	0	0	0	10000	0	0	0	울트라 슈퍼 레어 캐릭터 100% 획득 가능! ★플래티넘 뽑기★
20220225	1100	20300101	1100	110200	999999	0	0	1	4	-1	0	0	0	0	0	0	0	0	0	0	0	0	0		-1	0	0	0	0	0	0	0	0	0	0	0	0	0		-1	0	0	0	0	0	0	0	0	0	0	0	0	0		706	0	0	0	0	0	0	0	0	0	9500	0	500	0	울슈레 이상 캐릭터 반드시 1개이상 확정 획득 가능! ★레전드 뽑기★
20220225	1100	20300101	1100	110200	999999	0	0	1	5	-1	0	0	0	0	0	0	0	0	0	0	0	0	0		-1	0	0	0	0	0	0	0	0	0	0	0	0	0		-1	0	0	0	0	0	0	0	0	0	0	0	0	0		-1	0	0	0	0	0	0	0	0	0	0	0	0	0		705	0	0	0	0	0	0	0	0	0	10000	0	0	0	울트라 슈퍼 레어 캐릭터 100% 획득 가능! ★플래티넘 뽑기★
20220311	1100	20300101	1100	110200	999999	0	0	1	4	-1	0	0	0	0	0	0	0	0	0	0	0	0	0		-1	0	0	0	0	0	0	0	0	0	0	0	0	0		-1	0	0	0	0	0	0	0	0	0	0	0	0	0		687	0	0	0	0	0	0	0	0	0	9500	0	500	0	울슈레 이상 캐릭터 반드시 1개이상 확정 획득 가능! ★레전드 뽑기★
20220311	1100	20300101	1100	110200	999999	0	0	1	5	-1	0	0	0	0	0	0	0	0	0	0	0	0	0		-1	0	0	0	0	0	0	0	0	0	0	0	0	0		-1	0	0	0	0	0	0	0	0	0	0	0	0	0		-1	0	0	0	0	0	0	0	0	0	0	0	0	0		685	0	0	0	0	0	0	0	0	0	10000	0	0	0	울트라 슈퍼 레어 캐릭터 100% 획득 가능! ★플래티넘 뽑기★
20220408	1100	20300101	1100	110300	999999	0	0	1	4	-1	0	0	0	0	0	0	0	0	0	0	0	0	0		-1	0	0	0	0	0	0	0	0	0	0	0	0	0		-1	0	0	0	0	0	0	0	0	0	0	0	0	0		703	0	0	0	0	0	0	0	0	0	9500	0	500	0	울슈레 이상 캐릭터 반드시 1개이상 확정 획득 가능! ★레전드 뽑기★
20220408	1100	20300101	1100	110300	999999	0	0	1	5	-1	0	0	0	0	0	0	0	0	0	0	0	0	0		-1	0	0	0	0	0	0	0	0	0	0	0	0	0		-1	0	0	0	0	0	0	0	0	0	0	0	0	0		-1	0	0	0	0	0	0	0	0	0	0	0	0	0		702	0	0	0	0	0	0	0	0	0	10000	0	0	0	울트라 슈퍼 레어 캐릭터 100% 획득 가능! ★플래티넘 뽑기★
20220415	1100	20220502	1100	110400	999999	0	0	1	2	-1	0	0	0	0	0	0	0	0	0	0	0	0	0		724	150	0	16384	0	0	7000	0	2500	0	500	0	0	0	일부 이스타 한정 캐릭터의 제3형태 추가!★자세한 내용은 배너를 클릭!	0	0
20220425	1100	20220427	1100	110400	999999	0	0	1	3	-1	0	0	0	0	0	0	0	0	0	0	0	0	0		-1	0	0	0	0	0	0	0	0	0	0	0	0	0		648	150	0	16384	0	0	6970	0	2500	0	500	0	30	0	에이리언과 악마에 강한 캐릭터 '어둠의 정령 야미' 참전!★자세한 내용은 배너를 클릭!	0	0	0
20220427	1100	20220429	1100	110400	999999	0	0	1	3	-1	0	0	0	0	0	0	0	0	0	0	0	0	0		-1	0	0	0	0	0	0	0	0	0	0	0	0	0		645	150	0	16384	0	0	6970	0	2500	0	500	0	30	0	좀비와 악마에 강한 캐릭터 '초용전기 데스 트로이' 참전!★자세한 내용은 배너를 클릭!
20220429	1100	20220502	1100	110400	999999	0	0	1	2	-1	0	0	0	0	0	0	0	0	0	0	0	0	0		724	150	0	0	0	0	7000	0	2500	0	500	1	0	0	일부 이스타 한정 캐릭터의 제3형태 추가!★자세한 내용은 배너를 클릭!
20220429	1100	20220502	1100	110400	999999	0	0	1	1	709	150	0	0	0	0	6970	0	2500	0	500	1	30	0	초생명체 특효를 가진 신 캐릭터 '흑표' 참전!★자세한 내용은 배너를 클릭!
20220429	1100	20300101	1100	110400	999999	0	0	1	4	-1	0	0	0	0	0	0	0	0	0	0	0	0	0		-1	0	0	0	0	0	0	0	0	0	0	0	0	0		-1	0	0	0	0	0	0	0	0	0	0	0	0	0		715	0	0	0	0	0	0	0	0	0	9500	0	500	0	울슈레 이상 캐릭터 반드시 1개이상 확정 획득 가능! ★레전드 뽑기★
20220429	1100	20300101	1100	110400	999999	0	0	1	5	-1	0	0	0	0	0	0	0	0	0	0	0	0	0		-1	0	0	0	0	0	0	0	0	0	0	0	0	0		-1	0	0	0	0	0	0	0	0	0	0	0	0	0		-1	0	0	0	0	0	0	0	0	0	0	0	0	0		714	0	0	0	0	0	0	0	0	0	10000	0	0	0	울트라 슈퍼 레어 캐릭터 100% 획득 가능! ★플래티넘 뽑기★
20220502	1100	20220504	1100	110400	999999	0	0	1	1	626	150	0	20600	0	0	6970	0	2500	0	500	0	30	0	베리어도 쉴드도 파괴하는 캐릭터  '오코루가' 참전!★자세한 내용은 배너를 클릭!!
20220504	1100	20220506	1100	110400	999999	0	0	1	1	659	150	0	20600	0	0	6970	0	2500	0	500	0	30	0	악마와 천사에 강한 캐릭터 '혀 잘린 참새' 참전!★자세한 내용은 배너를 클릭!
20220506	1100	20220509	1100	110400	999999	0	0	1	1	712	150	0	4216	0	0	6500	0	2600	0	900	0	0	0	신캐릭터 '무희 이즈' 참전!★울슈레 출현율 초 UP! 울트라 고양이 축제 개최 중!
20220509	1100	20220511	1100	110400	999999	0	0	1	1	694	150	0	20600	0	0	6970	0	2500	0	500	0	30	0	초생명체에게 강한 신 캐릭터 '테룬' 참전!★자세한 내용은 배너를 클릭!!★
20220511	1100	20220513	1100	110400	999999	0	0	1	1	628	150	0	20600	0	0	6970	0	2500	0	500	0	30	0	악마 속성에 강한 캐릭터 '소환소년 사토루' 참전!★자세한 내용은 배너를 클릭!
20220513	1100	20220516	1100	110400	999999	0	0	1	1	661	150	0	20600	0	0	6970	0	2500	0	500	0	30	0	악마와 에이리언에 강한 캐릭터 '백기사 키클롭스' 참전!★자세한 내용은 배너를 클릭!
[end]
