[start]
20180109	1100	20300101	1100	50700	999999	0	0	0	1	0	0	0	0	10000	0	0	0	0	0	0	0	0	0	
20160101	0	20300101	0	50700	999999	0	0	1	1	0	150	0	0	0	0	7500	0	2000	0	500	0	0	0	只有從這個轉蛋才能拿到的限定角色等著你喔！
20170101	0	20300101	0	80200	999999	0	0	2	3	0	30	0	0	0	0	7500	0	2000	0	500	0	0	0		0	30	0	0	0	0	7500	0	2000	0	500	0	0	0		0	30	0	0	0	0	7500	0	2000	0	500	0	0	0	
20170101	0	20300101	0	80200	999999	0	0	3	3	0	75	0	0	0	0	7500	0	2000	0	500	0	0	0		0	75	0	0	0	0	7500	0	2000	0	500	0	0	0		0	75	0	0	0	0	7500	0	2000	0	500	0	0	0	
20181013	1100	20300101	1100	70400	999999	0	0	1	4	-1	150	0	0	0	0	7500	0	2000	0	500	0	0	0		-1	150	0	0	0	0	7500	0	2000	0	500	0	0	0		-1	150	0	0	0	0	7500	0	2000	0	500	0	0	0		320	0	0	0	0	0	0	0	0	0	10000	0	0	0	必出超激稀有角色的白金轉蛋！快來獲得心儀的貓咪吧！
20191012	1100	20300101	1100	80900	999999	0	0	1	4	-1	150	0	0	0	0	7500	0	2000	0	500	0	0	0		-1	150	0	0	0	0	7500	0	2000	0	500	0	0	0		-1	150	0	0	0	0	7500	0	2000	0	500	0	0	0		401	0	0	0	0	0	0	0	0	0	10000	0	0	0	必出超激稀有角色的白金轉蛋！快來獲得心儀的貓咪吧！
20191016	1100	20191102	0	80900	999999	0	0	0	4	-1	150	0	0	0	0	7500	0	2000	0	500	0	0	0		-1	150	0	0	0	0	7500	0	2000	0	500	0	0	0		-1	150	0	0	0	0	7500	0	2000	0	500	0	0	0		33	0	300	0	0	0	5100	0	3500	0	1400	0	0	0	限時開放★能夠獲得喵力達與XP的特別轉蛋！★11月1日為止！
20191018	1100	20191101	1100	80900	999999	0	0	1	2	-1	0	0	0	0	0	0	0	0	0	0	0	0	0		257	150	0	0	0	0	7000	0	2500	0	500	0	0	0	限時開放！快來獲得萬聖節變裝的可愛角色吧！★點圖可以看詳細內容喔！
20191027	1100	20191029	1100	80900	999999	0	0	1	1	364	150	0	0	0	0	6970	0	2500	0	500	0	30	0	進化後大變身的古代勇者們！神秘角色新登場！？★點圖可以看詳細內容喔！
20191029	1100	20191101	1100	80900	999999	0	0	1	1	404	150	0	0	0	0	6970	0	2500	0	500	1	30	0	英雄令媛蜜斯參戰！充滿力量可愛的電腦少女們！★點圖確認詳細吧！！
20191029	1100	20191101	1100	80900	999999	0	0	1	2	-1	0	0	0	0	0	0	0	0	0	0	0	0	0		257	150	0	0	0	0	7000	0	2500	0	500	1	0	0	限時開放！快來獲得萬聖節變裝的可愛角色吧！★11連轉超激確定活動中！
20191029	1100	20300101	1100	80900	999999	0	0	1	4	-1	0	0	0	0	0	0	0	0	0	0	0	0	0		-1	0	0	0	0	0	0	0	0	0	0	0	0	0		-1	0	0	0	0	0	0	0	0	0	0	0	0	0		407	0	0	0	0	0	0	0	0	0	10000	0	0	0	必出超激稀有角色的白金轉蛋！快來獲得心儀的貓咪吧！
20191101	1100	20191115	1100	81000	999999	0	0	1	1	415	150	0	0	0	0	6970	0	2500	0	500	0	30	0	『快打旋風V AE』合作轉蛋新登場！★點擊圖片確認詳細!!
20191101	1100	20191104	1100	81000	999999	0	0	1	2	-1	0	0	0	0	0	0	0	0	0	0	0	0	0		405	150	0	0	0	0	6500	0	2600	0	900	0	0	0	超強的限定角色「幼傑達太貓」登場！★超激出現率大幅上升！
20191104	1100	20191106	1100	81000	999999	0	0	1	2	-1	0	0	0	0	0	0	0	0	0	0	0	0	0		336	150	0	0	0	0	6970	0	2500	0	500	0	30	0	破壞力強大，勇猛可靠的龍皇們降臨啦！★點圖可以看詳細內容喔！
20191106	1100	20191108	1100	81000	999999	0	0	1	2	-1	0	0	0	0	0	0	0	0	0	0	0	0	0		354	150	0	0	0	0	7000	0	2500	0	500	0	0	0	從異世界被召喚來的怪物美少女★點圖可以看詳細內容喔！
20191108	1100	20191115	1100	81000	999999	0	0	1	1	415	150	0	0	0	0	6970	0	2500	0	500	1	30	0	『快打旋風V AE』合作轉蛋新登場！★11連轉超激確定活動中!!
20191108	1100	20191110	1100	81000	999999	0	0	1	2	-1	0	0	0	0	0	0	0	0	0	0	0	0	0		380	150	0	0	0	0	6970	0	2500	0	500	1	30	0	來自宇宙盡頭的各種精靈們！還有新神秘角色！？★點圖可以看詳細內容喔！
20191110	1100	20191112	1100	81000	999999	0	0	1	2	-1	0	0	0	0	0	0	0	0	0	0	0	0	0		392	150	0	0	0	0	6970	0	2500	0	500	1	30	0	貓咪世界的偉大眾神集結！想知道誰秘密參戰！？★點圖確認詳細吧！！
20191112	1100	20191115	1100	81000	999999	0	0	1	1	415	150	0	0	0	0	6970	0	2500	0	500	1	30	0	【即將結束】『快打旋風V AE』合作轉蛋！★11連轉超激確定活動中!!
20191112	1100	20191115	1100	81000	999999	0	0	1	2	-1	0	0	0	0	0	0	0	0	0	0	0	0	0		384	150	0	0	0	0	6970	0	2500	0	500	1	30	0	正義的暗黑英雄，貓咪軍團的異星戰士剋星！★點圖可以看詳細內容喔！
[end]
