[start]
20180109	1100	20300101	1100	50700	999999	0	0	0	1	0	0	0	0	10000	0	0	0	0	0	0	0	0	0	
20160101	0	20300101	0	50700	999999	0	0	1	1	0	150	0	0	0	0	7500	0	2000	0	500	0	0	0	只有從這個轉蛋才能拿到的限定角色等著你喔！
20170101	0	20300101	0	80200	999999	0	0	2	3	0	30	0	0	0	0	7500	0	2000	0	500	0	0	0		0	30	0	0	0	0	7500	0	2000	0	500	0	0	0		0	30	0	0	0	0	7500	0	2000	0	500	0	0	0	
20170101	0	20300101	0	80200	999999	0	0	3	3	0	75	0	0	0	0	7500	0	2000	0	500	0	0	0		0	75	0	0	0	0	7500	0	2000	0	500	0	0	0		0	75	0	0	0	0	7500	0	2000	0	500	0	0	0	
20200413	1100	20200427	1100	90400	999999	0	0	1	2	-1	0	0	0	0	0	0	0	0	0	0	0	0	0		502	150	0	0	0	0	7000	0	2500	0	500	0	0	0	春季限定！快來獲得可愛的復活節貓咪吧！★點圖可以看詳細內容喔！
20200416	1100	20200502	0	90400	999999	0	0	0	4	-1	0	0	0	0	0	0	0	0	0	0	0	0	0		-1	0	0	0	0	0	0	0	0	0	0	0	0	0		-1	0	0	0	0	0	0	0	0	0	0	0	0	0		42	0	300	0	0	0	5100	0	3500	0	1400	0	0	0	限時開放★能夠獲得喵力達與XP的特別轉蛋！★5月1日為止！
20200424	1100	20200427	1100	90400	999999	0	0	1	1	497	150	0	0	0	0	6970	0	2500	0	500	1	30	0	冥界神黑帝斯參戰！貓咪世界再加一偉大神！★點圖確認詳細吧!!
20200424	1100	20300101	1100	90400	999999	0	0	1	4	-1	0	0	0	0	0	0	0	0	0	0	0	0	0		-1	0	0	0	0	0	0	0	0	0	0	0	0	0		-1	0	0	0	0	0	0	0	0	0	0	0	0	0		504	0	0	0	0	0	0	0	0	0	10000	0	0	0	必出超激稀有角色的白金轉蛋！快來獲得心儀的貓咪吧！
20200424	1100	20200427	1100	90400	999999	0	0	1	2	-1	0	0	0	0	0	0	0	0	0	0	0	0	0		502	150	0	0	0	0	7000	0	2500	0	500	1	0	0	春季限定！快來獲得可愛的復活節貓咪吧！★11連轉超激確定活動中！
20200427	1100	20200429	1100	90400	999999	0	0	1	1	424	150	0	0	0	0	6970	0	2500	0	500	0	30	0	豐富多樣性的世界第一即戰力貓咪們！★點圖確認詳細吧!!
20200429	1100	20200501	1100	90400	999999	0	0	1	1	475	150	0	0	0	0	6970	0	2500	0	500	0	30	0	貓咪世界最大級的驚人進化樣貌之古代勇者們！★點圖確認詳細吧!!
20200501	1100	20200504	1100	90400	999999	0	0	1	1	503	150	0	0	0	0	6500	0	2500	0	1000	0	0	0	超貓・極貓祭限定的角色大集合，豪華轉蛋登場★超激稀有出現率最大幅上升！
20200501	1100	20200510	1100	90400	999999	0	0	0	2	-1	0	0	0	0	0	0	0	0	0	0	0	0	0		5	0	0	2	500	0	7000	0	2000	0	500	0	0	0	限時開放★高機率獲得各種貓眼石的活動限定特別轉蛋！
20200504	1100	20200506	1100	90400	999999	0	0	1	1	421	150	0	0	0	0	6970	0	2500	0	500	0	30	0	噁心又可愛的神秘生物！神秘角色新登場！？★點圖可以看詳細內容喔！
20200506	1100	20200508	1100	90400	999999	0	0	1	1	454	150	0	0	0	0	7000	0	2500	0	500	0	0	0	從異世界被召喚來的怪物美少女★點圖可以看詳細內容喔！
20200508	1100	20200510	1100	90400	999999	0	0	1	1	448	150	0	0	0	0	6970	0	2500	0	500	1	30	0	來自宇宙盡頭的各種精靈們！還有新神秘角色！？★點圖可以看詳細內容喔！
20200510	1100	20200512	1100	90400	999999	0	0	1	1	445	150	0	0	0	0	6970	0	2500	0	500	0	30	0	貓咪軍團珍藏的超級武器！神秘角色新登場！？★點圖可以看詳細內容喔！
20200510	1100	20200518	1100	90400	999999	0	0	0	2	-1	0	0	0	0	0	0	0	0	0	0	0	0	0		3	0	300	0	400	0	2000	0	7000	0	600	0	0	0	限時開放★有機會入手貓薄荷的活動限定特別轉蛋！
20200512	1100	20200515	1100	90400	999999	0	0	1	1	427	150	0	0	0	0	6970	0	2500	0	500	0	30	0	對上黑敵能力大爆發！有強大效果的戰國武將們！★點圖確認詳細吧！！
20200515	1100	20200518	1100	90400	999999	0	0	1	1	501	150	0	0	0	0	6500	0	2600	0	900	0	0	0	限定角色「影傑漆黑達太貓」也參戰！★超激稀有角色出現率超大幅上升
20200516	1100	20200602	0	90400	999999	0	0	0	4	-1	0	0	0	0	0	0	0	0	0	0	0	0	0		-1	0	0	0	0	0	0	0	0	0	0	0	0	0		-1	0	0	0	0	0	0	0	0	0	0	0	0	0		43	0	300	0	0	0	5100	0	3500	0	1400	0	0	0	限時開放★能夠獲得喵力達與XP的特別轉蛋！★6月1日為止！
[end]
