[start]
20180109	1100	20300101	1100	50700	999999	0	0	0	1	0	0	0	0	10000	0	0	0	0	0	0	0	0	0	
20160101	0	20200925	1100	80200	999999	0	0	1	1	0	150	0	0	0	0	7500	0	2000	0	500	0	0	0	只有從這個轉蛋才能拿到的限定角色等著你喔！
20170101	0	20300101	0	80200	999999	0	0	2	3	0	30	0	0	0	0	7500	0	2000	0	500	0	0	0		0	30	0	0	0	0	7500	0	2000	0	500	0	0	0		0	30	0	0	0	0	7500	0	2000	0	500	0	0	0	
20170101	0	20300101	0	80200	999999	0	0	3	3	0	75	0	0	0	0	7500	0	2000	0	500	0	0	0		0	75	0	0	0	0	7500	0	2000	0	500	0	0	0		0	75	0	0	0	0	7500	0	2000	0	500	0	0	0	
20200807	1100	20300101	1100	90700	999999	0	0	1	4	-1	0	0	0	0	0	0	0	0	0	0	0	0	0		-1	0	0	0	0	0	0	0	0	0	0	0	0	0		-1	0	0	0	0	0	0	0	0	0	0	0	0	0		522	0	0	0	0	0	0	0	0	0	10000	0	0	0	必出超激稀有角色的白金轉蛋！快來獲得心儀的貓咪吧！
20200914	1100	20200929	000	90800	999999	0	0	0	3	-1	0	0	0	0	0	0	0	0	0	0	0	0	0		-1	0	0	0	0	0	0	0	0	0	0	0	0	0		51	0	0	0	0	0	7400	0	2100	0	500	0	0	0	限時開放！收集小小貓咪的好機會！★開放到2020年9月28日！
20200914	1100	20200920	1100	90800	999999	0	0	0	2	-1	0	0	0	0	0	0	0	0	0	0	0	0	0		3	0	300	0	400	0	2000	0	7000	0	600	0	0	0	限時開放★有機會入手貓薄荷的活動限定特別轉蛋！
20200916	1100	20201002	000	90800	999999	0	0	0	4	-1	0	0	0	0	0	0	0	0	0	0	0	0	0		-1	0	0	0	0	0	0	0	0	0	0	0	0	0		-1	0	0	0	0	0	0	0	0	0	0	0	0	0		50	0	300	0	0	0	5100	0	3500	0	1400	0	0	0	限時開放★能夠獲得喵力達與XP的特別轉蛋！★10月1日為止！
20200916	1100	20200918	1100	90800	999999	0	0	1	1	446	150	0	4024	0	0	6970	0	2500	0	500	0	30	0	貓咪軍團珍藏的超級武器！神秘角色新登場！？★點圖可以看詳細內容喔！
20200918	1100	20200921	1100	90800	999999	0	0	1	1	521	150	0	4024	0	0	6500	0	2600	0	900	0	0	0	超激稀有角色齊聚一堂!!★超激稀有出現率大增的「特級貓咪祭」進行中!!
20200920	1100	20200925	1100	90800	999999	0	0	0	2	-1	0	0	0	0	0	0	0	0	0	0	0	0	0		5	0	0	2	500	0	7000	0	2000	0	500	0	0	0	限時開放★高機率獲得各種貓眼石的活動限定特別轉蛋！
20200921	1100	20200923	1100	90800	999999	0	0	1	1	432	150	0	4024	0	0	6970	0	2500	0	500	0	30	0	打倒阻礙的敵人！戰鬥力十足又可愛的電腦少女們！★點圖可看詳細內容！
20200923	1100	20200925	1100	90800	999999	0	0	1	1	489	150	0	4024	0	0	6970	0	2500	0	500	0	30	0	握有正義與黑暗之力，貓咪軍團的救世主來了！★點圖確認詳細吧!!
20200925	1100	20200928	1100	90800	999999	0	0	1	2	-1	0	0	0	0	0	0	0	0	0	0	0	0	0		426	150	0	4024	0	0	6970	0	2500	0	500	1	30	0	豐富多樣性的世界第一即戰力貓咪們！★點圖確認詳細吧!!
20200928	1100	20200930	1100	90800	999999	0	0	1	2	-1	0	0	0	0	0	0	0	0	0	0	0	0	0		475	150	0	0	0	0	6970	0	2500	0	500	0	30	0	貓咪世界最大級的驚人進化樣貌之古代勇者們！★點圖確認詳細吧!!
20200930	1100	20201002	1100	90800	999999	0	0	1	2	-1	0	0	0	0	0	0	0	0	0	0	0	0	0		497	150	0	0	0	0	6970	0	2500	0	500	0	30	0	貓咪世界的偉大神們，都齊聚在此啦！★點圖確認詳細吧!!
20201002	1100	20201005	1100	90900	999999	0	0	1	1	536	150	0	0	0	0	6500	0	2500	0	1000	0	0	0	超貓・極貓祭限定的角色大集合，豪華轉蛋登場★超激稀有出現率最大幅上升！
[end]
