[start]
20180109	1100	20300101	1100	50700	999999	0	0	0	1	0	0	0	0	10000	0	0	0	0	0	0	0	0	0	
20170101	0	20300101	0	80200	999999	0	0	2	3	0	30	0	0	0	0	7500	0	2000	0	500	0	0	0		0	30	0	0	0	0	7500	0	2000	0	500	0	0	0		0	30	0	0	0	0	7500	0	2000	0	500	0	0	0	
20170101	0	20300101	0	80200	999999	0	0	3	3	0	75	0	0	0	0	7500	0	2000	0	500	0	0	0		0	75	0	0	0	0	7500	0	2000	0	500	0	0	0		0	75	0	0	0	0	7500	0	2000	0	500	0	0	0	
20210503	1100	20300101	0	100400	999999	0	0	0	3	-1	0	0	0	0	0	0	0	0	0	0	0	0	0		-1	0	0	0	0	0	0	0	0	0	0	0	0	0		62	0	0	0	0	0	7400	0	2100	0	500	0	0	0	限時開放！收集小小貓咪的好機會！
20210416	1100	20300101	0	100400	999999	0	0	0	4	-1	0	0	0	0	0	0	0	0	0	0	0	0	0		-1	0	0	0	0	0	0	0	0	0	0	0	0	0		-1	0	0	0	0	0	0	0	0	0	0	0	0	0		63	0	300	0	0	0	5100	0	3500	0	1400	0	0	0	限時開放★能夠獲得喵力達與XP的特別轉蛋！
20211022	1100	20300101	1100	100900	999999	0	0	1	4	-1	0	0	0	0	0	0	0	0	0	0	0	0	0		-1	0	0	0	0	0	0	0	0	0	0	0	0	0		-1	0	0	0	0	0	0	0	0	0	0	0	0	0		617	0	0	0	0	0	0	0	0	0	10000	0	0	0	必出超激稀有角色的白金轉蛋！快來獲得心儀的貓咪吧！
20211025	1100	20211108	1100	100900	999999	0	0	1	1	511	150	0	4216	0	0	7000	0	2500	0	500	0	0	0	【期間限定】『消滅都市』合作轉蛋登場！★點圖確認詳細吧!!
20211029	1100	20211108	1100	101000	999999	0	0	1	2	-1	0	0	0	0	0	0	0	0	0	0	0	0	0		511	150	0	4216	0	0	7000	0	2500	0	500	0	0	0	【期間限定】『消滅都市』合作轉蛋登場！★點圖確認詳細吧!!
20211029	1100	20211108	1100	101000	999999	0	0	1	3	-1	0	0	0	0	0	0	0	0	0	0	0	0	0		-1	0	0	0	0	0	0	0	0	0	0	0	0	0		650	150	0	4216	0	0	7000	0	2500	0	500	0	0	0	幽影冰雪貓追加第3進化！快來帶走萬聖節限定角色！★點圖確認詳細吧!!
20211102	1100	20211105	1100	101000	999999	0	0	1	1	614	150	0	4216	0	0	6500	0	2600	0	900	0	0	0	新角色「幼獸加爾」參戰！★超激稀有出現率超上升的「超貓祭」進行中!!
20211105	1100	20211108	1100	101000	999999	0	0	1	1	627	150	0	4216	0	0	6970	0	2500	0	500	1	30	0	對惡魔屬性很強的新角色「召喚少年小悟」參戰！★點圖確認詳細吧!!
20211105	1100	20300101	1100	101000	999999	0	0	1	4	-1	0	0	0	0	0	0	0	0	0	0	0	0	0		-1	0	0	0	0	0	0	0	0	0	0	0	0	0		-1	0	0	0	0	0	0	0	0	0	0	0	0	0		635	0	0	0	0	0	0	0	0	0	10000	0	0	0	必出超激稀有角色的白金轉蛋！快來獲得心儀的貓咪吧！	0	0	0	0
20211105	1100	20211108	1100	101000	999999	0	0	1	2	-1	0	0	0	0	0	0	0	0	0	0	0	0	0		511	150	0	4216	0	0	7000	0	2500	0	500	1	0	0	【即將結束】『消滅都市』合作轉蛋登場！★11連轉超激確定活動中!
20211105	1100	20211108	1100	101000	999999	0	0	1	3	-1	0	0	0	0	0	0	0	0	0	0	0	0	0		-1	0	0	0	0	0	0	0	0	0	0	0	0	0		650	150	0	4216	0	0	7000	0	2500	0	500	1	0	0	幽影冰雪貓追加第3進化！快來帶走萬聖節限定角色！★點圖確認詳細吧!!
20211108	1100	20211122	1100	101000	999999	0	0	1	2	-1	0	0	0	0	0	0	0	0	0	0	0	0	0		642	150	0	16384	0	0	7000	0	2500	0	500	0	0	0	劇場版「魔法少女☆小圓」合作轉蛋登場！★點圖可以看詳細內容喔！
20211108	1100	20211110	1100	101000	999999	0	0	1	3	-1	0	0	0	0	0	0	0	0	0	0	0	0	0		-1	0	0	0	0	0	0	0	0	0	0	0	0	0		475	150	0	16384	0	0	6970	0	2500	0	500	0	30	0	貓咪世界最大級的驚人進化樣貌之古代勇者們！★點圖確認詳細吧!!
20211110	1100	20211112	1100	101000	999999	0	0	1	3	-1	0	0	0	0	0	0	0	0	0	0	0	0	0		-1	0	0	0	0	0	0	0	0	0	0	0	0	0		572	150	0	16384	0	0	6970	0	2500	0	500	0	30	0	新角色「空中商店・探險家」參戰！貓咪軍團的超級兵器呀！★點圖可以確認詳細喔!!
20211112	1100	20211115	1100	101000	999999	0	0	1	1	641	150	0	0	0	0	6500	0	2600	0	900	0	0	0	新角色「黑獸加迪」參戰！★超激稀有出現率超上升的「特級貓咪祭」進行中!!
20211115	1100	20211117	1100	101000	999999	0	0	1	3	-1	0	0	0	0	0	0	0	0	0	0	0	0	0		-1	0	0	0	0	0	0	0	0	0	0	0	0	0		585	150	0	16384	0	0	6970	0	2500	0	500	0	30	0	「冒險家佳奈」新登場！異世界召喚來的愉快美少女們！★點圖可以確認詳細喔!!
20211117	1100	20211119	1100	101000	999999	0	0	1	3	-1	0	0	0	0	0	0	0	0	0	0	0	0	0		-1	0	0	0	0	0	0	0	0	0	0	0	0	0		538	150	0	16384	0	0	6970	0	2500	0	500	0	30	0	來自宇宙的盡頭，有個性又愉快的精靈們！★點圖確認詳細吧!!
20211119	1100	20211122	1100	101000	999999	0	0	1	1	630	150	0	0	0	0	6970	0	2500	0	500	1	30	0	對上紅色與惡魔很強的新角色「邪龍赫維賈克」參戰！★點圖確認詳細吧!!
20211119	1100	20211122	1100	101000	999999	0	0	1	2	-1	0	0	0	0	0	0	0	0	0	0	0	0	0		642	150	0	0	0	0	7000	0	2500	0	500	1	0	0	劇場版「魔法少女☆小圓」合作轉蛋！★11連轉超激確定活動中！
20211119	1100	20300101	1100	101000	999999	0	0	1	4	-1	0	0	0	0	0	0	0	0	0	0	0	0	0		-1	0	0	0	0	0	0	0	0	0	0	0	0	0		-1	0	0	0	0	0	0	0	0	0	0	0	0	0		636	0	0	0	0	0	0	0	0	0	10000	0	0	0	必出超激稀有角色的白金轉蛋！快來獲得心儀的貓咪吧！
[end]
