[start]
20180109	1100	20300101	1100	50700	999999	0	0	0	1	0	0	0	0	10000	0	0	0	0	0	0	0	0	0	
20170101	0	20300101	0	80200	999999	0	0	2	3	0	30	0	0	0	0	7500	0	2000	0	500	0	0	0		0	30	0	0	0	0	7500	0	2000	0	500	0	0	0		0	30	0	0	0	0	7500	0	2000	0	500	0	0	0	
20170101	0	20300101	0	80200	999999	0	0	3	3	0	75	0	0	0	0	7500	0	2000	0	500	0	0	0		0	75	0	0	0	0	7500	0	2000	0	500	0	0	0		0	75	0	0	0	0	7500	0	2000	0	500	0	0	0	
20201009	1100	20300101	1100	90900	999999	0	0	1	4	-1	0	0	0	0	0	0	0	0	0	0	0	0	0		-1	0	0	0	0	0	0	0	0	0	0	0	0	0		-1	0	0	0	0	0	0	0	0	0	0	0	0	0		525	0	0	0	0	0	0	0	0	0	10000	0	0	0	必出超激稀有角色的白金轉蛋！快來獲得心儀的貓咪吧！
20201113	1100	20300101	1100	91000	999999	0	0	1	4	-1	0	0	0	0	0	0	0	0	0	0	0	0	0		-1	0	0	0	0	0	0	0	0	0	0	0	0	0		-1	0	0	0	0	0	0	0	0	0	0	0	0	0		543	0	0	0	0	0	0	0	0	0	10000	0	0	0	必出超激稀有角色的白金轉蛋！快來獲得心儀的貓咪吧！
20210116	1100	20210202	0	100100	999999	0	0	0	4	-1	0	0	0	0	0	0	0	0	0	0	0	0	0		-1	0	0	0	0	0	0	0	0	0	0	0	0	0		-1	0	0	0	0	0	0	0	0	0	0	0	0	0		56	0	300	0	0	0	5100	0	3500	0	1400	0	0	0	限時開放★能夠獲得喵力達與XP的特別轉蛋！★2月1日為止！
20210118	1100	20210201	1100	100100	999999	0	0	1	2	-1	0	0	0	0	0	0	0	0	0	0	0	0	0		550	150	0	0	0	0	6970	0	2500	0	500	0	30	0	追加新角色！『快打旋風V』合作轉蛋來了！★點圖確認詳細吧!!
20210127	1100	20210129	1100	100100	999999	0	0	1	3	-1	0	0	0	0	0	0	0	0	0	0	0	0	0		-1	0	0	0	0	0	0	0	0	0	0	0	0	0		487	150	0	0	0	0	6970	0	2500	0	500	0	30	0	握有正義與黑暗之力，貓咪軍團的救世主來了！★點圖確認詳細吧!!
20210129	1100	20210201	1100	100100	999999	0	0	1	3	-1	0	0	0	0	0	0	0	0	0	0	0	0	0		-1	0	0	0	0	0	0	0	0	0	0	0	0	0		430	150	0	0	0	0	6970	0	2500	0	500	1	30	0	打倒阻礙的敵人！戰鬥力十足又可愛的電腦少女們！★點圖可看詳細內容！
20210129	1100	20210201	1100	100100	999999	0	0	1	2	-1	0	0	0	0	0	0	0	0	0	0	0	0	0		550	150	0	0	0	0	6970	0	2500	0	500	1	30	0	追加新角色！『快打旋風V』合作轉蛋來了！★點圖確認詳細吧!!
20210201	1100	20210216	0	100100	999999	0	0	0	3	-1	0	0	0	0	0	0	0	0	0	0	0	0	0		-1	0	0	0	0	0	0	0	0	0	0	0	0	0		58	0	0	0	0	0	7400	0	2100	0	500	0	0	0	限時開放！收集小小貓咪的好機會！★開放到2021年2月15日！
20210201	1100	20210208	1100	100100	999999	0	0	0	2	-1	0	0	0	0	0	0	0	0	0	0	0	0	0		5	0	0	2	500	0	7000	0	2000	0	500	0	0	0	限時開放★高機率獲得各種貓眼石的活動限定特別轉蛋！
20210201	1100	20210204	1100	100100	999999	0	0	1	1	541	150	0	4152	0	0	6500	0	2600	0	900	0	0	0	超激稀有角色齊聚一堂!!超激角色出現率大增的「超級貓咪祭」進行中!!
20210204	1100	20210206	1100	100100	999999	0	0	1	1	451	150	0	4156	0	0	7000	0	2500	0	500	0	0	0	對紅色敵人就靠這組！限定角色登場的特別版轉蛋！好康轉蛋活動中！
20210204	1100	20210206	1100	100100	999999	0	0	1	2	-1	0	0	0	0	0	0	0	0	0	0	0	0	0		452	150	0	4156	0	0	7000	0	2500	0	500	0	0	0	對飄浮敵人有強大效果的「飄浮破壞者」來了！好康轉蛋活動中！
20210206	1100	20210208	1100	100100	999999	0	0	1	1	453	150	0	4156	0	0	7000	0	2500	0	500	0	0	0	對鋼鐵敵人效果絕大呀！限定角色登場的特別版轉蛋！好康轉蛋活動中！
20210206	1100	20210208	1100	100100	999999	0	0	1	2	-1	0	0	0	0	0	0	0	0	0	0	0	0	0		523	150	0	4156	0	0	7000	0	2500	0	500	0	0	0	對發射波動敵人超好用的「波動破壞者」登場！★好康轉蛋活動中！
20210208	1100	20210215	1100	100100	999999	0	0	0	2	-1	0	0	0	0	0	0	0	0	0	0	0	0	0		3	0	300	0	400	0	2000	0	7000	0	600	0	0	0	限時開放★有機會入手貓薄荷的活動限定特別轉蛋！
20210208	1100	20210212	0	100100	999999	0	0	1	1	566	150	0	4152	0	0	6770	0	2500	0	700	0	30	0	各季節的角色們齊聚一堂!!★超激出現率上升中的「超國王祭」新登場!!
20210208	1100	20210210	1100	100100	999999	0	0	1	2	-1	0	0	0	0	0	0	0	0	0	0	0	0	0		424	150	0	4152	0	0	6970	0	2500	0	500	0	30	0	豐富多樣性的世界第一即戰力貓咪們！★點圖確認詳細吧!!
20210210	1100	20210212	0	100100	999999	0	0	1	2	-1	0	0	0	0	0	0	0	0	0	0	0	0	0		427	150	0	4152	0	0	6970	0	2500	0	500	0	30	0	對上黑敵能力大爆發！有強大效果的戰國武將們！★點圖確認詳細吧！！
20210212	0	20210215	1100	100200	999999	0	0	1	1	571	150	0	4152	0	0	6500	0	2500	0	1000	0	0	0	新角色「幼獸加爾」參戰!!超豪華特別版轉蛋登場!★超激出現率最大上升中!
20210212	000	20300101	1100	100200	999999	0	0	1	4	-1	0	0	0	0	0	0	0	0	0	0	0	0	0		-1	0	0	0	0	0	0	0	0	0	0	0	0	0		-1	0	0	0	0	0	0	0	0	0	0	0	0	0		556	0	0	0	0	0	0	0	0	0	10000	0	0	0	必出超激稀有角色的白金轉蛋！快來獲得心儀的貓咪吧！
[end]
