[start]
20180109	1100	20300101	1100	50700	999999	0	0	0	1	0	0	0	0	10000	0	0	0	0	0	0	0	0	0	
20170101	0	20300101	0	80200	999999	0	0	2	3	0	30	0	0	0	0	7500	0	2000	0	500	0	0	0		0	30	0	0	0	0	7500	0	2000	0	500	0	0	0		0	30	0	0	0	0	7500	0	2000	0	500	0	0	0	
20170101	0	20300101	0	80200	999999	0	0	3	3	0	75	0	0	0	0	7500	0	2000	0	500	0	0	0		0	75	0	0	0	0	7500	0	2000	0	500	0	0	0		0	75	0	0	0	0	7500	0	2000	0	500	0	0	0	
20201009	1100	20300101	1100	90900	999999	0	0	1	4	-1	0	0	0	0	0	0	0	0	0	0	0	0	0		-1	0	0	0	0	0	0	0	0	0	0	0	0	0		-1	0	0	0	0	0	0	0	0	0	0	0	0	0		525	0	0	0	0	0	0	0	0	0	10000	0	0	0	必出超激稀有角色的白金轉蛋！快來獲得心儀的貓咪吧！
20201113	1100	20300101	1100	91000	999999	0	0	1	4	-1	0	0	0	0	0	0	0	0	0	0	0	0	0		-1	0	0	0	0	0	0	0	0	0	0	0	0	0		-1	0	0	0	0	0	0	0	0	0	0	0	0	0		543	0	0	0	0	0	0	0	0	0	10000	0	0	0	必出超激稀有角色的白金轉蛋！快來獲得心儀的貓咪吧！
20210212	000	20300101	1100	100200	999999	0	0	1	4	-1	0	0	0	0	0	0	0	0	0	0	0	0	0		-1	0	0	0	0	0	0	0	0	0	0	0	0	0		-1	0	0	0	0	0	0	0	0	0	0	0	0	0		556	0	0	0	0	0	0	0	0	0	10000	0	0	0	必出超激稀有角色的白金轉蛋！快來獲得心儀的貓咪吧！
20210503	1100	20300101	0	100400	999999	0	0	0	3	-1	0	0	0	0	0	0	0	0	0	0	0	0	0		-1	0	0	0	0	0	0	0	0	0	0	0	0	0		62	0	0	0	0	0	7400	0	2100	0	500	0	0	0	限時開放！收集小小貓咪的好機會！
20210416	1100	20300101	0	100400	999999	0	0	0	4	-1	0	0	0	0	0	0	0	0	0	0	0	0	0		-1	0	0	0	0	0	0	0	0	0	0	0	0	0		-1	0	0	0	0	0	0	0	0	0	0	0	0	0		63	0	300	0	0	0	5100	0	3500	0	1400	0	0	0	限時開放★能夠獲得喵力達與XP的特別轉蛋！
20210507	1100	20300101	1100	100400	999999	0	0	1	4	-1	0	0	0	0	0	0	0	0	0	0	0	0	0		-1	0	0	0	0	0	0	0	0	0	0	0	0	0		-1	0	0	0	0	0	0	0	0	0	0	0	0	0		577	0	0	0	0	0	0	0	0	0	10000	0	0	0	必出超激稀有角色的白金轉蛋！快來獲得心儀的貓咪吧！
20210709	000	20300101	1100	100600	999999	0	0	1	4	-1	0	0	0	0	0	0	0	0	0	0	0	0	0		-1	0	0	0	0	0	0	0	0	0	0	0	0	0		-1	0	0	0	0	0	0	0	0	0	0	0	0	0		592	0	0	0	0	0	0	0	0	0	10000	0	0	0	必出超激稀有角色的白金轉蛋！快來獲得心儀的貓咪吧！
20210827	1100	20300101	1100	100700	999999	0	0	1	4	-1	0	0	0	0	0	0	0	0	0	0	0	0	0		-1	0	0	0	0	0	0	0	0	0	0	0	0	0		-1	0	0	0	0	0	0	0	0	0	0	0	0	0		603	0	0	0	0	0	0	0	0	0	10000	0	0	0	必出超激稀有角色的白金轉蛋！快來獲得心儀的貓咪吧！
20210917	1100	20300101	1100	100800	999999	0	0	1	4	-1	0	0	0	0	0	0	0	0	0	0	0	0	0		-1	0	0	0	0	0	0	0	0	0	0	0	0	0		-1	0	0	0	0	0	0	0	0	0	0	0	0	0		616	0	0	0	0	0	0	0	0	0	10000	0	0	0	必出超激稀有角色的白金轉蛋！快來獲得心儀的貓咪吧！
20211020	1100	20211022	1100	100900	999999	0	0	1	1	453	150	0	4	0	0	7000	0	2500	0	500	0	0	0	對鋼鐵敵人效果絕大呀！限定角色登場的特別版轉蛋！好康轉蛋活動中！
20211020	1100	20211022	1100	100900	999999	0	0	1	2	-1	0	0	0	0	0	0	0	0	0	0	0	0	0		523	150	0	4	0	0	7000	0	2500	0	500	0	0	0	對發射波動敵人超好用的「波動破壞者」登場！★好康轉蛋活動中！
20211022	1100	20211025	1100	100900	999999	0	0	1	1	608	150	0	0	0	0	6970	0	2500	0	500	1	30	0	可給予惡魔與黑色敵人超大傷害的新角色「天草四郎」參戰！★點圖確認詳細吧!!
20211022	1100	20300101	1100	100900	999999	0	0	1	4	-1	0	0	0	0	0	0	0	0	0	0	0	0	0		-1	0	0	0	0	0	0	0	0	0	0	0	0	0		-1	0	0	0	0	0	0	0	0	0	0	0	0	0		617	0	0	0	0	0	0	0	0	0	10000	0	0	0	必出超激稀有角色的白金轉蛋！快來獲得心儀的貓咪吧！
20211025	1100	20211108	1100	100900	999999	0	0	1	1	511	150	0	4216	0	0	7000	0	2500	0	500	0	0	0	【期間限定】『消滅都市』合作轉蛋登場！★點圖確認詳細吧!!
20211025	1100	20211027	1100	100900	999999	0	0	1	3	-1	0	0	0	0	0	0	0	0	0	0	0	0	0		-1	0	0	0	0	0	0	0	0	0	0	0	0	0		497	150	0	4216	0	0	6970	0	2500	0	500	0	30	0	貓咪世界的偉大神們，都齊聚在此啦！★點圖確認詳細吧!!
20211027	1100	20211029	1100	100900	999999	0	0	1	3	-1	0	0	0	0	0	0	0	0	0	0	0	0	0		-1	0	0	0	0	0	0	0	0	0	0	0	0	0		611	150	0	4216	0	0	6970	0	2500	0	500	0	30	0	有效對付惡魔屬性的角色「妖賢女莉莉」參戰！★點圖可以看詳細內容喔！
20211029	1100	20211031	1100	100900	999999	0	0	1	1	517	150	0	4216	0	0	6970	0	2500	0	500	0	30	0	充滿謎團的生命體!?「傳說的不明貓一族」來了★點圖確認詳細吧!!
20211029	1100	20211108	1100	101000	999999	0	0	1	2	-1	0	0	0	0	0	0	0	0	0	0	0	0	0		511	150	0	4216	0	0	7000	0	2500	0	500	0	0	0	【期間限定】『消滅都市』合作轉蛋登場！★點圖確認詳細吧!!
20211029	1100	20211108	1100	101000	999999	0	0	1	3	-1	0	0	0	0	0	0	0	0	0	0	0	0	0		-1	0	0	0	0	0	0	0	0	0	0	0	0	0		650	150	0	4216	0	0	7000	0	2500	0	500	0	0	0	幽影冰雪貓追加第3進化！快來帶走萬聖節限定角色！★點圖確認詳細吧!!
20211031	1100	20211102	1100	101000	999999	0	0	1	1	487	150	0	4216	0	0	6970	0	2500	0	500	0	30	0	握有正義與黑暗之力，貓咪軍團的救世主來了！★點圖確認詳細吧!!
20211102	1100	20211105	1100	101000	999999	0	0	1	1	614	150	0	4216	0	0	6500	0	2600	0	900	0	0	0	新角色「幼獸加爾」參戰！★超激稀有出現率超上升的「超貓祭」進行中!!
20211105	1100	20211108	1100	101000	999999	0	0	1	1	627	150	0	4216	0	0	6970	0	2500	0	500	1	30	0	對惡魔屬性很強的新角色「召喚少年小悟」參戰！★點圖確認詳細吧!!
20211105	1100	20300101	1100	101000	999999	0	0	1	4	-1	0	0	0	0	0	0	0	0	0	0	0	0	0		-1	0	0	0	0	0	0	0	0	0	0	0	0	0		-1	0	0	0	0	0	0	0	0	0	0	0	0	0		635	0	0	4216	0	0	0	0	0	0	10000	0	0	0	必出超激稀有角色的白金轉蛋！快來獲得心儀的貓咪吧！
20211105	1100	20211108	1100	101000	999999	0	0	1	2	-1	0	0	0	0	0	0	0	0	0	0	0	0	0		511	150	0	4216	0	0	7000	0	2500	0	500	1	0	0	【即將結束】『消滅都市』合作轉蛋登場！★11連轉超激確定活動中!
20211105	1100	20211108	1100	101000	999999	0	0	1	3	-1	0	0	0	0	0	0	0	0	0	0	0	0	0		-1	0	0	0	0	0	0	0	0	0	0	0	0	0		650	150	0	4216	0	0	7000	0	2500	0	500	1	0	0	幽影冰雪貓追加第3進化！快來帶走萬聖節限定角色！★點圖確認詳細吧!!
[end]
