[start]
20180109	1100	20300101	1100	50700	999999	0	0	0	1	0	0	0	0	10000	0	0	0	0	0	0	0	0	0	
20170101	0	20300101	0	80200	999999	0	0	2	3	0	30	0	0	0	0	7500	0	2000	0	500	0	0	0		0	30	0	0	0	0	7500	0	2000	0	500	0	0	0		0	30	0	0	0	0	7500	0	2000	0	500	0	0	0	
20170101	0	20300101	0	80200	999999	0	0	3	3	0	75	0	0	0	0	7500	0	2000	0	500	0	0	0		0	75	0	0	0	0	7500	0	2000	0	500	0	0	0		0	75	0	0	0	0	7500	0	2000	0	500	0	0	0	
20210503	1100	20300101	0	100400	999999	0	0	0	3	-1	0	0	0	0	0	0	0	0	0	0	0	0	0		-1	0	0	0	0	0	0	0	0	0	0	0	0	0		62	0	0	0	0	0	7400	0	2100	0	500	0	0	0	限時開放！收集小小貓咪的好機會！
20210416	1100	20300101	0	100400	999999	0	0	0	4	-1	0	0	0	0	0	0	0	0	0	0	0	0	0		-1	0	0	0	0	0	0	0	0	0	0	0	0	0		-1	0	0	0	0	0	0	0	0	0	0	0	0	0		63	0	300	0	0	0	5100	0	3500	0	1400	0	0	0	限時開放★能夠獲得喵力達與XP的特別轉蛋！
20220106	1100	20300101	1100	110100	999999	0	0	0	1	64	0	2300	0	10000	0	0	0	0	0	0	0	0	0	
20220527	1100	20300101	1100	110400	999999	0	0	1	4	-1	0	0	0	0	0	0	0	0	0	0	0	0	0		-1	0	0	0	0	0	0	0	0	0	0	0	0	0		-1	0	0	0	0	0	0	0	0	0	0	0	0	0		723	0	0	0	0	0	0	0	0	0	9500	0	500	0	必定可以獲得1隻以上超激稀有角色的「傳說轉蛋」！
20220527	1100	20300101	1100	110400	999999	0	0	1	5	-1	0	0	0	0	0	0	0	0	0	0	0	0	0		-1	0	0	0	0	0	0	0	0	0	0	0	0	0		-1	0	0	0	0	0	0	0	0	0	0	0	0	0		-1	0	0	0	0	0	0	0	0	0	0	0	0	0		722	0	0	0	0	0	0	0	0	0	10000	0	0	0	必出超激稀有角色的白金轉蛋！快來獲得心儀的貓咪吧！
20220715	1100	20300101	1100	110600	999999	0	0	1	4	-1	0	0	0	0	0	0	0	0	0	0	0	0	0		-1	0	0	0	0	0	0	0	0	0	0	0	0	0		-1	0	0	0	0	0	0	0	0	0	0	0	0	0		730	0	0	0	0	0	0	0	0	0	9500	0	500	0	必定可以獲得1隻以上超激稀有角色的「傳說轉蛋」！
20220715	1100	20300101	1100	110600	999999	0	0	1	5	-1	0	0	0	0	0	0	0	0	0	0	0	0	0		-1	0	0	0	0	0	0	0	0	0	0	0	0	0		-1	0	0	0	0	0	0	0	0	0	0	0	0	0		-1	0	0	0	0	0	0	0	0	0	0	0	0	0		729	0	0	0	0	0	0	0	0	0	10000	0	0	0	必出超激稀有角色的白金轉蛋！快來獲得心儀的貓咪吧！
20220802	1100	20300101	1100	110700	999999	0	0	1	4	-1	0	0	0	0	0	0	0	0	0	0	0	0	0		-1	0	0	0	0	0	0	0	0	0	0	0	0	0		-1	0	0	0	0	0	0	0	0	0	0	0	0	0		736	0	0	0	0	0	0	0	0	0	9500	0	500	0	必定可以獲得1隻以上超激稀有角色的「傳說轉蛋」！
20220802	1100	20300101	1100	110700	999999	0	0	1	5	-1	0	0	0	0	0	0	0	0	0	0	0	0	0		-1	0	0	0	0	0	0	0	0	0	0	0	0	0		-1	0	0	0	0	0	0	0	0	0	0	0	0	0		-1	0	0	0	0	0	0	0	0	0	0	0	0	0		735	0	0	0	0	0	0	0	0	0	10000	0	0	0	必出超激稀有角色的白金轉蛋！快來獲得心儀的貓咪吧！
20220808	1100	20220919	2359	110700	999999	0	0	4	1	20	0	0	0	500	0	5000	0	2000	0	1000	1	1500	0	【貓咪的暑假】消費"傳說的捕蟲網"來轉的夏季限定轉蛋！★9月19日止	再使用本轉蛋	次，就必定會出現3種昆蟲角色的其中1隻！
20220808	1100	20220829	1100	110700	999999	0	0	1	2	-1	0	0	0	0	0	0	0	0	0	0	0	0	0		750	150	0	16384	0	0	7000	0	2500	0	500	0	0	0	新角色追加！滿滿開放感的夏日限定角色來GET吧！★點圖確認詳細吧！！
20220815	1100	20220817	1100	110700	999999	0	0	1	3	-1	0	0	0	0	0	0	0	0	0	0	0	0	0		-1	0	0	0	0	0	0	0	0	0	0	0	0	0		587	150	0	16384	0	0	6970	0	2500	0	500	0	30	0	異世界召喚來的愉快美少女們登場！★點圖可以確認詳細喔!!
20220817	1100	20220819	1100	110700	999999	0	0	1	3	-1	0	0	0	0	0	0	0	0	0	0	0	0	0		-1	0	0	0	0	0	0	0	0	0	0	0	0	0		679	150	0	16384	0	0	6970	0	2500	0	500	0	30	0	對飄浮敵人與惡魔很強的「墮天神路西法」登場！★點圖確認詳細吧!!
20220819	1100	20220822	1100	110700	999999	0	0	1	1	734	150	0	0	0	0	6500	0	2600	0	900	0	0	0	新角色「悲嘆揮舞孃」參戰！★超激稀有出現率超上升的「特級貓咪祭」進行中!!
20220822	1100	20220824	1100	110700	999999	0	0	1	3	-1	0	0	0	0	0	0	0	0	0	0	0	0	0		-1	0	0	0	0	0	0	0	0	0	0	0	0	0		626	150	0	16384	0	0	6970	0	2500	0	500	0	30	0	神秘生物大集合 傳說的不明貓一族 登場！★點圖可以看詳細內容喔!!
20220824	1100	20220829	1100	110700	999999	0	0	1	2	-1	0	0	0	0	0	0	0	0	0	0	0	0	0		750	150	0	0	0	0	7000	0	2500	0	500	1	0	0	新角色追加！滿滿開放感的夏日限定角色來GET吧！★11連轉超激確定活動中!!
20220824	1100	20220826	1100	110700	999999	0	0	1	3	-1	0	0	0	0	0	0	0	0	0	0	0	0	0		-1	0	0	0	0	0	0	0	0	0	0	0	0	0		719	150	0	0	0	0	6970	0	2500	0	500	1	30	0	有超生命體特效的「冰精靈布莉茲」參戰！★點圖確認詳細吧!!
20220826	1100	20220829	1100	110700	999999	0	0	1	1	742	150	0	0	0	0	6970	0	2500	0	500	1	30	0	有超生命體特效的「天狗貓」參戰！★點圖確認詳細吧!!
20220826	1100	20300101	1100	110700	999999	0	0	1	4	-1	0	0	0	0	0	0	0	0	0	0	0	0	0		-1	0	0	0	0	0	0	0	0	0	0	0	0	0		-1	0	0	0	0	0	0	0	0	0	0	0	0	0		746	0	0	0	0	0	0	0	0	0	9500	0	500	0	必定可以獲得1隻以上超激稀有角色的「傳說轉蛋」！
20220826	1100	20300101	1100	110700	999999	0	0	1	5	-1	0	0	0	0	0	0	0	0	0	0	0	0	0		-1	0	0	0	0	0	0	0	0	0	0	0	0	0		-1	0	0	0	0	0	0	0	0	0	0	0	0	0		-1	0	0	0	0	0	0	0	0	0	0	0	0	0		745	0	0	0	0	0	0	0	0	0	10000	0	0	0	必出超激稀有角色的白金轉蛋！快來獲得心儀的貓咪吧！
[end]
