[start]
20180109	1100	20300101	1100	50700	999999	0	0	0	1	0	0	0	0	10000	0	0	0	0	0	0	0	0	0	
20170101	0	20300101	0	80200	999999	0	0	2	3	0	30	0	0	0	0	7500	0	2000	0	500	0	0	0		0	30	0	0	0	0	7500	0	2000	0	500	0	0	0		0	30	0	0	0	0	7500	0	2000	0	500	0	0	0	
20170101	0	20300101	0	80200	999999	0	0	3	3	0	75	0	0	0	0	7500	0	2000	0	500	0	0	0		0	75	0	0	0	0	7500	0	2000	0	500	0	0	0		0	75	0	0	0	0	7500	0	2000	0	500	0	0	0	
20210503	1100	20300101	0	100400	999999	0	0	0	3	-1	0	0	0	0	0	0	0	0	0	0	0	0	0		-1	0	0	0	0	0	0	0	0	0	0	0	0	0		62	0	0	0	0	0	7400	0	2100	0	500	0	0	0	限時開放！收集小小貓咪的好機會！
20210416	1100	20300101	0	100400	999999	0	0	0	4	-1	0	0	0	0	0	0	0	0	0	0	0	0	0		-1	0	0	0	0	0	0	0	0	0	0	0	0	0		-1	0	0	0	0	0	0	0	0	0	0	0	0	0		63	0	300	0	0	0	5100	0	3500	0	1400	0	0	0	限時開放★能夠獲得喵力達與XP的特別轉蛋！
20220106	1100	20300101	1100	110100	999999	0	0	0	1	64	0	2300	0	10000	0	0	0	0	0	0	0	0	0	
20220527	1100	20300101	1100	110400	999999	0	0	1	4	-1	0	0	0	0	0	0	0	0	0	0	0	0	0		-1	0	0	0	0	0	0	0	0	0	0	0	0	0		-1	0	0	0	0	0	0	0	0	0	0	0	0	0		723	0	0	0	0	0	0	0	0	0	9500	0	500	0	必定可以獲得1隻以上超激稀有角色的「傳說轉蛋」！
20220527	1100	20300101	1100	110400	999999	0	0	1	5	-1	0	0	0	0	0	0	0	0	0	0	0	0	0		-1	0	0	0	0	0	0	0	0	0	0	0	0	0		-1	0	0	0	0	0	0	0	0	0	0	0	0	0		-1	0	0	0	0	0	0	0	0	0	0	0	0	0		722	0	0	0	0	0	0	0	0	0	10000	0	0	0	必出超激稀有角色的白金轉蛋！快來獲得心儀的貓咪吧！
20220715	1100	20300101	1100	110600	999999	0	0	1	4	-1	0	0	0	0	0	0	0	0	0	0	0	0	0		-1	0	0	0	0	0	0	0	0	0	0	0	0	0		-1	0	0	0	0	0	0	0	0	0	0	0	0	0		730	0	0	0	0	0	0	0	0	0	9500	0	500	0	必定可以獲得1隻以上超激稀有角色的「傳說轉蛋」！
20220715	1100	20300101	1100	110600	999999	0	0	1	5	-1	0	0	0	0	0	0	0	0	0	0	0	0	0		-1	0	0	0	0	0	0	0	0	0	0	0	0	0		-1	0	0	0	0	0	0	0	0	0	0	0	0	0		-1	0	0	0	0	0	0	0	0	0	0	0	0	0		729	0	0	0	0	0	0	0	0	0	10000	0	0	0	必出超激稀有角色的白金轉蛋！快來獲得心儀的貓咪吧！
20220802	1100	20300101	1100	110700	999999	0	0	1	4	-1	0	0	0	0	0	0	0	0	0	0	0	0	0		-1	0	0	0	0	0	0	0	0	0	0	0	0	0		-1	0	0	0	0	0	0	0	0	0	0	0	0	0		736	0	0	0	0	0	0	0	0	0	9500	0	500	0	必定可以獲得1隻以上超激稀有角色的「傳說轉蛋」！
20220802	1100	20300101	1100	110700	999999	0	0	1	5	-1	0	0	0	0	0	0	0	0	0	0	0	0	0		-1	0	0	0	0	0	0	0	0	0	0	0	0	0		-1	0	0	0	0	0	0	0	0	0	0	0	0	0		-1	0	0	0	0	0	0	0	0	0	0	0	0	0		735	0	0	0	0	0	0	0	0	0	10000	0	0	0	必出超激稀有角色的白金轉蛋！快來獲得心儀的貓咪吧！
20220826	1100	20300101	1100	110700	999999	0	0	1	4	-1	0	0	0	0	0	0	0	0	0	0	0	0	0		-1	0	0	0	0	0	0	0	0	0	0	0	0	0		-1	0	0	0	0	0	0	0	0	0	0	0	0	0		746	0	0	0	0	0	0	0	0	0	9500	0	500	0	必定可以獲得1隻以上超激稀有角色的「傳說轉蛋」！
20220826	1100	20300101	1100	110700	999999	0	0	1	5	-1	0	0	0	0	0	0	0	0	0	0	0	0	0		-1	0	0	0	0	0	0	0	0	0	0	0	0	0		-1	0	0	0	0	0	0	0	0	0	0	0	0	0		-1	0	0	0	0	0	0	0	0	0	0	0	0	0		745	0	0	0	0	0	0	0	0	0	10000	0	0	0	必出超激稀有角色的白金轉蛋！快來獲得心儀的貓咪吧！
20220919	1100	20220922	1100	110800	999999	0	0	1	2	-1	0	0	0	0	0	0	0	0	0	0	0	0	0		678	150	0	16384	0	0	6970	0	2500	0	500	0	30	0	對飄浮敵人與惡魔很強的「墮天神路西法」登場！★點圖確認詳細吧!!
20220922	1100	20220925	1100	110800	999999	0	0	1	1	658	150	0	0	0	0	6440	0	2500	0	1000	0	60	0	★超激・傳說稀有出現率2倍！★貓咪世界中，進化後呈現驚人形態的古代勇者們！
20220922	1100	20220925	1100	110800	999999	0	0	1	2	-1	0	0	0	0	0	0	0	0	0	0	0	0	0		694	150	0	0	0	0	6440	0	2500	0	1000	0	60	0	★超激・傳說稀有出現率2倍！★消滅來擾亂的壞傢伙！充滿活力又可愛的電腦少女們！
20220922	1100	20220925	1100	110800	999999	0	0	1	3	-1	0	0	0	0	0	0	0	0	0	0	0	0	0		-1	0	0	0	0	0	0	0	0	0	0	0	0	0		644	150	0	0	0	0	6440	0	2500	0	1000	0	60	0	★超激・傳說稀有出現率2倍！★可以打爆不死生物的貓咪軍團超級兵器在此！
20220925	1100	20220928	1100	110800	999999	0	0	1	1	679	150	0	0	0	0	6440	0	2500	0	1000	0	60	0	★超激・傳說稀有出現率2倍！★正集結於此！貓咪世界中偉大的神們來也！
20220925	1100	20220928	1100	110800	999999	0	0	1	2	-1	0	0	0	0	0	0	0	0	0	0	0	0	0		587	150	0	0	0	0	6440	0	2500	0	1000	0	60	0	★超激・傳說稀有出現率2倍！★從異世界召喚來的愉快美少女們！
20220925	1100	20220928	1100	110800	999999	0	0	1	3	-1	0	0	0	0	0	0	0	0	0	0	0	0	0		-1	0	0	0	0	0	0	0	0	0	0	0	0	0		626	150	0	0	0	0	6440	0	2500	0	1000	0	60	0	★超激・傳說稀有出現率2倍！★是貓是妖沒人知道！就是群充滿謎的怪異可愛生命體！
20220928	1100	20221001	1100	110800	999999	0	0	1	1	708	150	0	0	0	0	6440	0	2500	0	1000	0	60	0	★超激・傳說稀有出現率2倍！★對上黑色敵人超有效！擁有強力效果的戰國武將們！
20220928	1100	20221001	1100	110800	999999	0	0	1	2	-1	0	0	0	0	0	0	0	0	0	0	0	0	0		732	150	0	0	0	0	6440	0	2500	0	1000	0	60	0	★超激・傳說稀有出現率2倍！★散發壓倒性的存在感，快帶走這些強力龍族吧！
20220928	1100	20221001	1100	110800	999999	0	0	1	3	-1	0	0	0	0	0	0	0	0	0	0	0	0	0		-1	0	0	0	0	0	0	0	0	0	0	0	0	0		718	150	0	0	0	0	6440	0	2500	0	1000	0	60	0	★超激・傳說稀有出現率2倍！★來自宇宙的盡頭！帶有個性又活潑的精靈們！
20221001	1100	20221003	1100	110800	999999	0	0	1	1	742	150	0	0	0	0	6440	0	2500	0	1000	0	60	0	★超激・傳說稀有出現率2倍！★花樣多端且造型豐富的世界第一即戰力貓咪們！
20221001	1100	20221003	1100	110800	999999	0	0	1	2	-1	0	0	0	0	0	0	0	0	0	0	0	0	0		662	150	0	0	0	0	6440	0	2500	0	1000	0	60	0	★超激・傳說稀有出現率2倍！★結合正義與黑暗的力量，無法言喻的貓咪軍團救世主！
20221007	1100	20221010	1100	110800	999999	0	0	1	1	749	150	0	0	0	0	6500	0	2600	0	900	0	0	0	6隻夢幻貓咪一齊登場！★超激稀有出現率超上升的「超貓祭」進行中!!
20221003	1100	20221005	1100	110800	999999	0	0	1	2	-1	0	0	0	0	0	0	0	0	0	0	0	0	0		658	150	0	16384	0	0	6970	0	2500	0	500	0	30	0	進化後呈現驚人形態的古代勇者們集合！★點圖確認詳細吧!!
20221005	1100	20221007	1100	110800	999999	0	0	1	2	-1	0	0	0	0	0	0	0	0	0	0	0	0	0		732	150	0	16384	0	0	6970	0	2500	0	500	0	30	0	有超生命體特效的「海龍達萊亞薩」參戰！★點圖確認詳細吧!!
[end]
