[start]
20180109	1100	20300101	1100	50700	999999	0	0	0	1	0	0	0	0	10000	0	0	0	0	0	0	0	0	0	
20170101	0	20300101	0	80200	999999	0	0	2	3	0	30	0	0	0	0	7500	0	2000	0	500	0	0	0		0	30	0	0	0	0	7500	0	2000	0	500	0	0	0		0	30	0	0	0	0	7500	0	2000	0	500	0	0	0	
20170101	0	20300101	0	80200	999999	0	0	3	3	0	75	0	0	0	0	7500	0	2000	0	500	0	0	0		0	75	0	0	0	0	7500	0	2000	0	500	0	0	0		0	75	0	0	0	0	7500	0	2000	0	500	0	0	0	
20210503	1100	20300101	0	100400	999999	0	0	0	3	-1	0	0	0	0	0	0	0	0	0	0	0	0	0		-1	0	0	0	0	0	0	0	0	0	0	0	0	0		62	0	0	0	0	0	7400	0	2100	0	500	0	0	0	限時開放！收集小小貓咪的好機會！
20210416	1100	20300101	0	100400	999999	0	0	0	4	-1	0	0	0	0	0	0	0	0	0	0	0	0	0		-1	0	0	0	0	0	0	0	0	0	0	0	0	0		-1	0	0	0	0	0	0	0	0	0	0	0	0	0		63	0	300	0	0	0	5100	0	3500	0	1400	0	0	0	限時開放★能夠獲得喵力達與XP的特別轉蛋！
20220106	1100	20300101	1100	110100	999999	0	0	0	1	64	0	2300	0	10000	0	0	0	0	0	0	0	0	0	
20220527	1100	20300101	1100	110400	999999	0	0	1	4	-1	0	0	0	0	0	0	0	0	0	0	0	0	0		-1	0	0	0	0	0	0	0	0	0	0	0	0	0		-1	0	0	0	0	0	0	0	0	0	0	0	0	0		723	0	0	0	0	0	0	0	0	0	9500	0	500	0	必定可以獲得1隻以上超激稀有角色的「傳說轉蛋」！
20220527	1100	20300101	1100	110400	999999	0	0	1	5	-1	0	0	0	0	0	0	0	0	0	0	0	0	0		-1	0	0	0	0	0	0	0	0	0	0	0	0	0		-1	0	0	0	0	0	0	0	0	0	0	0	0	0		-1	0	0	0	0	0	0	0	0	0	0	0	0	0		722	0	0	0	0	0	0	0	0	0	10000	0	0	0	必出超激稀有角色的白金轉蛋！快來獲得心儀的貓咪吧！
20220624	1100	20220701	000	110600	999999	0	0	0	2	-1	0	0	0	0	0	0	0	0	0	0	0	0	0		5	0	0	2	500	0	7000	0	2000	0	500	0	0	0	限時開放★高機率獲得各種貓眼石的活動限定特別轉蛋！
20220627	1100	20220701	1100	110600	999999	0	0	1	1	737	150	0	0	0	0	6970	0	2500	0	500	0	30	0	帶著滿滿感謝的心推出的特別精選轉蛋！★點圖確認詳細吧!!
20220628	1100	20220701	1100	110600	999999	0	0	1	2	-1	0	0	0	0	0	0	0	0	0	0	0	0	0		645	150	0	16384	0	0	6970	0	2500	0	500	0	30	0	帶來革命的超級武器 革命軍隊鋼鐵戰團 來了！★點圖確認詳細吧!!
20220701	1100	20220704	1100	110600	999999	0	0	1	1	720	150	0	0	0	0	6500	0	2600	0	900	0	0	0	「歡笑揮舞孃」參戰！★超激稀有出現率超上升的「超貓祭」進行中!!
20220701	000	20220708	000	110600	999999	0	0	0	2	-1	0	0	0	0	0	0	0	0	0	0	0	0	0		3	0	300	0	400	0	2000	0	7000	0	600	0	0	0	限時開放★有機會入手貓薄荷的活動限定特別轉蛋！
20220704	1100	20220708	000	110600	999999	0	0	1	1	738	150	0	0	0	0	6970	0	2500	0	500	0	30	0	帶著滿滿感謝的心推出的特別精選轉蛋！★點圖確認詳細吧!!
20220704	1100	20220706	1100	110600	999999	0	0	1	2	-1	0	0	0	0	0	0	0	0	0	0	0	0	0		709	150	0	16384	0	0	6970	0	2500	0	500	0	30	0	有超生命體特效的「服部半藏」參戰！★點圖確認詳細吧!!
20220706	1100	20220708	1100	110600	999999	0	0	1	2	-1	0	0	0	0	0	0	0	0	0	0	0	0	0		659	150	0	16384	0	0	6970	0	2500	0	500	0	30	0	對惡魔與天使很強的「舌切雀」參戰！★點圖確認詳細吧!!
[end]
