[start]
20180109	1100	20300101	1100	50700	999999	0	0	0	1	0	0	0	0	10000	0	0	0	0	0	0	0	0	0	
20170101	0	20300101	0	80200	999999	0	0	2	3	0	30	0	0	0	0	7500	0	2000	0	500	0	0	0		0	30	0	0	0	0	7500	0	2000	0	500	0	0	0		0	30	0	0	0	0	7500	0	2000	0	500	0	0	0	
20170101	0	20300101	0	80200	999999	0	0	3	3	0	75	0	0	0	0	7500	0	2000	0	500	0	0	0		0	75	0	0	0	0	7500	0	2000	0	500	0	0	0		0	75	0	0	0	0	7500	0	2000	0	500	0	0	0	
20210503	1100	20300101	0	100400	999999	0	0	0	3	-1	0	0	0	0	0	0	0	0	0	0	0	0	0		-1	0	0	0	0	0	0	0	0	0	0	0	0	0		62	0	0	0	0	0	7400	0	2100	0	500	0	0	0	限時開放！收集小小貓咪的好機會！
20210416	1100	20300101	0	100400	999999	0	0	0	4	-1	0	0	0	0	0	0	0	0	0	0	0	0	0		-1	0	0	0	0	0	0	0	0	0	0	0	0	0		-1	0	0	0	0	0	0	0	0	0	0	0	0	0		63	0	300	0	0	0	5100	0	3500	0	1400	0	0	0	限時開放★能夠獲得喵力達與XP的特別轉蛋！
20220106	1100	20300101	1100	110100	999999	0	0	0	1	64	0	2300	0	10000	0	0	0	0	0	0	0	0	0	
20220527	1100	20300101	1100	110400	999999	0	0	1	4	-1	0	0	0	0	0	0	0	0	0	0	0	0	0		-1	0	0	0	0	0	0	0	0	0	0	0	0	0		-1	0	0	0	0	0	0	0	0	0	0	0	0	0		723	0	0	0	0	0	0	0	0	0	9500	0	500	0	必定可以獲得1隻以上超激稀有角色的「傳說轉蛋」！
20220527	1100	20300101	1100	110400	999999	0	0	1	5	-1	0	0	0	0	0	0	0	0	0	0	0	0	0		-1	0	0	0	0	0	0	0	0	0	0	0	0	0		-1	0	0	0	0	0	0	0	0	0	0	0	0	0		-1	0	0	0	0	0	0	0	0	0	0	0	0	0		722	0	0	0	0	0	0	0	0	0	10000	0	0	0	必出超激稀有角色的白金轉蛋！快來獲得心儀的貓咪吧！
20220715	1100	20300101	1100	110600	999999	0	0	1	4	-1	0	0	0	0	0	0	0	0	0	0	0	0	0		-1	0	0	0	0	0	0	0	0	0	0	0	0	0		-1	0	0	0	0	0	0	0	0	0	0	0	0	0		730	0	0	0	0	0	0	0	0	0	9500	0	500	0	必定可以獲得1隻以上超激稀有角色的「傳說轉蛋」！
20220715	1100	20300101	1100	110600	999999	0	0	1	5	-1	0	0	0	0	0	0	0	0	0	0	0	0	0		-1	0	0	0	0	0	0	0	0	0	0	0	0	0		-1	0	0	0	0	0	0	0	0	0	0	0	0	0		-1	0	0	0	0	0	0	0	0	0	0	0	0	0		729	0	0	0	0	0	0	0	0	0	10000	0	0	0	必出超激稀有角色的白金轉蛋！快來獲得心儀的貓咪吧！
20220802	1100	20300101	1100	110700	999999	0	0	1	4	-1	0	0	0	0	0	0	0	0	0	0	0	0	0		-1	0	0	0	0	0	0	0	0	0	0	0	0	0		-1	0	0	0	0	0	0	0	0	0	0	0	0	0		736	0	0	0	0	0	0	0	0	0	9500	0	500	0	必定可以獲得1隻以上超激稀有角色的「傳說轉蛋」！
20220802	1100	20300101	1100	110700	999999	0	0	1	5	-1	0	0	0	0	0	0	0	0	0	0	0	0	0		-1	0	0	0	0	0	0	0	0	0	0	0	0	0		-1	0	0	0	0	0	0	0	0	0	0	0	0	0		-1	0	0	0	0	0	0	0	0	0	0	0	0	0		735	0	0	0	0	0	0	0	0	0	10000	0	0	0	必出超激稀有角色的白金轉蛋！快來獲得心儀的貓咪吧！
20220826	1100	20300101	1100	110700	999999	0	0	1	4	-1	0	0	0	0	0	0	0	0	0	0	0	0	0		-1	0	0	0	0	0	0	0	0	0	0	0	0	0		-1	0	0	0	0	0	0	0	0	0	0	0	0	0		746	0	0	0	0	0	0	0	0	0	9500	0	500	0	必定可以獲得1隻以上超激稀有角色的「傳說轉蛋」！
20220826	1100	20300101	1100	110700	999999	0	0	1	5	-1	0	0	0	0	0	0	0	0	0	0	0	0	0		-1	0	0	0	0	0	0	0	0	0	0	0	0	0		-1	0	0	0	0	0	0	0	0	0	0	0	0	0		-1	0	0	0	0	0	0	0	0	0	0	0	0	0		745	0	0	0	0	0	0	0	0	0	10000	0	0	0	必出超激稀有角色的白金轉蛋！快來獲得心儀的貓咪吧！
20221019	1100	20300101	1100	110800	999999	0	0	1	4	-1	0	0	0	0	0	0	0	0	0	0	0	0	0		-1	0	0	0	0	0	0	0	0	0	0	0	0	0		-1	0	0	0	0	0	0	0	0	0	0	0	0	0		756	0	0	0	0	0	0	0	0	0	9500	0	500	0	必定可以獲得1隻以上超激稀有角色的「傳說轉蛋」！
20221019	1100	20300101	1100	110800	999999	0	0	1	5	-1	0	0	0	0	0	0	0	0	0	0	0	0	0		-1	0	0	0	0	0	0	0	0	0	0	0	0	0		-1	0	0	0	0	0	0	0	0	0	0	0	0	0		-1	0	0	0	0	0	0	0	0	0	0	0	0	0		755	0	0	0	0	0	0	0	0	0	10000	0	0	0	必出超激稀有角色的白金轉蛋！快來獲得心儀的貓咪吧！
20230126	1100	20300101	000	120000	999999	0	0	1	4	-1	0	0	0	0	0	0	0	0	0	0	0	0	0		-1	0	0	0	0	0	0	0	0	0	0	0	0	0		-1	0	0	0	0	0	0	0	0	0	0	0	0	0		775	0	0	0	0	0	0	0	0	0	9500	0	500	0	必定可以獲得1隻以上超激稀有角色的「傳說轉蛋」！
20230126	1100	20300101	000	120000	999999	0	0	1	5	-1	0	0	0	0	0	0	0	0	0	0	0	0	0		-1	0	0	0	0	0	0	0	0	0	0	0	0	0		-1	0	0	0	0	0	0	0	0	0	0	0	0	0		-1	0	0	0	0	0	0	0	0	0	0	0	0	0		774	0	0	0	0	0	0	0	0	0	10000	0	0	0	必出超激稀有角色的白金轉蛋！快來獲得心儀的貓咪吧！
20230217	1100	20300101	000	120100	999999	0	0	1	4	-1	0	0	0	0	0	0	0	0	0	0	0	0	0		-1	0	0	0	0	0	0	0	0	0	0	0	0	0		-1	0	0	0	0	0	0	0	0	0	0	0	0	0		783	0	0	0	0	0	0	0	0	0	9500	0	500	0	必定可以獲得1隻以上超激稀有角色的「傳說轉蛋」！
20230217	1100	20300101	000	120100	999999	0	0	1	5	-1	0	0	0	0	0	0	0	0	0	0	0	0	0		-1	0	0	0	0	0	0	0	0	0	0	0	0	0		-1	0	0	0	0	0	0	0	0	0	0	0	0	0		-1	0	0	0	0	0	0	0	0	0	0	0	0	0		782	0	0	0	0	0	0	0	0	0	10000	0	0	0	必出超激稀有角色的白金轉蛋！快來獲得心儀的貓咪吧！
20230310	1100	20300101	000	120100	999999	0	0	1	4	-1	0	0	0	0	0	0	0	0	0	0	0	0	0		-1	0	0	0	0	0	0	0	0	0	0	0	0	0		-1	0	0	0	0	0	0	0	0	0	0	0	0	0		794	0	0	0	0	0	0	0	0	0	9500	0	500	0	必定可以獲得1隻以上超激稀有角色的「傳說轉蛋」！
20230310	1100	20300101	000	120100	999999	0	0	1	5	-1	0	0	0	0	0	0	0	0	0	0	0	0	0		-1	0	0	0	0	0	0	0	0	0	0	0	0	0		-1	0	0	0	0	0	0	0	0	0	0	0	0	0		-1	0	0	0	0	0	0	0	0	0	0	0	0	0		793	0	0	0	0	0	0	0	0	0	10000	0	0	0	必出超激稀有角色的白金轉蛋！快來獲得心儀的貓咪吧！
20230410	1100	20230424	1100	120200	999999	0	0	1	2	-1	0	0	0	0	0	0	0	0	0	0	0	0	0		805	150	0	16384	0	0	7000	0	2500	0	500	0	0	0	劇場版「Fate/stay night [Heaven's Feel]」合作轉蛋★點圖可以看詳細內容！
20230412	1100	20230414	1100	120200	999999	0	0	1	3	-1	0	0	0	0	0	0	0	0	0	0	0	0	0		-1	0	0	0	0	0	0	0	0	0	0	0	0	0		718	150	0	16384	0	0	6970	0	2500	0	500	0	30	0	來自宇宙盡頭的精靈們參戰！★點圖確認詳細吧!!
20230414	1100	20230417	1100	120200	999999	0	0	1	1	792	150	0	0	0	0	6500	0	2600	0	900	0	0	0	珍貴又夢幻的角色們在這！★超激稀有出現率超上升的「特級貓咪祭」進行中!!
20230417	1100	20230421	1100	120200	999999	0	0	1	1	747	150	0	0	0	0	6940	0	2500	0	500	0	60	0	含限定超激稀有「貓咪王女」的女角色為主轉蛋！且傳說稀有角色出現率2倍！
20230421	1100	20230424	1100	120200	999999	0	0	1	2	-1	0	0	0	0	0	0	0	0	0	0	0	0	0		805	150	0	0	0	0	7000	0	2500	0	500	1	0	0	劇場版「Fate/stay night [Heaven's Feel]」合作轉蛋★點圖可以看詳細內容！
20230417	1100	20230501	1100	120200	999999	0	0	1	3	-1	0	0	0	0	0	0	0	0	0	0	0	0	0		-1	0	0	0	0	0	0	0	0	0	0	0	0	0		804	150	0	16384	0	0	7000	0	2500	0	500	0	0	0	新角色參戰！快來入手可愛的春天限定角色們！★點圖確認詳細吧!!	0	0	0
20230421	1100	20230501	1100	120200	999999	0	0	1	3	-1	0	0	0	0	0	0	0	0	0	0	0	0	0		-1	0	0	0	0	0	0	0	0	0	0	0	0	0		804	150	0	0	0	0	7000	0	2500	0	500	1	0	0	新角色參戰！快來入手可愛的春天限定角色們！★點圖確認詳細吧!!	0	0	0
20230424	1100	20230501	1100	120200	999999	0	0	1	2	-1	0	0	0	0	0	0	0	0	0	0	0	0	0		804	150	0	16384	0	0	7000	0	2500	0	500	0	0	0	新角色參戰！快來入手可愛的春天限定角色們！★點圖確認詳細吧!!	0	0
20230424	1100	20230427	1100	120200	999999	0	0	1	3	-1	0	0	0	0	0	0	0	0	0	0	0	0	0		-1	0	0	0	0	0	0	0	0	0	0	0	0	0		741	150	0	16384	0	0	6970	0	2500	0	500	0	30	0	超強大且有著即戰力的貓咪們一同登場！★點圖確認詳細吧!!
20230427	1100	20230429	1100	120200	999999	0	0	1	3	-1	0	0	0	0	0	0	0	0	0	0	0	0	0		-1	0	0	0	0	0	0	0	0	0	0	0	0	0		708	150	0	16384	0	0	6970	0	2500	0	500	0	30	0	日本戰國時代武將們大集合！★點圖確認詳細吧!!
20230429	1100	20230501	1100	120200	999999	0	0	1	3	-1	0	0	0	0	0	0	0	0	0	0	0	0	0		-1	0	0	0	0	0	0	0	0	0	0	0	0	0		732	150	0	16384	0	0	6970	0	2500	0	500	0	30	0	傳說中的龍族們霸氣降臨！★點圖確認詳細吧!!
[end]
