[start]
20180109	1100	20300101	0	60700	999999	0	0	0	1	0	0	0	0	10000	0	0	0	0	0	0	0	0	0	
20160101	0	20300101	0	50700	999999	0	0	1	1	0	150	0	0	0	0	7500	0	2000	0	500	0	0	0	ここでしか手に入らないキャラクターが必ず出現！しかもレアキャラ以上確定!!
20180101	0	20300101	0	80200	999999	0	0	2	3	33	30	0	0	0	0	7500	0	2000	0	500	0	0	0		23	30	0	0	0	0	7500	0	2000	0	500	0	0	0		0	30	0	0	0	0	7500	0	2000	0	500	0	0	0	
20180101	0	20300101	0	80200	999999	0	0	3	3	33	75	0	0	0	0	7500	0	2000	0	500	0	0	0		23	75	0	0	0	0	7500	0	2000	0	500	0	0	0		0	75	0	0	0	0	7500	0	2000	0	500	0	0	0	
20190817	1100	20300101	0	80800	999999	0	0	1	4	-1	150	0	0	0	0	7500	0	2000	0	500	0	0	0		-1	150	0	0	0	0	7500	0	2000	0	500	0	0	0		-1	150	0	0	0	0	7500	0	2000	0	500	0	0	0		401	0	0	0	0	0	0	0	0	0	10000	0	0	0	超激レアのキャラクターが必ず１体手に入る「プラチナガチャ」！
20190906	1100	20300101	0	80900	999999	0	0	1	4	-1	150	0	0	0	0	7500	0	2000	0	500	0	0	0		-1	150	0	0	0	0	7500	0	2000	0	500	0	0	0		-1	150	0	0	0	0	7500	0	2000	0	500	0	0	0		407	0	0	0	0	0	0	0	0	0	10000	0	0	0	超激レアのキャラクターが必ず１体手に入る「プラチナガチャ」！
20191010	1100	20191016	1100	81000	999999	0	0	0	2	-1	0	0	0	0	0	0	0	0	0	0	0	0	0		5	0	0	2	500	0	7000	0	2000	0	500	0	0	0	高確率でキャッツアイが手に入るイベント限定特別ガチャ！　10月16日11時まで！
20191009	1100	20191011	1100	81000	999999	0	0	1	1	371	150	0	0	0	0	6970	0	2500	0	500	0	30	0	世界一即戦力になるにゃんこ達！シークレット新参戦！？★詳細はバナーをタップ!!
20191011	1100	20191014	1100	81000	999999	0	0	1	1	412	150	0	0	0	0	6500	0	2600	0	900	0	0	0	限定キャラ「影傑ダークダルターニャ」も参戦！★超激レア出現率が今だけ超アップ!!
20191014	1100	20191016	1100	81000	999999	0	0	1	1	384	150	0	0	0	0	6970	0	2500	0	500	0	30	0	正義と闇、２つの力を持つ救世主！シークレット新参戦！？★詳細はバナーをタップ!!
20191004	1100	20300101	0	81000	999999	0	0	1	4	-1	0	0	0	0	0	0	0	0	0	0	0	0	0		-1	0	0	0	0	0	0	0	0	0	0	0	0	0		-1	0	0	0	0	0	0	0	0	0	0	0	0	0		413	0	0	0	0	0	0	0	0	0	10000	0	0	0	超激レアのキャラクターが必ず１体手に入る「プラチナガチャ」！
20191016	1100	20191101	2359	81000	999999	0	0	0	4	-1	0	0	0	0	0	0	0	0	0	0	0	0	0		-1	0	0	0	0	0	0	0	0	0	0	0	0	0		-1	0	0	0	0	0	0	0	0	0	0	0	0	0		33	0	300	0	0	0	5100	0	3500	0	1400	0	0	0	【期間限定】ネコビタンとXPが手に入る特別仕様ガチャ！★11月1日まで！
20191016	1100	20191030	1100	81000	999999	0	0	1	1	414	150	0	0	0	0	7000	0	2500	0	500	0	0	0	メルクストーリアのキャラだけが登場する特別ガチャ！★詳細はバナーをタップ!!
20191018	1100	20191101	1100	81000	999999	0	0	1	3	-1	0	0	0	0	0	0	0	0	0	0	0	0	0		-1	0	0	0	0	0	0	0	0	0	0	0	0	0		257	150	0	0	0	0	7000	0	2500	0	500	0	0	0	ハロウィン限定のコスプレキャラを手に入れよう！★詳細はバナーをタップ!!
20191016	1100	20191018	1100	81000	999999	0	0	1	2	-1	0	0	0	0	0	0	0	0	0	0	0	0	0		362	150	0	0	0	0	6970	0	2500	0	500	0	30	0	にゃんこワールド最大級の仰天進化！シークレット新参戦！？★詳細はバナーをタップ!!
20191018	1100	20191020	1100	81000	999999	0	0	1	2	-1	0	0	0	0	0	0	0	0	0	0	0	0	0		396	150	0	0	0	0	6970	0	2500	0	500	0	30	0	成田甲斐参戦！黒い敵に強力効果の頼もしい戦国武将達！★詳細はバナーをタップ!!
20191020	1100	20191022	1100	81000	999999	0	0	1	2	-1	0	0	0	0	0	0	0	0	0	0	0	0	0		372	150	0	0	0	0	6970	0	2500	0	500	0	30	0	謎だらけのキモかわ生命体！シークレット新参戦！？★詳細はバナーをタップ!!
20191022	1100	20191024	1100	81000	999999	0	0	1	2	-1	0	0	0	0	0	0	0	0	0	0	0	0	0		377	150	0	0	0	0	6970	0	2500	0	500	0	30	0	にゃんこ軍団秘蔵の超兵器達！シークレット新参戦！？★詳細はバナーをタップ!!
20191024	1100	20191026	1100	81000	999999	0	0	1	2	-1	0	0	0	0	0	0	0	0	0	0	0	0	0		402	150	0	0	0	0	6970	0	2500	0	500	0	30	0	英雄令嬢メルシュ参戦！パワフルでキュートな電脳少女達！★詳細はバナーをタップ!!
20191026	1100	20191030	1100	81000	999999	0	0	1	1	414	150	0	0	0	0	7000	0	2500	0	500	1	0	0	【終了間近】『メルクストーリア』キャラ限定コラボガチャ！★11連で超激レア確定!!
20191026	1100	20191101	1100	81000	999999	0	0	1	3	-1	0	0	0	0	0	0	0	0	0	0	0	0	0		-1	0	0	0	0	0	0	0	0	0	0	0	0	0		257	150	0	0	0	0	7000	0	2500	0	500	1	0	0	ハロウィン限定のコスプレキャラを手に入れよう！★11連で超激レア確定!!
20191026	1100	20191028	1100	81000	999999	0	0	1	2	-1	0	0	0	0	0	0	0	0	0	0	0	0	0		380	150	0	0	0	0	6970	0	2500	0	500	1	30	0	個性的で愉快な精霊を仲間にしよう！シークレット新参戦！？★詳細はバナーをタップ!!
20191028	1100	20191030	1100	81000	999999	0	0	1	2	-1	0	0	0	0	0	0	0	0	0	0	0	0	0		392	150	0	0	0	0	6970	0	2500	0	500	1	30	0	にゃんこワールドの偉大なる神々！シークレット新参戦！？★詳細はバナーをタップ!!
20191030	1100	20191101	1100	81000	999999	0	0	1	1	354	150	0	0	0	0	7000	0	2500	0	500	1	0	0	異世界より召喚された愉快なモンスター美少女達！★11連で超激レア確定!!
[end]
