[start]
20180109	1100	20300101	0	60700	999999	0	0	0	1	0	0	0	0	10000	0	0	0	0	0	0	0	0	0	
20160101	0	20300101	0	50700	999999	0	0	1	1	0	150	0	0	0	0	7500	0	2000	0	500	0	0	0	ここでしか手に入らないキャラクターが必ず出現！しかもレアキャラ以上確定!!
20180101	0	20300101	0	50700	999999	0	0	2	2	33	30	0	0	0	0	7500	0	2000	0	500	0	0	0		23	30	0	0	0	0	7500	0	2000	0	500	0	0	0	
20180101	0	20300101	0	50700	999999	0	0	3	2	33	75	0	0	0	0	7500	0	2000	0	500	0	0	0		23	75	0	0	0	0	7500	0	2000	0	500	0	0	0	
20180915	1100	20300101	0	70400	999999	0	0	1	4	-1	150	0	0	0	0	7500	0	2000	0	500	0	0	0		-1	150	0	0	0	0	7500	0	2000	0	500	0	0	0		-1	150	0	0	0	0	7500	0	2000	0	500	0	0	0		320	0	0	0	0	0	0	0	0	0	10000	0	0	0	超激レアのキャラクターが必ず１体手に入る「プラチナガチャ」！
20190416	1100	20190501	2359	80400	999999	0	0	0	4	-1	150	0	0	0	0	7500	0	2000	0	500	0	0	0		-1	150	0	0	0	0	7500	0	2000	0	500	0	0	0		-1	150	0	0	0	0	7500	0	2000	0	500	0	0	0		23	0	300	0	0	0	5100	0	3500	0	1400	0	0	0	【期間限定】ネコビタンとXPが手に入る特別仕様ガチャ！★5月1日まで！
20190422	1100	20190506	2359	80500	999999	0	0	4	1	12	0	0	0	3000	0	2500	0	1300	0	2500	1	700	1	【期間限定】ビックリマンチョコで回せるコラボ限定ガチャ！★5月6日まで！	イベントガチャをあと	回ガチャれば限定キャラクターが必ず出現!!
20190429	1100	20190513	2359	80500	999999	0	0	0	3	-1	150	0	0	0	0	7500	0	2000	0	500	0	0	0		-1	150	0	0	0	0	7500	0	2000	0	500	0	0	0		25	0	0	0	0	0	7400	0	2100	0	500	0	0	0	【期間限定】ちびネコ達が手に入る特別仕様のイベントガチャ！★5月13日まで！
20190422	1100	20190506	1100	80500	999999	0	0	1	1	383	150	0	6600	0	0	6970	0	2500	0	500	0	30	0	悪魔VS天使！『ビックリマン』コラボガチャが新登場！★詳細はバナーをタップ!!
20190422	1100	20190425	1100	80500	999999	0	0	1	2	-1	150	0	0	0	0	7500	0	2000	0	500	0	0	0		354	150	0	6600	0	0	7000	0	2500	0	500	0	0	0	異世界より召喚された愉快なモンスター美少女達！★詳細はバナーをタップ!!
20190425	1100	20190427	1100	80500	999999	0	0	1	2	-1	150	0	0	0	0	7500	0	2000	0	500	0	0	0		342	150	0	6600	0	0	7000	0	2500	0	500	0	0	0	正義と闇、２つの力を持つにゃんこ軍団の救世主！★詳細はバナーをタップ!!
20190427	1100	20190429	1100	80500	999999	0	0	1	2	-1	150	0	0	0	0	7500	0	2000	0	500	0	0	0		362	150	0	6600	0	0	6970	0	2500	0	500	0	30	0	にゃんこワールド最大級の仰天進化！シークレット新参戦！？★詳細はバナーをタップ!!
20190429	1100	20190502	1100	80500	999999	0	0	1	2	-1	150	0	0	0	0	7500	0	2000	0	500	0	0	0		360	150	0	6600	0	0	6500	0	2600	0	900	0	0	0	強力な限定キャラ「幼傑ダルターニャ」も参戦！★超激レア出現率が今だけ超アップ!!
20190429	1100	20190506	1100	80500	999999	0	0	0	2	-1	150	0	0	0	0	7500	0	2000	0	500	0	0	0		3	0	300	0	400	0	2000	0	7000	0	600	0	0	0	高確率でマタタビが手に入るイベント限定特別ガチャ！　5月6日11時まで！
20190506	1100	20190513	1100	80500	999999	0	0	0	2	-1	150	0	0	0	0	7500	0	2000	0	500	0	0	0		5	0	0	2	500	0	7000	0	2000	0	500	0	0	0	高確率でキャッツアイが手に入るイベント限定特別ガチャ！　5月13日11時まで！
20190502	1100	20190506	1100	80500	999999	0	0	1	1	383	150	0	6600	0	0	6970	0	2500	0	500	1	30	0	【終了間近】悪魔VS天使！『ビックリマン』コラボガチャ！★詳細はバナーをタップ!!
20190502	1100	20190504	1100	80500	999999	0	0	1	2	-1	150	0	0	0	0	7500	0	2000	0	500	0	0	0		372	150	0	6600	0	0	6970	0	2500	0	500	1	30	0	謎だらけのキモかわ生命体！シークレット新参戦！？★詳細はバナーをタップ!!
20190504	1100	20190506	1100	80500	999999	0	0	1	2	-1	150	0	0	0	0	7500	0	2000	0	500	0	0	0		330	150	0	6600	0	0	6970	0	2500	0	500	1	30	0	黒い敵に強力効果のバサラーズ！シークレット武将新参戦！？★詳細はバナーをタップ!!
20190506	1100	20190508	1100	80500	999999	0	0	1	1	377	150	0	0	0	0	6970	0	2500	0	500	0	30	0	にゃんこ軍団秘蔵の超兵器達！シークレット新参戦！？★詳細はバナーをタップ!!
20190508	1100	20190510	1100	80500	999999	0	0	1	1	333	150	0	0	0	0	6970	0	2500	0	500	0	30	0	パワフルでキュートな電脳少女達！シークレット新参戦！？★詳細はバナーをタップ!!
[end]
