[start]
20180109	1100	20300101	0	60700	999999	0	0	0	1	0	0	0	0	10000	0	0	0	0	0	0	0	0	0	
20180101	0	20300101	0	80200	999999	0	0	2	3	33	30	0	0	0	0	7500	0	2000	0	500	0	0	0		23	30	0	0	0	0	7500	0	2000	0	500	0	0	0		0	30	0	0	0	0	7500	0	2000	0	500	0	0	0	
20180101	0	20300101	0	80200	999999	0	0	3	3	33	75	0	0	0	0	7500	0	2000	0	500	0	0	0		23	75	0	0	0	0	7500	0	2000	0	500	0	0	0		0	75	0	0	0	0	7500	0	2000	0	500	0	0	0	
20210426	1100	20300101	000	100400	999999	0	0	0	3	-1	0	0	0	0	0	0	0	0	0	0	0	0	0		-1	0	0	0	0	0	0	0	0	0	0	0	0	0		62	0	0	0	0	0	7400	0	2100	0	500	0	0	0	ちびネコ達が手に入る特別仕様のイベントガチャ！
20210316	1100	20300101	000	100400	999999	0	0	0	4	-1	0	0	0	0	0	0	0	0	0	0	0	0	0		-1	0	0	0	0	0	0	0	0	0	0	0	0	0		-1	0	0	0	0	0	0	0	0	0	0	0	0	0		63	0	300	0	0	0	5100	0	3500	0	1400	0	0	0	ネコビタンとXPが手に入る特別仕様ガチャ！
20211208	000	20300101	000	110100	999999	0	0	0	1	64	0	2300	0	10000	0	0	0	0	0	0	0	0	0	
20220501	1100	20300101	000	110500	999999	0	0	1	4	-1	0	0	0	0	0	0	0	0	0	0	0	0	0		-1	0	0	0	0	0	0	0	0	0	0	0	0	0		-1	0	0	0	0	0	0	0	0	0	0	0	0	0		730	0	0	0	0	0	0	0	0	0	9500	0	500	0	超激レア以上のキャラクターが必ず１体手に入る「レジェンドガチャ」！
20220501	1100	20300101	000	110500	999999	0	0	1	5	-1	0	0	0	0	0	0	0	0	0	0	0	0	0		-1	0	0	0	0	0	0	0	0	0	0	0	0	0		-1	0	0	0	0	0	0	0	0	0	0	0	0	0		-1	0	0	0	0	0	0	0	0	0	0	0	0	0		729	0	0	0	0	0	0	0	0	0	10000	0	0	0	超激レアのキャラクターが必ず１体手に入る「プラチナガチャ」！
20220604	1100	20300101	000	110600	999999	0	0	1	4	-1	0	0	0	0	0	0	0	0	0	0	0	0	0		-1	0	0	0	0	0	0	0	0	0	0	0	0	0		-1	0	0	0	0	0	0	0	0	0	0	0	0	0		736	0	0	0	0	0	0	0	0	0	9500	0	500	0	超激レア以上のキャラクターが必ず１体手に入る「レジェンドガチャ」！
20220604	1100	20300101	000	110600	999999	0	0	1	5	-1	0	0	0	0	0	0	0	0	0	0	0	0	0		-1	0	0	0	0	0	0	0	0	0	0	0	0	0		-1	0	0	0	0	0	0	0	0	0	0	0	0	0		-1	0	0	0	0	0	0	0	0	0	0	0	0	0		735	0	0	0	0	0	0	0	0	0	10000	0	0	0	超激レアのキャラクターが必ず１体手に入る「プラチナガチャ」！
20220606	1100	20220628	0	110600	999999	0	0	4	1	19	0	0	0	1000	0	5000	0	3000	0	1000	1	0	0	【悪魔のジューンブライド】伝説の聖水で回せる限定ガチャ！★6月27日まで	このガチャをあと	回ガチャれば限定キャラクターが必ず出現！	0
20220606	1100	20220627	1100	110600	999999	0	0	1	2	-1	0	0	0	0	0	0	0	0	0	0	0	0	0		731	150	0	16384	0	0	7000	0	2500	0	500	0	0	0	ジューンブライド期間限定のハッピーなガチャが新登場！★詳細はバナーをタップ!!
20220620	1100	20220627	1100	110600	999999	0	0	0	2	-1	0	0	0	0	0	0	0	0	0	0	0	0	0		3	0	300	0	400	0	2000	0	7000	0	600	0	0	0	高確率でマタタビが手に入るイベント限定特別ガチャ！
20220622	1100	20220627	1100	110600	999999	0	0	1	2	-1	0	0	0	0	0	0	0	0	0	0	0	0	0		731	150	0	0	0	0	7000	0	2500	0	500	1	0	0	ジューンブライド期間限定のハッピーなガチャが新登場！★11連で超激レア確定!!
20220622	1100	20220625	1100	110600	999999	0	0	1	3	-1	0	0	0	0	0	0	0	0	0	0	0	0	0		-1	0	0	0	0	0	0	0	0	0	0	0	0	0		695	150	0	0	0	0	6970	0	2500	0	500	1	30	0	超生命体特効を持つ新キャラクター「狩猟娘テルン」参戦！★詳細はバナーをタップ!!
20220625	1100	20220627	1100	110600	999999	0	0	1	3	-1	0	0	0	0	0	0	0	0	0	0	0	0	0		-1	0	0	0	0	0	0	0	0	0	0	0	0	0		658	150	0	0	0	0	6970	0	2500	0	500	1	30	0	悪魔と天使に強いキャラクター「舌切りすずめ」参戦！★詳細はバナーをタップ!!
20220627	1100	20220711	1100	110700	999999	0	0	1	2	-1	0	0	0	0	0	0	0	0	0	0	0	0	0		748	150	0	16384	0	0	7000	0	2500	0	500	0	0	0	新キャラ2体追加！『らんま1/2』コラボガチャ！★詳細はバナーをタップ!!	0	0
20220627	1100	20220629	1100	110700	999999	0	0	1	3	-1	0	0	0	0	0	0	0	0	0	0	0	0	0		-1	0	0	0	0	0	0	0	0	0	0	0	0	0		733	150	0	16384	0	0	6970	0	2500	0	500	0	30	0	超生命体特効を持つ新キャラクター「海龍ダライアサン」参戦！★詳細はバナーをタップ!!
20220629	1100	20220701	1100	110700	999999	0	0	1	3	-1	0	0	0	0	0	0	0	0	0	0	0	0	0		-1	0	0	0	0	0	0	0	0	0	0	0	0	0		661	150	0	16384	0	0	6970	0	2500	0	500	0	30	0	悪魔とエイリアンに強いキャラ「白騎士キュクロプス」参戦！★詳細はバナーをタップ!!
20220701	1100	20220704	1100	110700	999999	0	0	1	1	743	150	0	0	0	0	6500	0	2600	0	900	0	0	0	超激レアキャラが一堂に集結!!★超激レア出現率超アップの「超ネコ祭」開催中!!
20220704	1100	20220706	1100	110700	999999	0	0	1	3	-1	0	0	0	0	0	0	0	0	0	0	0	0	0		-1	0	0	0	0	0	0	0	0	0	0	0	0	0		719	150	0	16384	0	0	6970	0	2500	0	500	0	30	0	超生命体特効を持つ新キャラクター「氷の精霊フリズ」参戦！★詳細はバナーをタップ!!
[end]
